{
            "CoreField.Identifier": "NL1UO5F",
            "Document.ParentIdentifier": "NL1UMRC",
            "Document.IIIFV3ID": "https://collections.newberry.org/IIIF3/Presentation/Canvas/2KXJ8ZWQWKX5",
            "Title": "W. 1/2 of S.W. 1/4, section 33.40.14 : part of Sheffields add."
        }, {
            "CoreField.Identifier": "NL1UO06",
            "Document.ParentIdentifier": "NL1UMRC",
            "Document.IIIFV3ID": "https://collections.newberry.org/IIIF3/Presentation/Canvas/2KXJ8ZWQTON1",
            "Title": "Map of the Hudson River : shewing location of proposed dams and jetties for permanently improving the navigation of the Hudson River"
        }, {
            "CoreField.Identifier": "NL1UNYL",
            "Document.ParentIdentifier": "NL1UMRC",
            "Document.IIIFV3ID": "https://collections.newberry.org/IIIF3/Presentation/Canvas/2KXJ8ZWQS8VP",
            "Title": "Florida et Apalche"
        }, {
            "CoreField.Identifier": "NL1UNYH",
            "Document.ParentIdentifier": "NL1UMRC",
            "Document.IIIFV3ID": "https://collections.newberry.org/IIIF3/Presentation/Canvas/2KXJ8ZWQSF5B",
            "Title": "Skeleton map of the overland mail route to California"
        }, {
            "CoreField.Identifier": "NL1UNL2",
            "Document.ParentIdentifier": "NL1UMRC",
            "Document.IIIFV3ID": "https://collections.newberry.org/IIIF3/Presentation/Canvas/2KXJ8ZWQ4F6B",
            "Title": "Kansas Pacific Railway the best and shortest cattle trail from Texas"
        }, {
            "CoreField.Identifier": "NL1UNFF",
            "Document.ParentIdentifier": "NL1UMRC",
            "Document.IIIFV3ID": "https://collections.newberry.org/IIIF3/Presentation/Canvas/2KXJ8ZWQ9JS4",
            "Title": "Map of the discoveries made by the Russians on the north west coast of America"
        }, {
            "CoreField.Identifier": "NL1UNF1",
            "Document.ParentIdentifier": "NL1UNF3",
            "Document.IIIFV3ID": "https://collections.newberry.org/IIIF3/Presentation/Canvas/2KXJ8ZWQ9EYW",
            "Title": "This represents the Charecke Nation by Col. Herberts map & my own observations with the path to Charles Town, its course & (distance measured by my..."
        }, {
            "CoreField.Identifier": "NL1UNEN",
            "Document.ParentIdentifier": "NL1UNEO",
            "Document.IIIFV3ID": "https://collections.newberry.org/IIIF3/Presentation/Canvas/2KXJ8ZWQ70ER",
            "Title": "Mappa geral da Republica dos Estados Unidos do Brasil : publicado por occasia\u00cc\u0192o da Exposic\u00cc\u00a7\u00cc\u00a7a\u00cc\u0192o Nacional de 1908 por ordem do Exmo. Snr. Ministro da..."
        }, {
            "CoreField.Identifier": "NL1UNEK",
            "Document.ParentIdentifier": "NL1UMRC",
            "Document.IIIFV3ID": "https://collections.newberry.org/IIIF3/Presentation/Canvas/2KXJ8ZWQ7HJ7",
            "Title": "Map of the military district, Kansas and the territories"
        }, {
            "CoreField.Identifier": "NL1UNEB",
            "Document.ParentIdentifier": "NL1UMRC",
            "Document.IIIFV3ID": "https://collections.newberry.org/IIIF3/Presentation/Canvas/2KXJ8ZWQ7SG4",
            "Title": "Map of the military district, Kansas and the territories"
        }, {
            "CoreField.Identifier": "NL1UN4Q",
            "Document.ParentIdentifier": "NL1UNEH",
            "Document.IIIFV3ID": "https://collections.newberry.org/IIIF3/Presentation/Canvas/2KXJ8ZWQ77OO",
            "Title": "Preliminary comprehensive city plan of Chicago a generalized presentation of the physical elements of the city plan designed for a population of..."
        }, {
            "CoreField.Identifier": "NL1UN4O",
            "Document.ParentIdentifier": "NL1UNEH",
            "Document.IIIFV3ID": "https://collections.newberry.org/IIIF3/Presentation/Canvas/2KXJ8ZWQ71XK",
            "Title": "Preliminary comprehensive city plan of Chicago a generalized presentation of the physical elements of the city plan designed for a population of..."
        }, {
            "CoreField.Identifier": "NL1UN4K",
            "Document.ParentIdentifier": "NL1UMRC",
            "Document.IIIFV3ID": "https://collections.newberry.org/IIIF3/Presentation/Canvas/2KXJ8ZWQ76MU",
            "Title": "Plan for New York City, 1969 : a proposal"
        }, {
            "CoreField.Identifier": "NL1UMWN",
            "Document.ParentIdentifier": "NL1UMRC",
            "Document.IIIFV3ID": "https://collections.newberry.org/IIIF3/Presentation/Canvas/2KXJ8ZWQ5THX",
            "Title": "Interior of engine house, at Springfield Massachusetts"
        }, {
            "CoreField.Identifier": "NL1UMVW",
            "Document.ParentIdentifier": "NL1UMRC",
            "Document.IIIFV3ID": "https://collections.newberry.org/IIIF3/Presentation/Canvas/2KXJ8ZWQK8_O",
            "Title": "Composition of the foreign-born population, 1890"
        }, {
            "CoreField.Identifier": "NL1UMVV",
            "Document.ParentIdentifier": "NL1UMRC",
            "Document.IIIFV3ID": "https://collections.newberry.org/IIIF3/Presentation/Canvas/2KXJ8ZWQK7_2",
            "Title": "Die nordatlantische Sargasso See : nach der Ha\u0308ufigkeit des Krautvorkommens dargestellt"
        }, {
            "CoreField.Identifier": "NL1UMVR",
            "Document.ParentIdentifier": "NL1UMRC",
            "Document.IIIFV3ID": "https://collections.newberry.org/IIIF3/Presentation/Canvas/2KXJ8ZWQKN_7",
            "Title": "Karte des San Juan- od. Haro-Archipels : nach den Aufnahmen der Engl. Admiralita\u0308t unter Kellett, Richards, &c. 1847, 1858 und 1859"
        }, {
            "CoreField.Identifier": "NL1UMVQ",
            "Document.ParentIdentifier": "NL1UMRC",
            "Document.IIIFV3ID": "https://collections.newberry.org/IIIF3/Presentation/Canvas/2KXJ8ZWQKV_X",
            "Title": "Originalkarte der Ru\u0308ckreise der O\u0308sterr.-Ungar. Expedition, Mai-August, 1874 : nach Weyprecht\u0027s Beobachtungen"
        }, {
            "CoreField.Identifier": "NL1UMVO",
            "Document.ParentIdentifier": "NL1UMVK",
            "Document.IIIFV3ID": "https://collections.newberry.org/IIIF3/Presentation/Canvas/2KXJ8ZWQKX_O",
            "Title": "New Jersey Intracoastal Waterway Little Egg Harbor to Longport"
        }, {
            "CoreField.Identifier": "NL1UMVN",
            "Document.ParentIdentifier": "NL1UMRC",
            "Document.IIIFV3ID": "https://collections.newberry.org/IIIF3/Presentation/Canvas/2KXJ8ZWQKZ_U",
            "Title": "W. 1/2 of N.W. 1/4, section 33.40.14 : Canal Trustees sub. of part of sec. 33.40.14"
        }, {
            "CoreField.Identifier": "NL1UMVJ",
            "Document.ParentIdentifier": "NL1UMRC",
            "Document.IIIFV3ID": "https://collections.newberry.org/IIIF3/Presentation/Canvas/2KXJ8ZWQKH_B",
            "Title": "Mount Vesuvius, as seen from the Bay of Naples"
        }, {
            "CoreField.Identifier": "NL1UMVG",
            "Document.ParentIdentifier": "NL1UMRC",
            "Document.IIIFV3ID": "https://collections.newberry.org/IIIF3/Presentation/Canvas/2KXJ8ZWQKR_Q",
            "Title": "Quadrant and sextant of reflection"
        }, {
            "CoreField.Identifier": "NL1UMVB",
            "Document.ParentIdentifier": "NL1UMRC",
            "Document.IIIFV3ID": "https://collections.newberry.org/IIIF3/Presentation/Canvas/2KXJ8ZWQKL_U",
            "Title": "New England : the most remarqueable parts thus named by the high and mighty Prince Charles, Prince of Great Britaine"
        }, {
            "CoreField.Identifier": "NL1UMVA",
            "Document.ParentIdentifier": "NL1UMRC",
            "Document.IIIFV3ID": "https://collections.newberry.org/IIIF3/Presentation/Canvas/2KXJ8ZWQKG_W",
            "Title": "Map of the route to California : compiled from accurate observations and surveys by government"
        }, {
            "CoreField.Identifier": "NL1UMV9",
            "Document.ParentIdentifier": "NL1UMRC",
            "Document.IIIFV3ID": "https://collections.newberry.org/IIIF3/Presentation/Canvas/2KXJ8ZWQKK_K",
            "Title": "New England : the most remarqueable parts thus named by the high and mighty Prince Charles, Prince of Great Britaine"
        }, {
            "CoreField.Identifier": "NL1UMUX",
            "Document.ParentIdentifier": "NL1UMRC",
            "Document.IIIFV3ID": "https://collections.newberry.org/IIIF3/Presentation/Canvas/2KXJ8ZWQK5_D",
            "Title": "South America sketch map showing the route of Prof. Hiram Bingham from Caracas to Bogota, 1907"
        }, {
            "CoreField.Identifier": "NL1UMUR",
            "Document.ParentIdentifier": "NL1UMRC",
            "Document.IIIFV3ID": "https://collections.newberry.org/IIIF3/Presentation/Canvas/2KXJ8ZWP5ZHW",
            "Title": "Mexico City routes for entering and leaving"
        }, {
            "CoreField.Identifier": "NL1UMUO",
            "Document.ParentIdentifier": "NL1UMRC",
            "Document.IIIFV3ID": "https://collections.newberry.org/IIIF3/Presentation/Canvas/2KXJ8ZWP50L4",
            "Title": "Highways of Mexico"
        }, {
            "CoreField.Identifier": "NL1UMUA",
            "Document.ParentIdentifier": "NL1UMRC",
            "Document.IIIFV3ID": "https://collections.newberry.org/IIIF3/Presentation/Canvas/2KXJ8ZWP5JYB",
            "Title": "Map of the Hudson River"
        }, {
            "CoreField.Identifier": "NL1UMU3",
            "Document.ParentIdentifier": "NL1UMRC",
            "Document.IIIFV3ID": "https://collections.newberry.org/IIIF3/Presentation/Canvas/2KXJ8ZWP52Q8",
            "Title": "Globe gore of eastern North America, from Hudson Bay to the Gulf of Mexico"
        }, {
            "CoreField.Identifier": "NL1UMU1",
            "Document.ParentIdentifier": "NL1UMRC",
            "Document.IIIFV3ID": "https://collections.newberry.org/IIIF3/Presentation/Canvas/2KXJ8ZWP5UXD",
            "Title": "Carte geographique de la Nouuelle Franse"
        }, {
            "CoreField.Identifier": "NL1UMTP",
            "Document.ParentIdentifier": "NL1UMRC",
            "Document.IIIFV3ID": "https://collections.newberry.org/IIIF3/Presentation/Canvas/2KXJ8ZWP4QBK",
            "Title": "Map of the East River waterfront from Grand Street to Thirty-fourth Street in New York City"
        }, {
            "CoreField.Identifier": "NL1UMT0",
            "Document.ParentIdentifier": "NL1UMTP",
            "Document.IIIFV3ID": "https://collections.newberry.org/IIIF3/Presentation/Canvas/2KXJ8ZWP4MT9",
            "Title": "Map of the East River waterfront from Grand Street to Thirty-fourth Street in New York City"
        }, {
            "CoreField.Identifier": "NL1UMSV",
            "Document.ParentIdentifier": "NL1UMTK",
            "Document.IIIFV3ID": "https://collections.newberry.org/IIIF3/Presentation/Canvas/2KXJ8ZWPSL1W",
            "Title": "Rand McNally & Co.\u0027s road map of the country around New York including parts of northern and central New Jersey, Westchester County, Long Island,..."
        }, {
            "CoreField.Identifier": "NL1UMRT",
            "Document.ParentIdentifier": "NL1UMRR",
            "Document.IIIFV3ID": "https://collections.newberry.org/IIIF3/Presentation/Canvas/2KXJ8ZWPH9CK",
            "Title": "General map of the Pennsylvania Railroad and its connections"
        }, {
            "CoreField.Identifier": "NL1UL3E",
            "Document.ParentIdentifier": "NL1UL3F",
            "Document.IIIFV3ID": "https://collections.newberry.org/IIIF3/Presentation/Canvas/2KXJ8ZWPKS6B",
            "Title": "Intercity railroad passenger routes"
        }, {
            "CoreField.Identifier": "NL1TQ3F",
            "Document.ParentIdentifier": "NL1TQ3C",
            "Document.IIIFV3ID": "https://collections.newberry.org/IIIF3/Presentation/Canvas/2KXJ8ZXHUC5E",
            "Title": "Boston and Albany Railroad survey profiles from Boston to New York State line at Canaan"
        }, {
            "CoreField.Identifier": "NL1TQ39",
            "Document.ParentIdentifier": "NL1NMU0",
            "Document.IIIFV3ID": "https://collections.newberry.org/IIIF3/Presentation/Canvas/2KXJ8ZXHUEW3",
            "Title": "Carte des E\u0301tats-unis d\u0027Ame\u0301rique, 1836"
        }