{
            "CoreField.Identifier": "NL11HG41",
            "Document.ParentIdentifier": "NL11HG1W",
            "Document.IIIFV3ID": "https://collections.newberry.org/IIIF3/Presentation/Canvas/2KXJ8ZS504L9M",
            "Title": "Photographic runs. Series B, Chicago to Rockford, Rockford to Beloit, Beloit to Delavan, Delavan to Lake Geneva : containing a carefully compiled..."
        }, {
            "CoreField.Identifier": "NL11HG3Z",
            "Document.ParentIdentifier": "NL11HG1W",
            "Document.IIIFV3ID": "https://collections.newberry.org/IIIF3/Presentation/Canvas/2KXJ8ZS50HOXV",
            "Title": "Photographic runs. Series B, Chicago to Rockford, Rockford to Beloit, Beloit to Delavan, Delavan to Lake Geneva : containing a carefully compiled..."
        }, {
            "CoreField.Identifier": "NL11HG40",
            "Document.ParentIdentifier": "NL11HG1W",
            "Document.IIIFV3ID": "https://collections.newberry.org/IIIF3/Presentation/Canvas/2KXJ8ZS50HEJC",
            "Title": "Photographic runs. Series B, Chicago to Rockford, Rockford to Beloit, Beloit to Delavan, Delavan to Lake Geneva : containing a carefully compiled..."
        }, {
            "CoreField.Identifier": "NL11HG3Y",
            "Document.ParentIdentifier": "NL11HG1W",
            "Document.IIIFV3ID": "https://collections.newberry.org/IIIF3/Presentation/Canvas/2KXJ8ZS50N276",
            "Title": "Photographic runs. Series B, Chicago to Rockford, Rockford to Beloit, Beloit to Delavan, Delavan to Lake Geneva : containing a carefully compiled..."
        }, {
            "CoreField.Identifier": "NL11HG3X",
            "Document.ParentIdentifier": "NL11HG1W",
            "Document.IIIFV3ID": "https://collections.newberry.org/IIIF3/Presentation/Canvas/2KXJ8ZS504GUY",
            "Title": "Photographic runs. Series B, Chicago to Rockford, Rockford to Beloit, Beloit to Delavan, Delavan to Lake Geneva : containing a carefully compiled..."
        }, {
            "CoreField.Identifier": "NL11HG3W",
            "Document.ParentIdentifier": "NL11HG1W",
            "Document.IIIFV3ID": "https://collections.newberry.org/IIIF3/Presentation/Canvas/2KXJ8ZS504HDL",
            "Title": "Photographic runs. Series B, Chicago to Rockford, Rockford to Beloit, Beloit to Delavan, Delavan to Lake Geneva : containing a carefully compiled..."
        }, {
            "CoreField.Identifier": "NL11HG3V",
            "Document.ParentIdentifier": "NL11HG1W",
            "Document.IIIFV3ID": "https://collections.newberry.org/IIIF3/Presentation/Canvas/2KXJ8ZS50NPUN",
            "Title": "Photographic runs. Series B, Chicago to Rockford, Rockford to Beloit, Beloit to Delavan, Delavan to Lake Geneva : containing a carefully compiled..."
        }, {
            "CoreField.Identifier": "NL11HG3U",
            "Document.ParentIdentifier": "NL11HG1W",
            "Document.IIIFV3ID": "https://collections.newberry.org/IIIF3/Presentation/Canvas/2KXJ8ZS50H6GJ",
            "Title": "Photographic runs. Series B, Chicago to Rockford, Rockford to Beloit, Beloit to Delavan, Delavan to Lake Geneva : containing a carefully compiled..."
        }, {
            "CoreField.Identifier": "NL11HG3T",
            "Document.ParentIdentifier": "NL11HG1W",
            "Document.IIIFV3ID": "https://collections.newberry.org/IIIF3/Presentation/Canvas/2KXJ8ZS50SEGC",
            "Title": "Photographic runs. Series B, Chicago to Rockford, Rockford to Beloit, Beloit to Delavan, Delavan to Lake Geneva : containing a carefully compiled..."
        }, {
            "CoreField.Identifier": "NL11HG3S",
            "Document.ParentIdentifier": "NL11HG1W",
            "Document.IIIFV3ID": "https://collections.newberry.org/IIIF3/Presentation/Canvas/2KXJ8ZS50NHYL",
            "Title": "Photographic runs. Series B, Chicago to Rockford, Rockford to Beloit, Beloit to Delavan, Delavan to Lake Geneva : containing a carefully compiled..."
        }, {
            "CoreField.Identifier": "NL11HG3R",
            "Document.ParentIdentifier": "NL11HG1W",
            "Document.IIIFV3ID": "https://collections.newberry.org/IIIF3/Presentation/Canvas/2KXJ8ZS504CXJ",
            "Title": "Photographic runs. Series B, Chicago to Rockford, Rockford to Beloit, Beloit to Delavan, Delavan to Lake Geneva : containing a carefully compiled..."
        }, {
            "CoreField.Identifier": "NL11HG3Q",
            "Document.ParentIdentifier": "NL11HG1W",
            "Document.IIIFV3ID": "https://collections.newberry.org/IIIF3/Presentation/Canvas/2KXJ8ZS50SLEM",
            "Title": "Photographic runs. Series B, Chicago to Rockford, Rockford to Beloit, Beloit to Delavan, Delavan to Lake Geneva : containing a carefully compiled..."
        }, {
            "CoreField.Identifier": "NL11HG3P",
            "Document.ParentIdentifier": "NL11HG1W",
            "Document.IIIFV3ID": "https://collections.newberry.org/IIIF3/Presentation/Canvas/2KXJ8ZS50SVJ0",
            "Title": "Photographic runs. Series B, Chicago to Rockford, Rockford to Beloit, Beloit to Delavan, Delavan to Lake Geneva : containing a carefully compiled..."
        }, {
            "CoreField.Identifier": "NL11HG3O",
            "Document.ParentIdentifier": "NL11HG1W",
            "Document.IIIFV3ID": "https://collections.newberry.org/IIIF3/Presentation/Canvas/2KXJ8ZS50NATG",
            "Title": "Photographic runs. Series B, Chicago to Rockford, Rockford to Beloit, Beloit to Delavan, Delavan to Lake Geneva : containing a carefully compiled..."
        }, {
            "CoreField.Identifier": "NL11HG3N",
            "Document.ParentIdentifier": "NL11HG1W",
            "Document.IIIFV3ID": "https://collections.newberry.org/IIIF3/Presentation/Canvas/2KXJ8ZS50SJ3F",
            "Title": "Photographic runs. Series B, Chicago to Rockford, Rockford to Beloit, Beloit to Delavan, Delavan to Lake Geneva : containing a carefully compiled..."
        }, {
            "CoreField.Identifier": "NL11HG3M",
            "Document.ParentIdentifier": "NL11HG1W",
            "Document.IIIFV3ID": "https://collections.newberry.org/IIIF3/Presentation/Canvas/2KXJ8ZS50SBDV",
            "Title": "Photographic runs. Series B, Chicago to Rockford, Rockford to Beloit, Beloit to Delavan, Delavan to Lake Geneva : containing a carefully compiled..."
        }, {
            "CoreField.Identifier": "NL11HG3L",
            "Document.ParentIdentifier": "NL11HG1W",
            "Document.IIIFV3ID": "https://collections.newberry.org/IIIF3/Presentation/Canvas/2KXJ8ZS50SGVY",
            "Title": "Photographic runs. Series B, Chicago to Rockford, Rockford to Beloit, Beloit to Delavan, Delavan to Lake Geneva : containing a carefully compiled..."
        }, {
            "CoreField.Identifier": "NL11HG3K",
            "Document.ParentIdentifier": "NL11HG1W",
            "Document.IIIFV3ID": "https://collections.newberry.org/IIIF3/Presentation/Canvas/2KXJ8ZS50S78N",
            "Title": "Photographic runs. Series B, Chicago to Rockford, Rockford to Beloit, Beloit to Delavan, Delavan to Lake Geneva : containing a carefully compiled..."
        }, {
            "CoreField.Identifier": "NL11HG3J",
            "Document.ParentIdentifier": "NL11HG1W",
            "Document.IIIFV3ID": "https://collections.newberry.org/IIIF3/Presentation/Canvas/2KXJ8ZS50NFZA",
            "Title": "Photographic runs. Series B, Chicago to Rockford, Rockford to Beloit, Beloit to Delavan, Delavan to Lake Geneva : containing a carefully compiled..."
        }, {
            "CoreField.Identifier": "NL11HG3I",
            "Document.ParentIdentifier": "NL11HG1W",
            "Document.IIIFV3ID": "https://collections.newberry.org/IIIF3/Presentation/Canvas/2KXJ8ZS50NBQV",
            "Title": "Photographic runs. Series B, Chicago to Rockford, Rockford to Beloit, Beloit to Delavan, Delavan to Lake Geneva : containing a carefully compiled..."
        }, {
            "CoreField.Identifier": "NL11HG3H",
            "Document.ParentIdentifier": "NL11HG1W",
            "Document.IIIFV3ID": "https://collections.newberry.org/IIIF3/Presentation/Canvas/2KXJ8ZS504JIF",
            "Title": "Photographic runs. Series B, Chicago to Rockford, Rockford to Beloit, Beloit to Delavan, Delavan to Lake Geneva : containing a carefully compiled..."
        }, {
            "CoreField.Identifier": "NL11HG3G",
            "Document.ParentIdentifier": "NL11HG1W",
            "Document.IIIFV3ID": "https://collections.newberry.org/IIIF3/Presentation/Canvas/2KXJ8ZS504QFT",
            "Title": "Photographic runs. Series B, Chicago to Rockford, Rockford to Beloit, Beloit to Delavan, Delavan to Lake Geneva : containing a carefully compiled..."
        }, {
            "CoreField.Identifier": "NL11HG3F",
            "Document.ParentIdentifier": "NL11HG1W",
            "Document.IIIFV3ID": "https://collections.newberry.org/IIIF3/Presentation/Canvas/2KXJ8ZS504TKY",
            "Title": "Photographic runs. Series B, Chicago to Rockford, Rockford to Beloit, Beloit to Delavan, Delavan to Lake Geneva : containing a carefully compiled..."
        }, {
            "CoreField.Identifier": "NL11HG3E",
            "Document.ParentIdentifier": "NL11HG1W",
            "Document.IIIFV3ID": "https://collections.newberry.org/IIIF3/Presentation/Canvas/2KXJ8ZS50SK4H",
            "Title": "Photographic runs. Series B, Chicago to Rockford, Rockford to Beloit, Beloit to Delavan, Delavan to Lake Geneva : containing a carefully compiled..."
        }, {
            "CoreField.Identifier": "NL11HG3D",
            "Document.ParentIdentifier": "NL11HG1W",
            "Document.IIIFV3ID": "https://collections.newberry.org/IIIF3/Presentation/Canvas/2KXJ8ZS50SIOE",
            "Title": "Photographic runs. Series B, Chicago to Rockford, Rockford to Beloit, Beloit to Delavan, Delavan to Lake Geneva : containing a carefully compiled..."
        }, {
            "CoreField.Identifier": "NL11HG3C",
            "Document.ParentIdentifier": "NL11HG1W",
            "Document.IIIFV3ID": "https://collections.newberry.org/IIIF3/Presentation/Canvas/2KXJ8ZS50NDR3",
            "Title": "Photographic runs. Series B, Chicago to Rockford, Rockford to Beloit, Beloit to Delavan, Delavan to Lake Geneva : containing a carefully compiled..."
        }, {
            "CoreField.Identifier": "NL11HG3B",
            "Document.ParentIdentifier": "NL11HG1W",
            "Document.IIIFV3ID": "https://collections.newberry.org/IIIF3/Presentation/Canvas/2KXJ8ZS50S91T",
            "Title": "Photographic runs. Series B, Chicago to Rockford, Rockford to Beloit, Beloit to Delavan, Delavan to Lake Geneva : containing a carefully compiled..."
        }, {
            "CoreField.Identifier": "NL11HG39",
            "Document.ParentIdentifier": "NL11HG1W",
            "Document.IIIFV3ID": "https://collections.newberry.org/IIIF3/Presentation/Canvas/2KXJ8ZS50NTMY",
            "Title": "Photographic runs. Series B, Chicago to Rockford, Rockford to Beloit, Beloit to Delavan, Delavan to Lake Geneva : containing a carefully compiled..."
        }, {
            "CoreField.Identifier": "NL11HG3A",
            "Document.ParentIdentifier": "NL11HG1W",
            "Document.IIIFV3ID": "https://collections.newberry.org/IIIF3/Presentation/Canvas/2KXJ8ZS50SU2H",
            "Title": "Photographic runs. Series B, Chicago to Rockford, Rockford to Beloit, Beloit to Delavan, Delavan to Lake Geneva : containing a carefully compiled..."
        }, {
            "CoreField.Identifier": "NL11HG38",
            "Document.ParentIdentifier": "NL11HG1W",
            "Document.IIIFV3ID": "https://collections.newberry.org/IIIF3/Presentation/Canvas/2KXJ8ZS50S2I6",
            "Title": "Photographic runs. Series B, Chicago to Rockford, Rockford to Beloit, Beloit to Delavan, Delavan to Lake Geneva : containing a carefully compiled..."
        }, {
            "CoreField.Identifier": "NL11HG37",
            "Document.ParentIdentifier": "NL11HG1W",
            "Document.IIIFV3ID": "https://collections.newberry.org/IIIF3/Presentation/Canvas/2KXJ8ZS50GK1H",
            "Title": "Photographic runs. Series B, Chicago to Rockford, Rockford to Beloit, Beloit to Delavan, Delavan to Lake Geneva : containing a carefully compiled..."
        }, {
            "CoreField.Identifier": "NL11HG36",
            "Document.ParentIdentifier": "NL11HG1W",
            "Document.IIIFV3ID": "https://collections.newberry.org/IIIF3/Presentation/Canvas/2KXJ8ZS504YRC",
            "Title": "Photographic runs. Series B, Chicago to Rockford, Rockford to Beloit, Beloit to Delavan, Delavan to Lake Geneva : containing a carefully compiled..."
        }, {
            "CoreField.Identifier": "NL11HG35",
            "Document.ParentIdentifier": "NL11HG1W",
            "Document.IIIFV3ID": "https://collections.newberry.org/IIIF3/Presentation/Canvas/2KXJ8ZS50SYTC",
            "Title": "Photographic runs. Series B, Chicago to Rockford, Rockford to Beloit, Beloit to Delavan, Delavan to Lake Geneva : containing a carefully compiled..."
        }, {
            "CoreField.Identifier": "NL11HG34",
            "Document.ParentIdentifier": "NL11HG1W",
            "Document.IIIFV3ID": "https://collections.newberry.org/IIIF3/Presentation/Canvas/2KXJ8ZS50SPXN",
            "Title": "Photographic runs. Series B, Chicago to Rockford, Rockford to Beloit, Beloit to Delavan, Delavan to Lake Geneva : containing a carefully compiled..."
        }, {
            "CoreField.Identifier": "NL11HG33",
            "Document.ParentIdentifier": "NL11HG1W",
            "Document.IIIFV3ID": "https://collections.newberry.org/IIIF3/Presentation/Canvas/2KXJ8ZS50S6LJ",
            "Title": "Photographic runs. Series B, Chicago to Rockford, Rockford to Beloit, Beloit to Delavan, Delavan to Lake Geneva : containing a carefully compiled..."
        }, {
            "CoreField.Identifier": "NL11HG32",
            "Document.ParentIdentifier": "NL11HG1W",
            "Document.IIIFV3ID": "https://collections.newberry.org/IIIF3/Presentation/Canvas/2KXJ8ZS50GPDN",
            "Title": "Photographic runs. Series B, Chicago to Rockford, Rockford to Beloit, Beloit to Delavan, Delavan to Lake Geneva : containing a carefully compiled..."
        }, {
            "CoreField.Identifier": "NL11HG2Y",
            "Document.ParentIdentifier": "NL11HG1W",
            "Document.IIIFV3ID": "https://collections.newberry.org/IIIF3/Presentation/Canvas/2KXJ8ZS50SWP3",
            "Title": "Photographic runs. Series B, Chicago to Rockford, Rockford to Beloit, Beloit to Delavan, Delavan to Lake Geneva : containing a carefully compiled..."
        }, {
            "CoreField.Identifier": "NL11HG31",
            "Document.ParentIdentifier": "NL11HG1W",
            "Document.IIIFV3ID": "https://collections.newberry.org/IIIF3/Presentation/Canvas/2KXJ8ZS504WT3",
            "Title": "Photographic runs. Series B, Chicago to Rockford, Rockford to Beloit, Beloit to Delavan, Delavan to Lake Geneva : containing a carefully compiled..."
        }, {
            "CoreField.Identifier": "NL11HG30",
            "Document.ParentIdentifier": "NL11HG1W",
            "Document.IIIFV3ID": "https://collections.newberry.org/IIIF3/Presentation/Canvas/2KXJ8ZS504RHS",
            "Title": "Photographic runs. Series B, Chicago to Rockford, Rockford to Beloit, Beloit to Delavan, Delavan to Lake Geneva : containing a carefully compiled..."
        }, {
            "CoreField.Identifier": "NL11HG2Z",
            "Document.ParentIdentifier": "NL11HG1W",
            "Document.IIIFV3ID": "https://collections.newberry.org/IIIF3/Presentation/Canvas/2KXJ8ZS504FBA",
            "Title": "Photographic runs. Series B, Chicago to Rockford, Rockford to Beloit, Beloit to Delavan, Delavan to Lake Geneva : containing a carefully compiled..."
        }, {
            "CoreField.Identifier": "NL11HG2X",
            "Document.ParentIdentifier": "NL11HG1W",
            "Document.IIIFV3ID": "https://collections.newberry.org/IIIF3/Presentation/Canvas/2KXJ8ZS50SNCG",
            "Title": "Photographic runs. Series B, Chicago to Rockford, Rockford to Beloit, Beloit to Delavan, Delavan to Lake Geneva : containing a carefully compiled..."
        }, {
            "CoreField.Identifier": "NL11HG2W",
            "Document.ParentIdentifier": "NL11HG1W",
            "Document.IIIFV3ID": "https://collections.newberry.org/IIIF3/Presentation/Canvas/2KXJ8ZS50ST0Y",
            "Title": "Photographic runs. Series B, Chicago to Rockford, Rockford to Beloit, Beloit to Delavan, Delavan to Lake Geneva : containing a carefully compiled..."
        }, {
            "CoreField.Identifier": "NL11HG2V",
            "Document.ParentIdentifier": "NL11HG1W",
            "Document.IIIFV3ID": "https://collections.newberry.org/IIIF3/Presentation/Canvas/2KXJ8ZS50G6NJ",
            "Title": "Photographic runs. Series B, Chicago to Rockford, Rockford to Beloit, Beloit to Delavan, Delavan to Lake Geneva : containing a carefully compiled..."
        }, {
            "CoreField.Identifier": "NL11HG2U",
            "Document.ParentIdentifier": "NL11HG1W",
            "Document.IIIFV3ID": "https://collections.newberry.org/IIIF3/Presentation/Canvas/2KXJ8ZS50SHAL",
            "Title": "Photographic runs. Series B, Chicago to Rockford, Rockford to Beloit, Beloit to Delavan, Delavan to Lake Geneva : containing a carefully compiled..."
        }, {
            "CoreField.Identifier": "NL11HG2T",
            "Document.ParentIdentifier": "NL11HG1W",
            "Document.IIIFV3ID": "https://collections.newberry.org/IIIF3/Presentation/Canvas/2KXJ8ZS50XBHV",
            "Title": "Photographic runs. Series B, Chicago to Rockford, Rockford to Beloit, Beloit to Delavan, Delavan to Lake Geneva : containing a carefully compiled..."
        }, {
            "CoreField.Identifier": "NL11HG2S",
            "Document.ParentIdentifier": "NL11HG1W",
            "Document.IIIFV3ID": "https://collections.newberry.org/IIIF3/Presentation/Canvas/2KXJ8ZS50SRKS",
            "Title": "Photographic runs. Series B, Chicago to Rockford, Rockford to Beloit, Beloit to Delavan, Delavan to Lake Geneva : containing a carefully compiled..."
        }, {
            "CoreField.Identifier": "NL11HG2R",
            "Document.ParentIdentifier": "NL11HG1W",
            "Document.IIIFV3ID": "https://collections.newberry.org/IIIF3/Presentation/Canvas/2KXJ8ZS50V6CJ",
            "Title": "Photographic runs. Series B, Chicago to Rockford, Rockford to Beloit, Beloit to Delavan, Delavan to Lake Geneva : containing a carefully compiled..."
        }, {
            "CoreField.Identifier": "NL11HG2Q",
            "Document.ParentIdentifier": "NL11HG1W",
            "Document.IIIFV3ID": "https://collections.newberry.org/IIIF3/Presentation/Canvas/2KXJ8ZS504A7G",
            "Title": "Photographic runs. Series B, Chicago to Rockford, Rockford to Beloit, Beloit to Delavan, Delavan to Lake Geneva : containing a carefully compiled..."
        }, {
            "CoreField.Identifier": "NL11HG2P",
            "Document.ParentIdentifier": "NL11HG1W",
            "Document.IIIFV3ID": "https://collections.newberry.org/IIIF3/Presentation/Canvas/2KXJ8ZS50X5FE",
            "Title": "Photographic runs. Series B, Chicago to Rockford, Rockford to Beloit, Beloit to Delavan, Delavan to Lake Geneva : containing a carefully compiled..."
        }, {
            "CoreField.Identifier": "NL11HG2F",
            "Document.ParentIdentifier": "NL11HG19",
            "Document.IIIFV3ID": "https://collections.newberry.org/IIIF3/Presentation/Canvas/2KXJ8ZS504OYV",
            "Title": "Holzheimer Venetian globe gores"
        }, {
            "CoreField.Identifier": "NL11HG2O",
            "Document.ParentIdentifier": "NL11HG1W",
            "Document.IIIFV3ID": "https://collections.newberry.org/IIIF3/Presentation/Canvas/2KXJ8ZS5043OA",
            "Title": "Photographic runs. Series B, Chicago to Rockford, Rockford to Beloit, Beloit to Delavan, Delavan to Lake Geneva : containing a carefully compiled..."
        }, {
            "CoreField.Identifier": "NL11HG2N",
            "Document.ParentIdentifier": "NL11HG1W",
            "Document.IIIFV3ID": "https://collections.newberry.org/IIIF3/Presentation/Canvas/2KXJ8ZS50GBIV",
            "Title": "Photographic runs. Series B, Chicago to Rockford, Rockford to Beloit, Beloit to Delavan, Delavan to Lake Geneva : containing a carefully compiled..."
        }, {
            "CoreField.Identifier": "NL11HG2L",
            "Document.ParentIdentifier": "NL11HG1W",
            "Document.IIIFV3ID": "https://collections.newberry.org/IIIF3/Presentation/Canvas/2KXJ8ZS50V7PN",
            "Title": "Photographic runs. Series B, Chicago to Rockford, Rockford to Beloit, Beloit to Delavan, Delavan to Lake Geneva : containing a carefully compiled..."
        }, {
            "CoreField.Identifier": "NL11HG2M",
            "Document.ParentIdentifier": "NL11HG1W",
            "Document.IIIFV3ID": "https://collections.newberry.org/IIIF3/Presentation/Canvas/2KXJ8ZS504KAH",
            "Title": "Photographic runs. Series B, Chicago to Rockford, Rockford to Beloit, Beloit to Delavan, Delavan to Lake Geneva : containing a carefully compiled..."
        }, {
            "CoreField.Identifier": "NL11HG2K",
            "Document.ParentIdentifier": "NL11HG1W",
            "Document.IIIFV3ID": "https://collections.newberry.org/IIIF3/Presentation/Canvas/2KXJ8ZS50G52E",
            "Title": "Photographic runs. Series B, Chicago to Rockford, Rockford to Beloit, Beloit to Delavan, Delavan to Lake Geneva : containing a carefully compiled..."
        }, {
            "CoreField.Identifier": "NL11HG2J",
            "Document.ParentIdentifier": "NL11HG1W",
            "Document.IIIFV3ID": "https://collections.newberry.org/IIIF3/Presentation/Canvas/2KXJ8ZS504ZQM",
            "Title": "Photographic runs. Series B, Chicago to Rockford, Rockford to Beloit, Beloit to Delavan, Delavan to Lake Geneva : containing a carefully compiled..."
        }, {
            "CoreField.Identifier": "NL11HG2I",
            "Document.ParentIdentifier": "NL11HG1W",
            "Document.IIIFV3ID": "https://collections.newberry.org/IIIF3/Presentation/Canvas/2KXJ8ZS50GFJA",
            "Title": "Photographic runs. Series B, Chicago to Rockford, Rockford to Beloit, Beloit to Delavan, Delavan to Lake Geneva : containing a carefully compiled..."
        }