{
    "APIRequestInfo": {
        "ProviderVersion": "CONCORD.R2.1878H.207328",
        "ProviderIdentity": "NBL-USE2-P-APP",
        "ProviderID": "85dca31b7899f944ad0236f5f856af0c",
        "Module": "search",
        "APIVersion": "v3.0",
        "Resource": "search",
        "IsLoggedIn": false,
        "Status": "Anonymous",
        "UserLogin": "anonymous",
        "Session": "No session (production configuration)",
        "TimeoutPeriodMinutes": 20
    },
    "APIResponse": {
        "GlobalInfo": {
            "TotalCount": 1,
            "QueryDurationMilliseconds": 159,
            "Sort": "Newest first"
        },
        "Items": [{
            "CoreField.Identifier": "NL1UNYN",
            "Document.CortexParentLink": "https://collections.newberry.org/asset-management/2KXJ8ZWPVDTO",
            "Document.CortexShareLink": "https://collections.newberry.org/asset-management/2KXJ8ZWQSX0P",
            "Document.ParentIdentifier": "NL1UMRC",
            "CoreField.IIIFResourceType": "",
            "Document.IIIFV3ID": "",
            "originalfilename": "MM08-0073-01_Final.tif",
            "RelatedValue.Original-Filename": "",
            "CoreField.OriginalFileName": "MM08-0073-01_Final.tif",
            "Title": "Virginia"
        }]
    }
}