[{
    "filename": "NL1BV22.json",
    "items": [{
        "CoreField.Identifier": "NL1BV22",
        "Document.CortexParentLink": "https://collections.newberry.org/asset-management/2KXJ8ZOHK65E",
        "Document.CortexShareLink": "https://collections.newberry.org/asset-management/2KXJ8ZY0IFWA",
        "Document.ParentIdentifier": "NL1BLXB",
        "CoreField.IIIFResourceType": "Canvas",
        "Document.IIIFV3ID": "https://collections.newberry.org/IIIF3/Presentation/Canvas/2KXJ8ZY0IFWA",
        "originalfilename": "MonroeJ_Sports_004342_00001.tif",
        "RelatedValue.Original-Filename": "",
        "CoreField.OriginalFileName": "MonroeJ_Sports_004342_00001.tif",
        "Title": "Cycles Gladiator / Victor Bicycles"
    }]
}, {
    "filename": "NL1BV1C.json",
    "items": [{
        "CoreField.Identifier": "NL1BV1C",
        "Document.CortexParentLink": "https://collections.newberry.org/asset-management/2KXJ8ZOHK65E",
        "Document.CortexShareLink": "https://collections.newberry.org/asset-management/2KXJ8ZY0IAXG",
        "Document.ParentIdentifier": "NL1BLXB",
        "CoreField.IIIFResourceType": "Canvas",
        "Document.IIIFV3ID": "https://collections.newberry.org/IIIF3/Presentation/Canvas/2KXJ8ZY0IAXG",
        "originalfilename": "MonroeJ_Sports_004353_00001.tif",
        "RelatedValue.Original-Filename": "",
        "CoreField.OriginalFileName": "MonroeJ_Sports_004353_00001.tif",
        "Title": "Cycling, John I. Monroe collection of sports postcards, 1902-1931"
    }]
}, {
    "filename": "NL1BUWY.json",
    "items": [{
        "CoreField.Identifier": "NL1BUWY",
        "Document.CortexParentLink": "https://collections.newberry.org/asset-management/2KXJ8ZOHK65E",
        "Document.CortexShareLink": "https://collections.newberry.org/asset-management/2KXJ8ZY07RES",
        "Document.ParentIdentifier": "NL1BLXB",
        "CoreField.IIIFResourceType": "Canvas",
        "Document.IIIFV3ID": "https://collections.newberry.org/IIIF3/Presentation/Canvas/2KXJ8ZY07RES",
        "originalfilename": "MonroeJ_Sports_004362_00001.tif",
        "RelatedValue.Original-Filename": "",
        "CoreField.OriginalFileName": "MonroeJ_Sports_004362_00001.tif",
        "Title": "Cycling, John I. Monroe collection of sports postcards, 1902-1931"
    }]
}, {
    "filename": "NL1BV87.json",
    "items": [{
        "CoreField.Identifier": "NL1BV87",
        "Document.CortexParentLink": "https://collections.newberry.org/asset-management/2KXJ8ZOHK65E",
        "Document.CortexShareLink": "https://collections.newberry.org/asset-management/2KXJ8ZY0QIME",
        "Document.ParentIdentifier": "NL1BLXB",
        "CoreField.IIIFResourceType": "Canvas",
        "Document.IIIFV3ID": "https://collections.newberry.org/IIIF3/Presentation/Canvas/2KXJ8ZY0QIME",
        "originalfilename": "MonroeJ_Sports_004377_00001.tif",
        "RelatedValue.Original-Filename": "",
        "CoreField.OriginalFileName": "MonroeJ_Sports_004377_00001.tif",
        "Title": "Cycling, John I. Monroe collection of sports postcards, 1902-1931"
    }]
}, {
    "filename": "NL1BV2X.json",
    "items": [{
        "CoreField.Identifier": "NL1BV2X",
        "Document.CortexParentLink": "https://collections.newberry.org/asset-management/2KXJ8ZOHK65E",
        "Document.CortexShareLink": "https://collections.newberry.org/asset-management/2KXJ8ZY0TZCM",
        "Document.ParentIdentifier": "NL1BLXB",
        "CoreField.IIIFResourceType": "Canvas",
        "Document.IIIFV3ID": "https://collections.newberry.org/IIIF3/Presentation/Canvas/2KXJ8ZY0TZCM",
        "originalfilename": "MonroeJ_Sports_004345_00001.tif",
        "RelatedValue.Original-Filename": "",
        "CoreField.OriginalFileName": "MonroeJ_Sports_004345_00001.tif",
        "Title": "Adler"
    }]
}, {
    "filename": "NL1BVL8.json",
    "items": [{
        "CoreField.Identifier": "NL1BVL8",
        "Document.CortexParentLink": "https://collections.newberry.org/asset-management/2KXJ8ZOHK65E",
        "Document.CortexShareLink": "https://collections.newberry.org/asset-management/2KXJ8ZYFAE_J",
        "Document.ParentIdentifier": "NL1BLXB",
        "CoreField.IIIFResourceType": "Canvas",
        "Document.IIIFV3ID": "https://collections.newberry.org/IIIF3/Presentation/Canvas/2KXJ8ZYFAE_J",
        "originalfilename": "MonroeJ_Sports_004534_00001.tif",
        "RelatedValue.Original-Filename": "",
        "CoreField.OriginalFileName": "MonroeJ_Sports_004534_00001.tif",
        "Title": "Cycling, John I. Monroe collection of sports postcards, 1902-1931"
    }]
}, {
    "filename": "NL1BUYP.json",
    "items": [{
        "CoreField.Identifier": "NL1BUYP",
        "Document.CortexParentLink": "https://collections.newberry.org/asset-management/2KXJ8ZOHK65E",
        "Document.CortexShareLink": "https://collections.newberry.org/asset-management/2KXJ8ZY0P2V6",
        "Document.ParentIdentifier": "NL1BLXB",
        "CoreField.IIIFResourceType": "Canvas",
        "Document.IIIFV3ID": "https://collections.newberry.org/IIIF3/Presentation/Canvas/2KXJ8ZY0P2V6",
        "originalfilename": "MonroeJ_Sports_004363_00001.tif",
        "RelatedValue.Original-Filename": "",
        "CoreField.OriginalFileName": "MonroeJ_Sports_004363_00001.tif",
        "Title": "Cycling, John I. Monroe collection of sports postcards, 1902-1931"
    }]
}, {
    "filename": "NL1BV26.json",
    "items": [{
        "CoreField.Identifier": "NL1BV26",
        "Document.CortexParentLink": "https://collections.newberry.org/asset-management/2KXJ8ZOHK65E",
        "Document.CortexShareLink": "https://collections.newberry.org/asset-management/2KXJ8ZY0IYUC",
        "Document.ParentIdentifier": "NL1BLXB",
        "CoreField.IIIFResourceType": "Canvas",
        "Document.IIIFV3ID": "https://collections.newberry.org/IIIF3/Presentation/Canvas/2KXJ8ZY0IYUC",
        "originalfilename": "MonroeJ_Sports_004344_00001.tif",
        "RelatedValue.Original-Filename": "",
        "CoreField.OriginalFileName": "MonroeJ_Sports_004344_00001.tif",
        "Title": "Maxim Fahrrader"
    }]
}, {
    "filename": "NL1BVIJ.json",
    "items": [{
        "CoreField.Identifier": "NL1BVIJ",
        "Document.CortexParentLink": "https://collections.newberry.org/asset-management/2KXJ8ZOHK65E",
        "Document.CortexShareLink": "https://collections.newberry.org/asset-management/2KXJ8ZY05W03",
        "Document.ParentIdentifier": "NL1BLXB",
        "CoreField.IIIFResourceType": "Canvas",
        "Document.IIIFV3ID": "https://collections.newberry.org/IIIF3/Presentation/Canvas/2KXJ8ZY05W03",
        "originalfilename": "MonroeJ_Sports_004584_00001.tif",
        "RelatedValue.Original-Filename": "",
        "CoreField.OriginalFileName": "MonroeJ_Sports_004584_00001.tif",
        "Title": "Cycling, John I. Monroe collection of sports postcards, 1902-1931"
    }]
}, {
    "filename": "NL1BV0Z.json",
    "items": [{
        "CoreField.Identifier": "NL1BV0Z",
        "Document.CortexParentLink": "https://collections.newberry.org/asset-management/2KXJ8ZOHK65E",
        "Document.CortexShareLink": "https://collections.newberry.org/asset-management/2KXJ8ZY0JDP3",
        "Document.ParentIdentifier": "NL1BLXB",
        "CoreField.IIIFResourceType": "Canvas",
        "Document.IIIFV3ID": "https://collections.newberry.org/IIIF3/Presentation/Canvas/2KXJ8ZY0JDP3",
        "originalfilename": "MonroeJ_Sports_004361_00001.tif",
        "RelatedValue.Original-Filename": "",
        "CoreField.OriginalFileName": "MonroeJ_Sports_004361_00001.tif",
        "Title": "Cycling, John I. Monroe collection of sports postcards, 1902-1931"
    }]
}, {
    "filename": "NL1BVJR.json",
    "items": [{
        "CoreField.Identifier": "NL1BVJR",
        "Document.CortexParentLink": "https://collections.newberry.org/asset-management/2KXJ8ZOHK65E",
        "Document.CortexShareLink": "https://collections.newberry.org/asset-management/2KXJ8ZY06IQE",
        "Document.ParentIdentifier": "NL1BLXB",
        "CoreField.IIIFResourceType": "Canvas",
        "Document.IIIFV3ID": "https://collections.newberry.org/IIIF3/Presentation/Canvas/2KXJ8ZY06IQE",
        "originalfilename": "MonroeJ_Sports_004576_00001.tif",
        "RelatedValue.Original-Filename": "",
        "CoreField.OriginalFileName": "MonroeJ_Sports_004576_00001.tif",
        "Title": "Cycling, John I. Monroe collection of sports postcards, 1902-1931"
    }]
}, {
    "filename": "NL1BV2S.json",
    "items": [{
        "CoreField.Identifier": "NL1BV2S",
        "Document.CortexParentLink": "https://collections.newberry.org/asset-management/2KXJ8ZOHK65E",
        "Document.CortexShareLink": "https://collections.newberry.org/asset-management/2KXJ8ZY0TYZC",
        "Document.ParentIdentifier": "NL1BLXB",
        "CoreField.IIIFResourceType": "Canvas",
        "Document.IIIFV3ID": "https://collections.newberry.org/IIIF3/Presentation/Canvas/2KXJ8ZY0TYZC",
        "originalfilename": "MonroeJ_Sports_004367_00001.tif",
        "RelatedValue.Original-Filename": "",
        "CoreField.OriginalFileName": "MonroeJ_Sports_004367_00001.tif",
        "Title": "Chapman & Smith Co., Chicago, Illinois"
    }]
}, {
    "filename": "NL1BVKC.json",
    "items": [{
        "CoreField.Identifier": "NL1BVKC",
        "Document.CortexParentLink": "https://collections.newberry.org/asset-management/2KXJ8ZOHK65E",
        "Document.CortexShareLink": "https://collections.newberry.org/asset-management/2KXJ8ZY0LUXH",
        "Document.ParentIdentifier": "NL1BLXB",
        "CoreField.IIIFResourceType": "Canvas",
        "Document.IIIFV3ID": "https://collections.newberry.org/IIIF3/Presentation/Canvas/2KXJ8ZY0LUXH",
        "originalfilename": "MonroeJ_Sports_004507_00001.tif",
        "RelatedValue.Original-Filename": "",
        "CoreField.OriginalFileName": "MonroeJ_Sports_004507_00001.tif",
        "Title": "Cycling, John I. Monroe collection of sports postcards, 1902-1931"
    }]
}, {
    "filename": "NL1BV1L.json",
    "items": [{
        "CoreField.Identifier": "NL1BV1L",
        "Document.CortexParentLink": "https://collections.newberry.org/asset-management/2KXJ8ZOHK65E",
        "Document.CortexShareLink": "https://collections.newberry.org/asset-management/2KXJ8ZY0IIEE",
        "Document.ParentIdentifier": "NL1BLXB",
        "CoreField.IIIFResourceType": "Canvas",
        "Document.IIIFV3ID": "https://collections.newberry.org/IIIF3/Presentation/Canvas/2KXJ8ZY0IIEE",
        "originalfilename": "MonroeJ_Sports_004349_00001.tif",
        "RelatedValue.Original-Filename": "",
        "CoreField.OriginalFileName": "MonroeJ_Sports_004349_00001.tif",
        "Title": "Van Hauwaert"
    }]
}, {
    "filename": "NL1BV2F.json",
    "items": [{
        "CoreField.Identifier": "NL1BV2F",
        "Document.CortexParentLink": "https://collections.newberry.org/asset-management/2KXJ8ZOHK65E",
        "Document.CortexShareLink": "https://collections.newberry.org/asset-management/2KXJ8ZY0TELC",
        "Document.ParentIdentifier": "NL1BLXB",
        "CoreField.IIIFResourceType": "Canvas",
        "Document.IIIFV3ID": "https://collections.newberry.org/IIIF3/Presentation/Canvas/2KXJ8ZY0TELC",
        "originalfilename": "MonroeJ_Sports_004341_00001.tif",
        "RelatedValue.Original-Filename": "",
        "CoreField.OriginalFileName": "MonroeJ_Sports_004341_00001.tif",
        "Title": "The Raleigh: champion of the world"
    }]
}, {
    "filename": "NL1BVJ9.json",
    "items": [{
        "CoreField.Identifier": "NL1BVJ9",
        "Document.CortexParentLink": "https://collections.newberry.org/asset-management/2KXJ8ZOHK65E",
        "Document.CortexShareLink": "https://collections.newberry.org/asset-management/2KXJ8ZY06060",
        "Document.ParentIdentifier": "NL1BLXB",
        "CoreField.IIIFResourceType": "Canvas",
        "Document.IIIFV3ID": "https://collections.newberry.org/IIIF3/Presentation/Canvas/2KXJ8ZY06060",
        "originalfilename": "MonroeJ_Sports_004498_00001.tif",
        "RelatedValue.Original-Filename": "",
        "CoreField.OriginalFileName": "MonroeJ_Sports_004498_00001.tif",
        "Title": "Cycling, John I. Monroe collection of sports postcards, 1902-1931"
    }]
}, {
    "filename": "NL1BV0N.json",
    "items": [{
        "CoreField.Identifier": "NL1BV0N",
        "Document.CortexParentLink": "https://collections.newberry.org/asset-management/2KXJ8ZOHK65E",
        "Document.CortexShareLink": "https://collections.newberry.org/asset-management/2KXJ8ZY0JW73",
        "Document.ParentIdentifier": "NL1BLXB",
        "CoreField.IIIFResourceType": "Canvas",
        "Document.IIIFV3ID": "https://collections.newberry.org/IIIF3/Presentation/Canvas/2KXJ8ZY0JW73",
        "originalfilename": "MonroeJ_Sports_004359_00001.tif",
        "RelatedValue.Original-Filename": "",
        "CoreField.OriginalFileName": "MonroeJ_Sports_004359_00001.tif",
        "Title": "Cycling, John I. Monroe collection of sports postcards, 1902-1931"
    }]
}, {
    "filename": "NL1BV4Q.json",
    "items": [{
        "CoreField.Identifier": "NL1BV4Q",
        "Document.CortexParentLink": "https://collections.newberry.org/asset-management/2KXJ8ZOHK65E",
        "Document.CortexShareLink": "https://collections.newberry.org/asset-management/2KXJ8ZY03SMF",
        "Document.ParentIdentifier": "NL1BLXB",
        "CoreField.IIIFResourceType": "Canvas",
        "Document.IIIFV3ID": "https://collections.newberry.org/IIIF3/Presentation/Canvas/2KXJ8ZY03SMF",
        "originalfilename": "MonroeJ_Sports_004438_00001.tif",
        "RelatedValue.Original-Filename": "",
        "CoreField.OriginalFileName": "MonroeJ_Sports_004438_00001.tif",
        "Title": "Die entwickelungsgeschichte des radlers: ii. drei jahre spater"
    }]
}, {
    "filename": "NL1BV3M.json",
    "items": [{
        "CoreField.Identifier": "NL1BV3M",
        "Document.CortexParentLink": "https://collections.newberry.org/asset-management/2KXJ8ZOHK65E",
        "Document.CortexShareLink": "https://collections.newberry.org/asset-management/2KXJ8ZY09ZDM",
        "Document.ParentIdentifier": "NL1BLXB",
        "CoreField.IIIFResourceType": "Canvas",
        "Document.IIIFV3ID": "https://collections.newberry.org/IIIF3/Presentation/Canvas/2KXJ8ZY09ZDM",
        "originalfilename": "MonroeJ_Sports_004350_00001.tif",
        "RelatedValue.Original-Filename": "",
        "CoreField.OriginalFileName": "MonroeJ_Sports_004350_00001.tif",
        "Title": "Cycling, John I. Monroe collection of sports postcards, 1902-1931"
    }]
}, {
    "filename": "NL1BV2N.json",
    "items": [{
        "CoreField.Identifier": "NL1BV2N",
        "Document.CortexParentLink": "https://collections.newberry.org/asset-management/2KXJ8ZOHK65E",
        "Document.CortexShareLink": "https://collections.newberry.org/asset-management/2KXJ8ZY0T54E",
        "Document.ParentIdentifier": "NL1BLXB",
        "CoreField.IIIFResourceType": "Canvas",
        "Document.IIIFV3ID": "https://collections.newberry.org/IIIF3/Presentation/Canvas/2KXJ8ZY0T54E",
        "originalfilename": "MonroeJ_Sports_004343_00001.tif",
        "RelatedValue.Original-Filename": "",
        "CoreField.OriginalFileName": "MonroeJ_Sports_004343_00001.tif",
        "Title": "Cycles et automobiles Legia"
    }]
}, {
    "filename": "NL1BV62.json",
    "items": [{
        "CoreField.Identifier": "NL1BV62",
        "Document.CortexParentLink": "https://collections.newberry.org/asset-management/2KXJ8ZOHK65E",
        "Document.CortexShareLink": "https://collections.newberry.org/asset-management/2KXJ8ZY03JHF",
        "Document.ParentIdentifier": "NL1BLXB",
        "CoreField.IIIFResourceType": "Canvas",
        "Document.IIIFV3ID": "https://collections.newberry.org/IIIF3/Presentation/Canvas/2KXJ8ZY03JHF",
        "originalfilename": "MonroeJ_Sports_004388_00001.tif",
        "RelatedValue.Original-Filename": "",
        "CoreField.OriginalFileName": "MonroeJ_Sports_004388_00001.tif",
        "Title": "Hut ab! Express!"
    }]
}, {
    "filename": "NL1BV4F.json",
    "items": [{
        "CoreField.Identifier": "NL1BV4F",
        "Document.CortexParentLink": "https://collections.newberry.org/asset-management/2KXJ8ZOHK65E",
        "Document.CortexShareLink": "https://collections.newberry.org/asset-management/2KXJ8ZY09CBJ",
        "Document.ParentIdentifier": "NL1BLXB",
        "CoreField.IIIFResourceType": "Canvas",
        "Document.IIIFV3ID": "https://collections.newberry.org/IIIF3/Presentation/Canvas/2KXJ8ZY09CBJ",
        "originalfilename": "MonroeJ_Sports_004394_00001.tif",
        "RelatedValue.Original-Filename": "",
        "CoreField.OriginalFileName": "MonroeJ_Sports_004394_00001.tif",
        "Title": "Ariel cycles and motor cyles"
    }]
}, {
    "filename": "NL1BV77.json",
    "items": [{
        "CoreField.Identifier": "NL1BV77",
        "Document.CortexParentLink": "https://collections.newberry.org/asset-management/2KXJ8ZOHK65E",
        "Document.CortexShareLink": "https://collections.newberry.org/asset-management/2KXJ8ZY0KWY3",
        "Document.ParentIdentifier": "NL1BLXB",
        "CoreField.IIIFResourceType": "Canvas",
        "Document.IIIFV3ID": "https://collections.newberry.org/IIIF3/Presentation/Canvas/2KXJ8ZY0KWY3",
        "originalfilename": "MonroeJ_Sports_004383_00001.tif",
        "RelatedValue.Original-Filename": "",
        "CoreField.OriginalFileName": "MonroeJ_Sports_004383_00001.tif",
        "Title": "Cycling, John I. Monroe collection of sports postcards, 1902-1931"
    }]
}, {
    "filename": "NL1BV7R.json",
    "items": [{
        "CoreField.Identifier": "NL1BV7R",
        "Document.CortexParentLink": "https://collections.newberry.org/asset-management/2KXJ8ZOHK65E",
        "Document.CortexShareLink": "https://collections.newberry.org/asset-management/2KXJ8ZY0KF5A",
        "Document.ParentIdentifier": "NL1BLXB",
        "CoreField.IIIFResourceType": "Canvas",
        "Document.IIIFV3ID": "https://collections.newberry.org/IIIF3/Presentation/Canvas/2KXJ8ZY0KF5A",
        "originalfilename": "MonroeJ_Sports_004441_00001.tif",
        "RelatedValue.Original-Filename": "",
        "CoreField.OriginalFileName": "MonroeJ_Sports_004441_00001.tif",
        "Title": "Cycling, John I. Monroe collection of sports postcards, 1902-1931"
    }]
}, {
    "filename": "NL1BV68.json",
    "items": [{
        "CoreField.Identifier": "NL1BV68",
        "Document.CortexParentLink": "https://collections.newberry.org/asset-management/2KXJ8ZOHK65E",
        "Document.CortexShareLink": "https://collections.newberry.org/asset-management/2KXJ8ZY036YJ",
        "Document.ParentIdentifier": "NL1BLXB",
        "CoreField.IIIFResourceType": "Canvas",
        "Document.IIIFV3ID": "https://collections.newberry.org/IIIF3/Presentation/Canvas/2KXJ8ZY036YJ",
        "originalfilename": "MonroeJ_Sports_004404_00001.tif",
        "RelatedValue.Original-Filename": "",
        "CoreField.OriginalFileName": "MonroeJ_Sports_004404_00001.tif",
        "Title": "Cycling, John I. Monroe collection of sports postcards, 1902-1931"
    }]
}, {
    "filename": "NL1BVH9.json",
    "items": [{
        "CoreField.Identifier": "NL1BVH9",
        "Document.CortexParentLink": "https://collections.newberry.org/asset-management/2KXJ8ZOHK65E",
        "Document.CortexShareLink": "https://collections.newberry.org/asset-management/2KXJ8ZY0DRLS",
        "Document.ParentIdentifier": "NL1BLXB",
        "CoreField.IIIFResourceType": "Canvas",
        "Document.IIIFV3ID": "https://collections.newberry.org/IIIF3/Presentation/Canvas/2KXJ8ZY0DRLS",
        "originalfilename": "MonroeJ_Sports_004595_00001.tif",
        "RelatedValue.Original-Filename": "",
        "CoreField.OriginalFileName": "MonroeJ_Sports_004595_00001.tif",
        "Title": "Cycling, John I. Monroe collection of sports postcards, 1902-1931"
    }]
}, {
    "filename": "NL1BV7Q.json",
    "items": [{
        "CoreField.Identifier": "NL1BV7Q",
        "Document.CortexParentLink": "https://collections.newberry.org/asset-management/2KXJ8ZOHK65E",
        "Document.CortexShareLink": "https://collections.newberry.org/asset-management/2KXJ8ZY0KNWG",
        "Document.ParentIdentifier": "NL1BLXB",
        "CoreField.IIIFResourceType": "Canvas",
        "Document.IIIFV3ID": "https://collections.newberry.org/IIIF3/Presentation/Canvas/2KXJ8ZY0KNWG",
        "originalfilename": "MonroeJ_Sports_004407_00001.tif",
        "RelatedValue.Original-Filename": "",
        "CoreField.OriginalFileName": "MonroeJ_Sports_004407_00001.tif",
        "Title": "Cycling, John I. Monroe collection of sports postcards, 1902-1931"
    }]
}, {
    "filename": "NL1BV8G.json",
    "items": [{
        "CoreField.Identifier": "NL1BV8G",
        "Document.CortexParentLink": "https://collections.newberry.org/asset-management/2KXJ8ZOHK65E",
        "Document.CortexShareLink": "https://collections.newberry.org/asset-management/2KXJ8ZY0QG8Y",
        "Document.ParentIdentifier": "NL1BLXB",
        "CoreField.IIIFResourceType": "Canvas",
        "Document.IIIFV3ID": "https://collections.newberry.org/IIIF3/Presentation/Canvas/2KXJ8ZY0QG8Y",
        "originalfilename": "MonroeJ_Sports_004381_00001.tif",
        "RelatedValue.Original-Filename": "",
        "CoreField.OriginalFileName": "MonroeJ_Sports_004381_00001.tif",
        "Title": "Cycling, John I. Monroe collection of sports postcards, 1902-1931"
    }]
}, {
    "filename": "NL1BUZS.json",
    "items": [{
        "CoreField.Identifier": "NL1BUZS",
        "Document.CortexParentLink": "https://collections.newberry.org/asset-management/2KXJ8ZOHK65E",
        "Document.CortexShareLink": "https://collections.newberry.org/asset-management/2KXJ8ZY0CNVG",
        "Document.ParentIdentifier": "NL1BLXB",
        "CoreField.IIIFResourceType": "Canvas",
        "Document.IIIFV3ID": "https://collections.newberry.org/IIIF3/Presentation/Canvas/2KXJ8ZY0CNVG",
        "originalfilename": "MonroeJ_Sports_004365_00001.tif",
        "RelatedValue.Original-Filename": "",
        "CoreField.OriginalFileName": "MonroeJ_Sports_004365_00001.tif",
        "Title": "Cycling, John I. Monroe collection of sports postcards, 1902-1931"
    }]
}, {
    "filename": "NL1BVIV.json",
    "items": [{
        "CoreField.Identifier": "NL1BVIV",
        "Document.CortexParentLink": "https://collections.newberry.org/asset-management/2KXJ8ZOHK65E",
        "Document.CortexShareLink": "https://collections.newberry.org/asset-management/2KXJ8ZY05EUC",
        "Document.ParentIdentifier": "NL1BLXB",
        "CoreField.IIIFResourceType": "Canvas",
        "Document.IIIFV3ID": "https://collections.newberry.org/IIIF3/Presentation/Canvas/2KXJ8ZY05EUC",
        "originalfilename": "MonroeJ_Sports_004531_00001.tif",
        "RelatedValue.Original-Filename": "",
        "CoreField.OriginalFileName": "MonroeJ_Sports_004531_00001.tif",
        "Title": "Cycling, John I. Monroe collection of sports postcards, 1902-1931"
    }]
}, {
    "filename": "NL1BV1X.json",
    "items": [{
        "CoreField.Identifier": "NL1BV1X",
        "Document.CortexParentLink": "https://collections.newberry.org/asset-management/2KXJ8ZOHK65E",
        "Document.CortexShareLink": "https://collections.newberry.org/asset-management/2KXJ8ZY0IU6H",
        "Document.ParentIdentifier": "NL1BLXB",
        "CoreField.IIIFResourceType": "Canvas",
        "Document.IIIFV3ID": "https://collections.newberry.org/IIIF3/Presentation/Canvas/2KXJ8ZY0IU6H",
        "originalfilename": "MonroeJ_Sports_004356_00001.tif",
        "RelatedValue.Original-Filename": "",
        "CoreField.OriginalFileName": "MonroeJ_Sports_004356_00001.tif",
        "Title": "Oh, boy! Make money"
    }]
}, {
    "filename": "NL1BUYL.json",
    "items": [{
        "CoreField.Identifier": "NL1BUYL",
        "Document.CortexParentLink": "https://collections.newberry.org/asset-management/2KXJ8ZOHK65E",
        "Document.CortexShareLink": "https://collections.newberry.org/asset-management/2KXJ8ZY0PPNN",
        "Document.ParentIdentifier": "NL1BLXB",
        "CoreField.IIIFResourceType": "Canvas",
        "Document.IIIFV3ID": "https://collections.newberry.org/IIIF3/Presentation/Canvas/2KXJ8ZY0PPNN",
        "originalfilename": "MonroeJ_Sports_004366_00001.tif",
        "RelatedValue.Original-Filename": "",
        "CoreField.OriginalFileName": "MonroeJ_Sports_004366_00001.tif",
        "Title": "Cycling, John I. Monroe collection of sports postcards, 1902-1931"
    }]
}]