[{
            "CoreField.Identifier": "NL115F0H",
            "Document.ParentIdentifier": "NL115F0G",
            "Document.IIIFV3ID": "",
            "Title": "L\u0027Ercole in Tebe : drama per musica"
        }, {
            "CoreField.Identifier": "NL115EWC",
            "Document.ParentIdentifier": "NL115EWB",
            "Document.IIIFV3ID": "",
            "Title": "Xerse : drama per musica nel Teatro a SS. Gio. e Paolo per l\u0027anno M.DC.LIV. : dedicato all\u0027illustrissimo, & eccellentissimo signor marchese Cornelio..."
        }, {
            "CoreField.Identifier": "NL115EQX",
            "Document.ParentIdentifier": "NL115EQW",
            "Document.IIIFV3ID": "",
            "Title": "La regina Floridea : drama musicale da rappresentarsi nel Reggio Ducal Teatro di Milano : dedicata all\u0027illmo., & eccmo. sigre. Don Paolo Spinola..."
        }, {
            "CoreField.Identifier": "NL115ECF",
            "Document.ParentIdentifier": "NL115ECE",
            "Document.IIIFV3ID": "",
            "Title": "Le carnaval : mascarade, represente\u0301e par l\u0027Academie royale de musique"
        }, {
            "CoreField.Identifier": "NL115DZ4",
            "Document.ParentIdentifier": "NL115DZ1",
            "Document.IIIFV3ID": "",
            "Title": "Astre\u0301e : trage\u0301die"
        }, {
            "CoreField.Identifier": "NL114IE0",
            "Document.ParentIdentifier": "NL114I60",
            "Document.IIIFV3ID": "",
            "Title": "L\u0027Eraclio : opera in musica dedicata all\u0027eccellma. sigra. D. Gioanna di Cardona, e Benauides, prencipessa del sacro imperio marchesa di Roubaix, &c. :..."
        }, {
            "CoreField.Identifier": "NL114ID8",
            "Document.ParentIdentifier": "NL114ID7",
            "Document.IIIFV3ID": "",
            "Title": "La Dafne"
        }, {
            "CoreField.Identifier": "NL114IC2",
            "Document.ParentIdentifier": "NL114IC1",
            "Document.IIIFV3ID": "",
            "Title": "Coronis : pastorale heroi\u0308que, represente\u0301e par l\u0027Academie royale de musique"
        }, {
            "CoreField.Identifier": "NL114I9M",
            "Document.ParentIdentifier": "NL114I9L",
            "Document.IIIFV3ID": "",
            "Title": "Bellerophon : trage\u0301die : represente\u0301e par l\u0027Academie royale de musique"
        }, {
            "CoreField.Identifier": "NL114I7N",
            "Document.ParentIdentifier": "NL114I7M",
            "Document.IIIFV3ID": "",
            "Title": "Arsinoe : drama per musica da recitarsi nel Teatro di S. Angelo l\u0027anno 1678 : dedicato all\u0027eccellenza di Antonio Teodoro Triuultio, prencipe del Sacro..."
        }, {
            "CoreField.Identifier": "NL1Z3RE",
            "Document.ParentIdentifier": "NL1Z3RD",
            "Document.IIIFV3ID": "",
            "Title": "Waller family papers, 1803-1938"
        }, {
            "CoreField.Identifier": "NL1Z1TU",
            "Document.ParentIdentifier": "NL1YZL0",
            "Document.IIIFV3ID": "",
            "Title": "Clay Judson papers - additions, 1839-1960"
        }, {
            "CoreField.Identifier": "NL1Z1JN",
            "Document.ParentIdentifier": "NL1YZL0",
            "Document.IIIFV3ID": "",
            "Title": "Clay Judson papers - additions, 1839-1960"
        }, {
            "CoreField.Identifier": "NL1Z1HS",
            "Document.ParentIdentifier": "NL1YZL0",
            "Document.IIIFV3ID": "",
            "Title": "Clay Judson papers - additions, 1839-1960"
        }, {
            "CoreField.Identifier": "NL1YZLW",
            "Document.ParentIdentifier": "NL1YZL0",
            "Document.IIIFV3ID": "",
            "Title": "Clay Judson papers - additions, 1839-1960"
        }, {
            "CoreField.Identifier": "NL1YZL2",
            "Document.ParentIdentifier": "NL1YZL0",
            "Document.IIIFV3ID": "",
            "Title": "Clay Judson papers - additions, 1839-1960"
        }, {
            "CoreField.Identifier": "NL1YZL0",
            "Document.ParentIdentifier": "NL1YZKZ",
            "Document.IIIFV3ID": "",
            "Title": "Clay Judson papers - additions, 1839-1960"
        }, {
            "CoreField.Identifier": "NL1XP4E",
            "Document.ParentIdentifier": "NL1XJJ0",
            "Document.IIIFV3ID": "",
            "Title": "National Casket Company Incorporated"
        }, {
            "CoreField.Identifier": "NL1X0JA",
            "Document.ParentIdentifier": "NL1X08T",
            "Document.IIIFV3ID": "",
            "Title": "Photographic runs. Series B, Chicago to Rockford, Rockford to Beloit, Beloit to Delavan, Delavan to Lake Geneva : containing a carefully compiled..."
        }, {
            "CoreField.Identifier": "NL1VNK2",
            "Document.ParentIdentifier": "NL1N1GC",
            "Document.IIIFV3ID": "",
            "Title": "Touraide"
        }, {
            "CoreField.Identifier": "NL1V7DM",
            "Document.ParentIdentifier": "NL1V7EB",
            "Document.IIIFV3ID": "",
            "Title": "Atlas nouveaux et curieux des plus ce\u0301le\u0300bres itine\u0301raires, ou Recueil de nouvelles cartes ge\u0301ographiques des voiages modernes de longcours, qui ont..."
        }, {
            "CoreField.Identifier": "NL1UO4S",
            "Document.ParentIdentifier": "NL1UMRC",
            "Document.IIIFV3ID": "https://collections.newberry.org/IIIF3/Presentation/Canvas/2KXJ8ZWQWW22",
            "Title": "Port facilities at Buffalo, N.Y."
        }, {
            "CoreField.Identifier": "NL1UNZX",
            "Document.ParentIdentifier": "NL1UMRC",
            "Document.IIIFV3ID": "https://collections.newberry.org/IIIF3/Presentation/Canvas/2KXJ8ZWQTJ14",
            "Title": "The harbour of Charles Town in South-Carolina"
        }, {
            "CoreField.Identifier": "NL1UNFD",
            "Document.ParentIdentifier": "NL1UMRC",
            "Document.IIIFV3ID": "https://collections.newberry.org/IIIF3/Presentation/Canvas/2KXJ8ZWQ9TGX",
            "Title": "Chicago harbor & bar, Illinois from survey made between the 17th of August & the 2nd of September 1858"
        }, {
            "CoreField.Identifier": "NL1UNF9",
            "Document.ParentIdentifier": "NL1UMRC",
            "Document.IIIFV3ID": "",
            "Title": "Atlas of the state of New Jersey"
        }, {
            "CoreField.Identifier": "NL1UN4H",
            "Document.ParentIdentifier": "NL1UNE8",
            "Document.IIIFV3ID": "https://collections.newberry.org/IIIF3/Presentation/Canvas/2KXJ8ZWQ7PBO",
            "Title": "Topographical map of the road from Missouri to Oregon, commencing at the mouth of the Kansas in the Missouri River and ending at the mouth of the..."
        }, {
            "CoreField.Identifier": "NL1UMVR",
            "Document.ParentIdentifier": "NL1UMRC",
            "Document.IIIFV3ID": "https://collections.newberry.org/IIIF3/Presentation/Canvas/2KXJ8ZWQKN_7",
            "Title": "Karte des San Juan- od. Haro-Archipels : nach den Aufnahmen der Engl. Admiralita\u0308t unter Kellett, Richards, &c. 1847, 1858 und 1859"
        }, {
            "CoreField.Identifier": "NL1UMVK",
            "Document.ParentIdentifier": "NL1UMRC",
            "Document.IIIFV3ID": "https://collections.newberry.org/IIIF3/Presentation/Canvas/2KXJ8ZWQKS_R",
            "Title": "New Jersey Intracoastal Waterway Little Egg Harbor to Longport"
        }, {
            "CoreField.Identifier": "NL1UMUQ",
            "Document.ParentIdentifier": "NL1UMRC",
            "Document.IIIFV3ID": "https://collections.newberry.org/IIIF3/Presentation/Canvas/2KXJ8ZWP53T7",
            "Title": "Map showing the line of the Panama Rail-Road"
        }, {
            "CoreField.Identifier": "NL1UMT4",
            "Document.ParentIdentifier": "NL1UMRC",
            "Document.IIIFV3ID": "https://collections.newberry.org/IIIF3/Presentation/Canvas/2KXJ8ZWP46JI",
            "Title": "AAF cloth chart Vladivostok"
        }, {
            "CoreField.Identifier": "NL1UMT0",
            "Document.ParentIdentifier": "NL1UMTP",
            "Document.IIIFV3ID": "https://collections.newberry.org/IIIF3/Presentation/Canvas/2KXJ8ZWP4MT9",
            "Title": "Map of the East River waterfront from Grand Street to Thirty-fourth Street in New York City"
        }, {
            "CoreField.Identifier": "NL1UMSR",
            "Document.ParentIdentifier": "NL1UMRC",
            "Document.IIIFV3ID": "https://collections.newberry.org/IIIF3/Presentation/Canvas/2KXJ8ZWPSIY1",
            "Title": "Yellowstone National Park, Wyoming to Sioux Falls, South Dakota via Black Hills, South Dakota : 860.5 miles"
        }, {
            "CoreField.Identifier": "NL1UMSO",
            "Document.ParentIdentifier": "NL1UMRC",
            "Document.IIIFV3ID": "https://collections.newberry.org/IIIF3/Presentation/Canvas/2KXJ8ZWPSPSP",
            "Title": "The National System of Interstate and Defense Highways"
        }, {
            "CoreField.Identifier": "NL1UMSM",
            "Document.ParentIdentifier": "NL1UMRC",
            "Document.IIIFV3ID": "https://collections.newberry.org/IIIF3/Presentation/Canvas/2KXJ8ZWPSNXU",
            "Title": "Florida Sinclair map"
        }, {
            "CoreField.Identifier": "NL1UMRM",
            "Document.ParentIdentifier": "NL1UMRC",
            "Document.IIIFV3ID": "https://collections.newberry.org/IIIF3/Presentation/Canvas/2KXJ8ZWPHZ4W",
            "Title": "Map of the New Orleans, Jackson, and Great Northern Railroad track leading from its New Orleans passenger depot"
        }, {
            "CoreField.Identifier": "NL1ULPK",
            "Document.ParentIdentifier": "NL1NMU0",
            "Document.IIIFV3ID": "https://collections.newberry.org/IIIF3/Presentation/Canvas/2KXJ8ZWP2NVU",
            "Title": "U.S. State Department trip to Marrakesh, Morocco, 1945"
        }, {
            "CoreField.Identifier": "NL1UL3F",
            "Document.ParentIdentifier": "NL1NMU0",
            "Document.IIIFV3ID": "https://collections.newberry.org/IIIF3/Presentation/Canvas/2KXJ8ZWPKQ5K",
            "Title": "Intercity railroad passenger routes"
        }, {
            "CoreField.Identifier": "NL1UL3A",
            "Document.ParentIdentifier": "NL1NMU0",
            "Document.IIIFV3ID": "https://collections.newberry.org/IIIF3/Presentation/Canvas/2KXJ8ZWPKRB5",
            "Title": "Railroad valuation map, Itasca, Illinois, 1919"
        }, {
            "CoreField.Identifier": "NL1UL2O",
            "Document.ParentIdentifier": "NL1NMU0",
            "Document.IIIFV3ID": "https://collections.newberry.org/IIIF3/Presentation/Canvas/2KXJ8ZWPKLJW",
            "Title": "To and across the White Mountains via Portland & Ogdensburg Railroad"
        }, {
            "CoreField.Identifier": "NL1QFZ6",
            "Document.ParentIdentifier": "NL1Q44E",
            "Document.IIIFV3ID": "",
            "Title": "Proc`es-verbal"
        }, {
            "CoreField.Identifier": "NL1OJBV",
            "Document.ParentIdentifier": "NL11B3WO",
            "Document.IIIFV3ID": "",
            "Title": "Benjamin D. Hitz - Willa Cather papers [box 01], 1913-1949"
        }, {
            "CoreField.Identifier": "NL1OGDR",
            "Document.ParentIdentifier": "NL1NMU0",
            "Document.IIIFV3ID": "",
            "Title": "Willa Cather - Irene Miner Weisz papers [box 01], 1912-1958"
        }, {
            "CoreField.Identifier": "NL1OBM3",
            "Document.ParentIdentifier": "NL1NMU0",
            "Document.IIIFV3ID": "",
            "Title": "Edith Farnsworth papers [box 01], 1900-1977"
        }, {
            "CoreField.Identifier": "NL1LT5P",
            "Document.ParentIdentifier": "NL1LT5S",
            "Document.IIIFV3ID": "",
            "Title": "The first and secound booke of the secound part of the Countess of Montgomery\u0027s Vrania [vol. 1]"
        }, {
            "CoreField.Identifier": "NL1LQ40",
            "Document.ParentIdentifier": "NL1LPLX",
            "Document.IIIFV3ID": "",
            "Title": "Luiz de Albuquerque collection [vol. 2], 1772-1789"
        }, {
            "CoreField.Identifier": "NL1LQ39",
            "Document.ParentIdentifier": "NL1LPMV",
            "Document.IIIFV3ID": "",
            "Title": "Arthur Conan Doyle\u0027s notes for the White company and Sir Nigel"
        }, {
            "CoreField.Identifier": "NL1LQ0K",
            "Document.ParentIdentifier": "NL1LPMV",
            "Document.IIIFV3ID": "",
            "Title": "Arthur Conan Doyle\u0027s notes for the White company and Sir Nigel"
        }, {
            "CoreField.Identifier": "NL1LPWC",
            "Document.ParentIdentifier": "NL1LPMV",
            "Document.IIIFV3ID": "",
            "Title": "Arthur Conan Doyle\u0027s notes for the White company and Sir Nigel"
        }, {
            "CoreField.Identifier": "NL1LPVQ",
            "Document.ParentIdentifier": "NL1LPMV",
            "Document.IIIFV3ID": "",
            "Title": "Arthur Conan Doyle\u0027s notes for the White company and Sir Nigel"
        }, {
            "CoreField.Identifier": "NL1LPRO",
            "Document.ParentIdentifier": "NL1LPMV",
            "Document.IIIFV3ID": "",
            "Title": "Arthur Conan Doyle\u0027s notes for the White company and Sir Nigel"
        }, {
            "CoreField.Identifier": "NL1LK2U",
            "Document.ParentIdentifier": "NL1LJ9O",
            "Document.IIIFV3ID": "",
            "Title": "Vita Sancti Gregorii Magni"
        }, {
            "CoreField.Identifier": "NL1K0IL",
            "Document.ParentIdentifier": "NL1K0HM",
            "Document.IIIFV3ID": "",
            "Title": "William K. Ackerman\u0027s scrapbooks [vol. 8], 1780-1905"
        }, {
            "CoreField.Identifier": "NL1IPHP",
            "Document.ParentIdentifier": "NL1IPG0",
            "Document.IIIFV3ID": "",
            "Title": "Description des ba\u0302timents, jardins, cours, enclos, etc. de l\u0027abbaye de Port-Royal-des-Champs : telle qu\u0027elle e\u0301tait avant sa destruction en l\u0027anne\u0301e..."
        }, {
            "CoreField.Identifier": "NL1DOWD",
            "Document.ParentIdentifier": "NL1DNXG",
            "Document.IIIFV3ID": "",
            "Title": "The machinery of the \u0027Rape of the lock:\u0027 Pope, Villars, and Borri"
        }, {
            "CoreField.Identifier": "NL1C3TT",
            "Document.ParentIdentifier": "NL1C340",
            "Document.IIIFV3ID": "",
            "Title": "Armide : tragedie en musique, representee\u0301 par l\u0027Academie royalle de musique"
        }, {
            "CoreField.Identifier": "NL1C3G4",
            "Document.ParentIdentifier": "NL1C37N",
            "Document.IIIFV3ID": "",
            "Title": "Le carnaval de Venise : ballet represente\u0301 par l\u0027Acade\u0301mie royale de musique"
        }, {
            "CoreField.Identifier": "NL1C2X5",
            "Document.ParentIdentifier": "NL1C2HH",
            "Document.IIIFV3ID": "",
            "Title": "Scipione in Cartagine : dramma musicale, fatto rappresentare da gli accademici Sorgenti nel loro teatro, sotto la protezzione del sereniss. e..."
        }
    ]