[
    "Railroads, Rivers, and Wharves: 1835\u20131899",
    "Using Maps to Inspire: The Early Twentieth Century",
    "Rethinking Regions: Maps of the 1920s and 1930s",
    "America on the Move: Maps after the Second World War",
    "Modesty and Metamorphosis: 1980\u2013Present",
    "The Spanish Entrada",
    "The Coming of the Americans",
    "The Cattle Trails",
    "Getting into the Maps",
    "Colonial Communications",
    "The Revolution after the Revolution",
    "The Railroad and the Telegraph",
    "Mapping Time and Space",
    "Mapping the Economy",
    "The Telephone and the Scale of American Life",
    "Radio and the Decline of the Local",
    "Communications Today",
    "Sea: Around the Coasts",
    "Land and Air: Across Desert and Jungle, Over the Mountains",
    "Mobilizing Movement",
    "Introduction",
    "Following the Paths of the Colonial Era",
    "The Persistence of Paths in the Age of Re-Settlement",
    "Erasing the Paths in the National Atlas",
    "Marking the Old Path in the Age of Steam and Rail",
    "The Old Path Sidelined in the Age of Rail",
    "Rail, the Local Road, and the Vanishing Old Path",
    "Looking for a Good Road in Georgia",
    "North, South, and Motoring through Georgia",
    "New Routes in the Age of Electrification",
    "Searching for the Great Old Path in the Twentieth Century",
    "Conclusion",
    "Depression and Recovery",
    "Popular Maps",
    "Railroad Maps and Development",
    "Governmental Maps",
    "Standardization",
    "Finance Capitalism and the World the Railroads Made",
    "Interurban Railroads",
    "Railroads in Wartime",
    "Tourist Maps",
    "Decline",
    "Maps for Consolidation",
    "Prospects for Century 21",
    "Beginnings",
    "Flowering",
    "Continental and Market Expansion",
    "Initial Maps",
    "Working Maps for Internal Use",
    "Promotional Maps",
    "Commercial Maps for Public Affairs and Travelers\u2019 Aids",
    "Booster Maps",
    "Migration Processes and Trends",
    "Personal Accounts of Migration",
    "Maps of Migration",
    "Homeland Maps",
    "Transportation and Promotional Maps",
    "Thematic and Statistical Maps",
    "Large-Scale Settlement Maps",
    "Maps in the Literature of Colonization",
    "Maps in the Literature of Nation Formation",
    "Maps in the Literature of two Gilded Ages, 1900/2000",
    "***",
    "Maps for National Reconnaissance and Exploration",
    "Maps for National Infrastructure and Internal Improvements",
    "Maps as Historical Clues",
    "Reading Canal Maps",
    "The European Background",
    "Introduction",
    "The Many Returns of Edmond Halley",
    "The American Progression",
    "The Era of Powered Craft",
    "The World Nearing Whole",
    "Sound in the Water like Light in the Air",
    "Conclusion",
    "Introduction",
    "Spaniards in the Southwest",
    "Spaniards in the Southeast",
    "English Explorers on the Atlantic Coast",
    "The French Presence on the Saint Lawrence River",
    "French Exploration along the Great Lakes and Mississippi Valley",
    "French Explorers Press Westward",
    "Russian Delineation of the Northwestern Coast",
    "Filling in Cartographic Knowledge of the Interior",
    "Conclusion",
    "Early Visions",
    "Practical Beginnings",
    "A National System",
    "New Approaches",
    "Meaning"
]