[
    [
        "./maps-of-trails-and-roads-of-the-great-west",
        "maps-of-trails-and-roads"
    ],
    [
        "./amercan-railroad-maps-1828-1876",
        "american-railroad-maps-1828-1876"
    ],
    [
        "./navigating-the-coasts",
        "navigating-the-coasts-and-seas"
    ]
]