{
    "title": "Maps of Trails and Roads of the Great West",
    "author": "DENNIS REINHARTZ",
    "path": "maps-of-trails-and-roads",
    "essay": [
        [
            2,
            "The Spanish Entrada",
            "h3"
        ],
        [
            3,
            "The earliest trails of the Great West of North America were those blazed by Indians, and many of them, such as the Comanche Trail across Texas and New Mexico, followed the even older seasonal migration routes buffalo and other wild game. As demonstrated by the archeological remains of trade goods uncovered in the region (parrot feathers, pottery, textiles, seeds, foodstuffs, etc.), interconnected networks of Indian pathways stretched northward from the empires of the Mayas and Aztecs in southern and central Mexico into the Greater Southwest of what are now northern Mexico, New Mexico, Arizona, Utah, and Colorado and back, well before the coming of Europeans. Yet other systems of east-west trails linked the peoples of the Great Plains with those of the Greater Southwest and the Pacific Coast. While less demanding tracks over the land and the availability of water and sustenance were key to the establishment of these courses, there is, regrettably, no surviving print record of any route maps that may have been made by Indian travelers of these traces.",
            "p"
        ],
        [
            4,
            "When Europeans and, later, Euro-Americans initially came to the West, they regularly journeyed along the traces pioneered by the Indians. Spanish travelers were the first to come. Within the decade after the conquest of the Aztec Empire by Hernando Cort\u00e9s in 1521, they began moving northward from Mexico City, seeking more fortune and glory for their God, their king, and for themselves. Specifically, they searched for the mines that were the sources of the silver and gold of the Aztecs and then for more Aztec- and Inca-like civilizations, such as the rumored Seven Cities of Cibola and their riches of gold and turquoise. Toward achieving the latter of those ends, the entradas of P\u00e1nfilo de Narv\u00e1ez and Alvar N\u00fa\u00f1ez Cabeza de Vaca in 1527-1537, Fray Marcos de Niza and Francisco V\u00e1zquez de Coronado in 1539-1542, and Hernando de Soto and Luis de Moscoso in 1539-1543, followed the Indian trails of what is now the southwestern United States, chronicling and mapping their travels along the way.",
            "p"
        ],
        [
            5,
            "In 1598, Juan de Onate led a large party of military and settlers northward from Chihuahua via El Paso del Norte along the Rio Grande to take formal possession of New Mexico. In July, he founded his first capital at the Tewa village of Ohkay Owingeh (Pueblo of San Juan). This capital was moved to the new village of Santa Fe in 1610. Onate explored and mapped New Mexico, especially to the west to find an overland route to California, until he was replaced as governor in 1608. Thereafter, in the seventeenth and eighteenth centuries, the Spanish turned the old Indian trails stretching northward from Mexico City into El Camino Real (\u201cthe royal road\u201d), connecting Mexico City via El Paso with Santa Fe and Taos in New Mexico in the north and via Tubac in Arizona with Los Angeles and San Francisco in Alta California in the northwest. Soldiers, immigrants, trade, and vital communications regularly traveled, locally and over longer distances, on these first European roads into the West. Alexander von Humboldt\u2019s derroterro or route map, \u201cCarte de la Route qui m\u00e9ne depuis la Capitale de la Nouvelle Espagne jusqu\u2019\u00e0 S. Fe du Nouveau Mexique\u2026\u201d, published in Paris in 1811, fully details El Camino Real from Mexico City.",
            "p"
        ],
        [
            6,
            "At about the same time as Daniel Boone was leading British settlers from Virginia through the Cumberland Gap in the Appalachian Mountains on the Cumberland or Wilderness Trail (which was eventually surpassed by canals and riverboats) west onto the Kentucky frontier in the 1770s, several Spanish parties were trying to find a way between Santa Fe and Los Angeles and San Francisco. The Dom\u00ednguez-Escalante Expedition, under the leadership of frays Atanasio Dom\u00ednguez and Silvestre V\u00e9lez de Escalante and accompanied by the soldier-engineer and cartographer Bernardo de Miera y Pacheco, in 1776-1777 penetrated into south central Utah before returning to Santa Fe. A product of this exploration was Miera\u2019s important manuscript map, the \u201cPlano de la Provincia Interna del Nuevo Mexico\u2026\u201d, completed in Santa Fe in 1777 and in several copies in 1778 and 1779. It documented the expedition\u2019s traverses and much of what was known by the Spanish about the Southwest at the time. It also first revealed the larger eastern part of what would come to be known as the Old Spanish Trail and pioneered by the Dom\u00ednguez-Escalante Expedition.",
            "p"
        ],
        [
            7,
            "Until the 1850s, the Old Spanish Trail was the major pack train trade route between Santa Fe and Los Angeles and San Francisco. Textiles made by Indian and Spanish weavers from the wool of New Mexican sheep were carried to California and traded for horses and mules that were then led back to Santa Fe to be sold. There was also a more localized trade in Indian (Ute and Paiute) slaves by Spanish, Mexican, and later Mormon traders along the New Mexico-Utah part of the trail. The Old Spanish Trail in its maximum extent has been delineated clearly on the significant \u201cA New Map of Texas Oregon and California\u2026\u201d by Samuel Augustus Mitchell, published in Philadelphia in 1846.",
            "p"
        ],
        [
            8,
            "Beginning in the 1821, the Santa Fe Trail linked much of the older Spanish-Mexican trail network, which the Americans would inherit a quarter of a century later, to the expanding United States. It became a major artery for trade, migration, and the military, reaching from Santa Fe eastward to central Missouri and Kansas until it was fully eclipsed by railroads 1880. The importance and popularity of the Santa Fe Trail is attested to by its prominence on many on many of the maps of the West of the day, including this map of 1846 by Samuel Augustus Mitchell.",
            "p"
        ],
        [
            9,
            "Near the end of the Mexican War of Independence from Spain (1810-1821), the Spanish government issued the first impresarial grant of land in Texas to the American Moses Austin to found a colony. The Austin Grant colonists, the \u201cOld Three Hundred,\u201d settled along the Brazos River in southeast Texas in 1822. Moses\u2019 son, Stephen F. Austin, spent much of 1822-1823 in Mexico City to have the grant confirmed by the new government in 1823. As part of the approval, he agreed to produce and up-to-date map of the new Mexican state of Coahuila y Tejas, as it came to be called in 1824. Austin finished his map in 1829 and sent a copy in Spanish to the Mexican government as promised. He also had it published by H.S. Tanner of Philadelphia in 1830 as a \u201cMap of Texas with Parts of Adjoining States\u201d.",
            "p"
        ],
        [
            10,
            "Austin\u2019s map not only provided Mexico with the most comprehensive rendering of Texas to date, but it also publicized the new Mexican state to the world at large. It indicated old and new settlements and the roads connecting them as well as emphasizing the region\u2019s rivers and coastal harbors such as Galveston Bay. Indian tribes were located, and the map advertised \u201cimmense herds of buffalo\u201d and \u201cimmense droves of wild horses.\u201d Spanish-introduced free-range cattle also are mentioned. Clearly, this important map was intended to promote Texas and to lure US settlers to \u201cAustin\u2019s Colony,\u201d which is one of only two with \u201cDewitt\u2019s Colony\u201d given prominence on it. The unexpected rapid influx of US settlers, legally and illegally, to the Austin and other impresario grants caused the Mexican government to impose ever greater restrictions on immigration to Texas that ultimately led to the Texas Revolution in 1835-1836 and the founding of the independent Republic of Texas. Austin\u2019s map is a classic early example of immigrant cartography of the type that helped to open up not only Texas but the whole of the West to settlement.",
            "p"
        ],
        [
            11,
            "Throughout the nineteenth century, particularly commercial cartography production related to these and other trails became somewhat formulaic. The state and territorial maps picturing the routes appeared in a rapidly growing number of national atlases. The same maps were also left as single sheet flat maps or made into pocket maps. The use of pocket maps dates back to at least the second half of the seventeenth century, and this form was created essentially to satisfy the demand created by increasingly mobile middle-class Europeans. These Europeans needed the convenience of maps that could be carried with them on their trips to help them get where they were going and to tell them what it was like there and along the way. Pocket maps were constructed from the flat maps that were sectioned with the sections then affixed to cloth or canvas backings, and were folded along the gaps between the sections to fit in more confined spaces such as the pockets of travelers\u2019 coats. Over time, the sizes of the maps when folded were in part governed by the whims of fashion and the subsequent changing configurations of pockets. Many late nineteenth century varieties were labeled \u201cvest pocket maps.\u201d The folded maps often were fitted with titled covers made of leather or other more rigid materials. The backings and covers prolonged the maps\u2019 lives by allowing them to be consulted continually during travel. In due course, the use and increased popularity of pockets maps crossed the Atlantic to the Americas with European empires and their journeyers.",
            "p"
        ],
        [
            13,
            "The Coming of the Americans",
            "h3"
        ],
        [
            14,
            "Over the course of the nineteenth century, and especially after the Mexican-American War (1846-1848), the United States realized its \u201cManifest Destiny\u201d to expand from the shores of the Atlantic Ocean to the Pacific and beyond. Consequently, more and more people, US and European settlers streamed across the Mississippi River, lured by land for the taking, to find their fortunes and futures in the West. In addition to the Santa Fe Trail, numerous other overland trade and immigrant routes were opened up to various parts of the Great West. These new roads functioned not only to bring people to the frontier, but to supply their new settlements as well.",
            "p"
        ],
        [
            15,
            "The Oregon Country was a huge piece of territory, disputed over by Great Britain, Russia, Spain, and the United States, that included not only the present state of Oregon, but also Washington, Idaho, and parts of Montana and British Columbia. Its climate, rivers rich with fish and fur, timber resources, and potential farm lands invited settlement. The initial parts of the 2,000 mile wagon road known as the Oregon Trail that connected Independence, Missouri to the Willamette Valley in Oregon were laid out my mountain men and traders (following Indian trails) prior to 1840. Approximately 400,000 people eventually used the Oregon Trail during in the 1840s-1860s.",
            "p"
        ],
        [
            16,
            "In the 1820s-1840s, the British Hudson\u2019s Bay Company developed its York Factory Express Route from its York Factory on Hudson\u2019s Bay to its Fort Vancouver in Oregon, upstream from the American Fort Astoria on the Washington side of the Columbia River. Its primary purpose was to facilitate the Company\u2019s fur trade with the Indians, not immigration, and it did not actually join the Oregon Trail. But other tracks did come together with it or branched off from it.",
            "p"
        ],
        [
            17,
            "In the 1840s-1860s, the California Trail dropped off to the southwest at Fort Hall in Idaho to reach the California goldfields. In 1849 alone it brought about 2,700 gold seekers and other settlers to California. The road from Independence to northern California too was about 2,000 miles long. During the same decades, tens of thousands of Mormons followed their leader Brigham Young from Nauvoo, Illinois along the Oregon and California trails to the Salt Lake Valley in Utah on what came to be known as the Mormon Trail. The Oregon Trail also was laid out on Mitchell\u2019s \u201cA New Map of Oregon Texas and California with Regions Adjoining\u2026\u201d in 1846 as it was reaching its era of greatest usage. The terrains soon to be traversed by its branches to the gold fields of California and the promised land of Utah are shown as well.",
            "p"
        ],
        [
            18,
            "Two years later the seminal lithograph \u201cMap of Oregon And Upper California From the Surveys of John Charles Fremont And Other Authorities,\u201d drawn by Charles Preuss was published in Washington, DC. Fremont and Preuss were officers in the US Army Corps of Topographical Engineers, and this map marked the real beginning of the US scientific topographical mapping of the West. Although comparable to the Mitchell map, it did not designate the specific trails, but it nevertheless more accurately show the way West through the Rockies, especially through the South Pass to San Francisco.",
            "p"
        ],
        [
            19,
            "First scouted by John Bozeman and John Jacobs in 1863, the Indian troubled Bozeman Trail branched off from the Oregon Trail west of Fort Laramie in Wyoming to reach northwestward through the Bozeman Pass into the gold and silver mining country around Virginia City, Montana well into the 1870s. The Bozeman Trail takes center stage on the large \u201cMap of the Territory of Montana with Portions of the Adjoining Territories\u201d, complied and drawn by Walter W. De Lacy of the surveyor general\u2019s office in Helena and superbly engraved and commercially published by G.W. and C.B. Colton & Co. of New York in 1870. This detailed map covers the Montana, Wyoming, and Idaho territories, accurately showing the various tracks and rivers through the rough topography of the Rocky Mountains to take travelers to mining camps, forts, and other settlements. The extensive Indian presence of tribes such as the Crow, Flatheads, and Nez Perce too are clearly indicated. The picture presented by this map underscores the fact that any journey undertaken in this region by the intrepid in search of mineral wealth, for land, or for other reasons, will not be any easy one.",
            "p"
        ],
        [
            20,
            "In addition to California and Montana, there were several other important gold and silver strikes that helped to open and populate the greater American West; among them were Colorado in 1858 and Alaska in 1896. Accordingly, numerous maps were produced by commercial and government enterprises to show the routes to miners and other immigrants to the sites of the potential new riches. The \u201cMap of Kansas with a Route from Kansas City to the Gold Mines\u201d is blatantly simple in showing the way across the Great Plains of Kansas and Colorado to the \u201cGold Region,\u201d appropriately shaded yellow on an otherwise black-and-white rendering. Along the main track, which cuts across the \u201cGreat Santa Fe Trail,\u201d settlements and possible campsites are indicated, as is Pike\u2019s Peak near the end of the journey. To the north of the main track, the \u201cSouth Platte Route\u201d overland trail to the goldfields also is designated. The map is authored by Edward Mendenhall and Colonel William Gilpin (1834-1894), based in part on the 1849-1853 surveys of Captain John Williams Gunnison (1812-1853) of the US Army Corps of Topographical Engineers and published by in Cincinnati, Ohio by Middleton, Strobridge & Co. in 1859.",
            "p"
        ],
        [
            21,
            "Similarly, \u201cThe Gold and Coal Fields of Alaska together with the Principal Routes and Trails\" by the US Coast and Geodetic Survey and US Geological Survey, published in Washington, DC in 1898, was one of the most authoritative maps showing the way to the Alaska gold rush. It includes not only Alaska but the Canadian Yukon Territory and British Columbia as well. Gold was also discovered in the Klondike region of the Yukon in 1896, setting of the great \u201cKlondike Stampede,\u201d and many of the \u201cstampeders\u201d reached the Canadian fields from Alaska. As the title of the map hintst, many people came to Alaska by sea from the West Coast of the United States proper, while others traveled overland through Canada. The locations of the known gold deposits are clearly marked on the map, and two insets show the routes to the headwaters of the Yukon River in Alaska and the Klondike region in Canada respectively. The existing courses from the various ports of entry to the gold fields too are demarcated. This map provides a good example of a government publication issued to encourage more orderly Western development during the nineteenth century.",
            "p"
        ],
        [
            22,
            "Parts of the great trail networks frequently were used by stage coaches and mail riders for more local travel and deliveries. Large stage lines such as those operated by John Butterfield and eventually Wells Fargo and numerous lesser ones also connected the trails with ever encroaching railroads that would eventually render the trails and even the coaches superfluous. Post roads and other mail routes had been indicated on American maps since colonial times by the Spanish and British and throughout the nineteenth century. In 1861-1862, in an experiment the United States moved mail swiftly from St. Louis, Missouri to Sacramento, California for a brief period of six months via the now legendary Pony Express, before it was replaced by a network of railroad, stage coaches, and other forms of local delivery along the way.",
            "p"
        ],
        [
            23,
            "Several of the proposed and adopted mail routes between St. Louis and the new state of California are delineated on the simple broadside \u201cSkeleton Map of the Overland Mail Route to California\u201d, attributed to John Butterfield (1801-1869) and presumably published by him in c. 1857. On it the southern route adopted by the US Post Office is marked in green and the proposed central Butterfield route is marked in red. The rejection of Butterfield\u2019s route lost him a valuable postal contract. This map was circulated by those disgruntled about the decision of Postmaster Brown of Tennessee to opt for the southern route, which veered sharply south from St. Louis through Memphis and then on to the West Coast. As the explanations below the map point out in a thinly veiled accusation of Brown playing regional politics, the selected route was longer and through more inhospitable territory than that proposed by \u201cJohn Butterfield and others (who were the lowest bidders).\u201d",
            "p"
        ],
        [
            24,
            "As the Spanish Army before it, the American Army played an important role in the exploring, surveying, mapping, building, and protecting of the Western trails. Especially during the Mexican-American War, Civil War, and Indian wars, the cartographic role of the military was critical. During the Civil War, it was the growing network of roads that kept most of the West connected to the Union and the rest of it to the Confederacy. The \u201cMap of Military Road from Fort Walla Walla on the Columbia to Fort Benton on the Missouri\u2026\u201d, by Captain John Mullan (1830-1909) and Edward Freyhold (fl. 1855-1879), among others, and published by Julius Bien & Co. in New York in 1863, is a superb example of a map that served both the needs of the Union Army and civilians eager to go West. The road that this lithograph map documented was a vital link of 642 miles through Montana, Idaho, and Washington between the important Columbia and Missouri waterways. In addition to terrain, it shows related roads and trails, campsites, rapids, and the lands of Indian nations such as the Flathead, Blackfoot, Yakima, and Kootenay, among others, and associated battle grounds. Obviously, this map and numerous others like it were of value to all kinds of travelers beyond the military on this road and others like it.",
            "p"
        ],
        [
            26,
            "The Cattle Trails",
            "h3"
        ],
        [
            27,
            "Beginning with the Coronado entrada and certainly along El Camino Real, the Spanish brought millions of head of sheep, goats, swine, cattle, oxen, mules, burros, and horses into the American West over the course of almost 250 years. So too did those coming later from the East by the immigrant trails. Though the movement of livestock was nothing new by the coming of the great cattle drives and the trails they forged, which often followed older buffalo and other game migration routes as well as those of nomadic Indians such as the Comanche, they nevertheless form part of unique chapter, that of the \u201ccowboys and Indians,\u201d in the history of movement in America culture.",
            "p"
        ],
        [
            28,
            "The first of the cattle drives occurred before the American Civil War. At the time of the birth of the Texas republic in 1836, there already was a so-called beef trail to New Orleans. By 1840s and 1850s, herds of as many as 3,000 head mostly feral Spanish longhorn cattle were rounded up in eastern and central Texas and taken along what came to be called the Shawnee or Texas Trail across Indian Territory to markets in Arkansas and western Missouri.",
            "p"
        ],
        [
            29,
            "After the Civil War, Texas had a surplus of cattle and few local markets, but the United States needed expanded beef production to feed its growing population. This situation engendered the era of the great cattle drives over several major trails, usually bearing the names of their pioneers, northward to various new railheads in Kansas. The Goodnight-Loving Trail (of Charles Goodnight and Oliver Loving) reached from the Pecos River of New Mexico and West Texas to Dodge City in 1866; the Chisholm Trail (of Jesse Chisholm) followed in 1867 ultimately from the lower Rio Grande Valley through Fort Worth to Wichita and Abilene; the Western Trail came up from the hill country around San Antonio and merged with the Goodnight-Loving Trail at Fort Griffin in 1874; and in 1883, the Potter-Bacon Trail or Cutoff (of Jack Potter and Alfred T. Bacon) came from the Texas Panhandle and also merged with the Goodnight-Loving Trail at Fort Griffin. Above all, the presence of adequate fodder and water along the way were major determinants of the courses of these trails. By the 1890s, the end of open range and the progress of the railroads brought an end the trails that had seen millions of cattle to market in a little more than a quarter of a century.",
            "p"
        ],
        [
            30,
            "In 1875, the Kansas Pacific Railway Company, which was a part of the Atchison, Topeka, and Santa Fe system, published a now rare map entitled and promoting \u201cThe Best and Shortest Cattle Trail from Texas to Kansas City\u201d. It covered Texas and Oklahoma and parts of New Mexico, Colorado, and Kansas, showing the major Texan network of unnamed trails feeding into the prominently indicated \u201cEllsworth Cattle Trail\u201d north to the Company\u2019s loading pens at the rail head at Ellsworth, Kansas. Also marked to the west is \u201cJ.S. Chisum\u2019s Trail\u201d from Sumner, New Mexico north to the Los Animas/Fort Lyon, Colorado Company railhead.  While on this map this trail is named after John Chisum, a New Mexico rancher and friend of Billy the Kid of Lincoln County War fame and not the Texas rancher of Chisholm Trail fame, it is actually the Goodnight-Loving Trail. The major rivers along the way that were so important to the drives are clearly shown, though the Brazos and Colorado are somewhat arbitrarily drawn. Pointing to the western markets for Texas and New Mexico beef, the east-west railroad line through Kansas is conspicuously labeled the \u201cOverland Cattle Trail for Colorado, Utah, and California.\u201d While originally this map with its accompanying text was intended at least in part to advertise the way to Kansas Pacific Railway to the ranchers of Texas and New Mexico, today it helps viewers to understand better the routes, countryside, dangers, and economics of the great cattle drives.",
            "p"
        ],
        [
            32,
            "Getting into the Maps",
            "h3"
        ],
        [
            33,
            "Period maps are invaluable in elucidating the geographical factors and spatial relationships that helped determine the pattern of Western history in the nineteenth century. Beyond seeing these old maps as often quaint illustrations from the past from which they come, it is also common to treat them as artifacts of a bygone era of discovery, exploration, and exploitation and settlement. Such maps are indeed meaningful markers of human development and attainment, summarizing the scientific, technological, and intellectual strengths of an historical era and recording the political, economic, and social values of the times in which they were created.",
            "p"
        ],
        [
            34,
            "Maps are interpretations rather than copies of reality. As human constructions, they are social documents with individual points of view and per se useful tools for teaching about the past. In this regard, the study of maps can create a healthy attitude of inquiry and meaningful learning experiences. Simply put, they are rife with research topics for students to pursue.",
            "p"
        ],
        [
            35,
            "While all of the maps in this section provide representations of the geographical context of American westward expansion, maps #1, #2, #5, #7, and #9 are especially good exemplars. They quite straightforwardly show barrier mountains and their passes, rivers and their crossings, plains and deserts, and blazed trails and their connectors with the recommended campsites and settlements along them. Maps such as these also provide some insight into how the explorers and pioneers were influenced by natural obstacles to find ways across, through, and/or around them. They documented the physical geographical realities (e.g. Rocky Mountains) and myths (e.g. Great American Desert) of the American West for trappers, miners, emigrants, merchants, and soldiers alike.",
            "p"
        ],
        [
            36,
            "But these same maps and others such as #3, #4, #6, #8, and #10 also depicted the human political and economic geography of the West beyond the new settlements and towns. Although the specific boundaries of their domains commonly are missing, most obvious is the presence, if not precisely the threat, of the original inhabitants of the land\u2014the Indians. Map #3, for example, not only clearly establishes the diversity of their presence across the West, but also by implication makes it apparent that while they are on their lands, they are obstacles to westward movement and that much of those lands are up for grabs. With regard to the Indian presence, the previously mention Fremont-Preuss map of 1848 does much the same. Inherent in the idea of Manifest Destiny that these maps reflect is that, more than being a danger, the Indians are in the way of progress and expansion.",
            "p"
        ],
        [
            37,
            "Consequently, on some of the maps the Indians have already been removed from them.  The 1830 map #4 portrays Texas beckoning to Anglo emigrants with its readily available lands in the already demarcated Austin and Dewitt colonies, yet clearly an integral part of Mexico. In 1857, map #8 shows a United States to be connected coast-to-coast by a new overland mail route without any real depiction of geographical impediments, physical or human. On map #10, even though the reputedly major \u201cEllsworth Cattle Trail\u201d crosses the bold marked \u201cIndian Territory\u201d its inhabitants no longer seem to be a problem for the great cattle drives from Texas to the Kansas railheads. And in 1898 on map #7, neither US nor Canadian native peoples are referenced.",
            "p"
        ],
        [
            38,
            "The contemporary and implied political demarcations of the West correspondingly are to be found on several of the maps. On map #4, the future American state of Texas can be seen emerging out of its Mexican forerunner. Beyond an extended Texas, in 1846 map #3 begins to show Oregon and yet to come American California and Mexican Session. Map #5 manifests the future states of Wyoming and Montana. Likewise the boundaries of Alaska, separating it from Canada and Russia, are marked definitively on map #7.",
            "p"
        ],
        [
            39,
            "Along with location, place, relationships within places (human-environmental interaction), and regions, movement is one of the essential, unifying themes of modern geography, and perhaps the one interconnected closest with economic development. It follows then that maps directly related to movement should be demonstrative of economic development. Certainly, the maps considered in this section are. Maps #1, #2, #3, and #5 especially show not only the routes of emigration, but also of commerce. While much interest has already been paid by historians to the people who traveled these trails, far less has been given to the commodities regularly traveled on them from the times of the Indians and Spanish and Mexicans to the Americans well into the nineteenth century. These numerous goods and their exchange between the various groups had a telling impact on the advancing frontier and supported expansion and settlement. Many attention-grabbing research topics about these goods, their trade, and their impact exist for students to work on, with the period maps serving as some of their most important primary sources.",
            "p"
        ],
        [
            40,
            "The routes on maps such as #4, #6, and #7 typically point to locations of North America\u2019s natural wealth\u2014land for ranching, farming, and other uses and occasionally the mineral riches under it. These maps and others like them are excellent informants for gaining an understanding the land and gold and silver rushes of the West and their effects.",
            "p"
        ],
        [
            41,
            "Inherent in this and other cartography is the theme of the role of government and military in its development. As most of these maps easily reveal, the Spanish, Mexican, and American administrations commissioned and further encouraged the mapping of the West for purposes of exploration, expansion, exploitation, and regulation. Essential to this government cartographic activity was the military as pathfinders, engineers and surveyors, mapmakers, and defenders and overseers. Many students enjoy research topics on the military and are intrigued by its role in the history of cartography.",
            "p"
        ],
        [
            42,
            "And finally, a relatively simple example of scientific-technological advancement in cartographic reproduction can be derived from an examination of maps #2, #1, and #8 in chronological order to note the progress made between hand drawn, engraved, and lithographed maps respectively. The hand drawn and copied map #1 reflects its rather limited secretive governmental administrative usage and non-commercial publication. At the time, what popular demand there was for maps such as this was minor and stifled by Spanish imperial policy. As the multifaceted demand for maps of the American West increased in the nineteenth century, they became more commercially viable and better reproduction technologies were called for to meet this demand. Thus, the more limiting metal plate engraving and printing on higher quality rag paper of map #2 gave way to more mass produced lithograph maps (e.g. #3) on cheaper wood pulp paper. And over the course of the century greater accuracy was required as well and realized through more and better mathematically based specific surveys by better trained military and civilian engineers and surveyors. Maps #1, #5, and #9 are reflective of this growing reliability.",
            "p"
        ]
    ],
    "maps": [
        {
            "title": "The Overland Mail Route to California, 1857",
            "parent": "Maps of Trails and Roads of the Great West",
            "path": "./maps-of-trails-and-roads/1857-overland-mail-route-to-california",
            "miniessay": [
                [
                    3,
                    "Not really a cartographer, John Butterfield was an entrepreneur who among his other businesses ran various freight and stagecoach lines in the American Northeast and Southwest. In this vein, he founded the Butterfield Overland Express between St. Louis and San Francisco and companies that ultimately would become Wells Fargo and American Express. In 1857, he created the Butterfield Overland Mail that carried mail between St. Louis and California until 1861, when it went bankrupt and was replaced on that run by Wells Fargo."
                ],
                [
                    4,
                    "This deceivingly plain broadside reveals a good deal about the complexity of the United States in the middle of the nineteenth century. In broad strokes, this map straightforwardly lays out the first coast-to-coast American postal system. Graphically and in the accompanying text it also reflects on the business of long range transport and even points to a perceived need for national cohesion through communication among the sharpening regional differences emerging in the country prior to the Civil War. ."
                ]
            ],
            "citations": [
                {
                    "title": "The Overland Mail Route to California, 1857",
                    "source": "\"Skeleton Map of the Overland Mail Route to California\" [United States? : s.n., 1857?]. VAULT broadside Graff 526"
                }
            ]
        },
        {
            "title": "The Route from Kansas City to the Gold Mines, 1859",
            "parent": "Maps of Trails and Roads of the Great West",
            "path": "./maps-of-trails-and-roads/1859-route-from-kansas-city",
            "miniessay": [
                [
                    3,
                    "This map covers Kansas and parts of eastern Colorado and southern Nebraska and folded into a Guide to the Kansas Gold Mines at Pike\u2019s Peak by William Gilpin. He went on to become the first territorial governor of Colorado in 1861 and publish his own Colorado gold rush map in 1862. John Williams Gunnison was a captain in the US Army Corps of Topographical Engineers, which emerged from the Army Bureau of Topographical Engineers in 1838, an American inheritor of the scientific mapmaking tradition of the Spanish Royal Corps of Engineers. Although Gunnison died surveying in the field in 1853, his information was deemed critical and current enough to incorporate in this map. Edward Mendenhall worked directly for the publisher, Middleton, Strobridge & Co., in Cincinnati, which specialized in guidebooks and maps of the American West from the 1850s to the 1870s."
                ]
            ],
            "citations": [
                {
                    "title": "The Route from Kansas City to the Gold Mines, 1859",
                    "source": "Middleton, Strobridge & Co., \"Map of Kansas with Route from Kansas City to the Gold Mines\", in John Williams Gunnison, Guide to the Kansas Gold Mines at Pike\u2019s Peak (Cincinnati, OH : E. Mendenhall, 1859), inside back cover. Graff 1693"
                }
            ]
        },
        {
            "title": "The Best and Shortest Cattle Trail from Texas, 1875",
            "parent": "Maps of Trails and Roads of the Great West",
            "path": "./maps-of-trails-and-roads/1875-best-and-shortest-cattle",
            "miniessay": [
                [
                    3,
                    "This map, prepared for and published by the Kansas and Pacific Railway, is both functional and promotional. It provides a summary of the great cattle trails stretching from Texas north to the Kansas railheads. Most of the trails are shown at least in part in a network but are individually unnamed. And what is prominently labeled as the \u201cEllsworth Cattle Trail\u201d generally follows the more famous Chisholm Trail laid down by Texas rancher Jesse Chisholm. On the other hand, \u201cJ.S. Chisum\u2019s Trail\u201d shown in New Mexico is actually that pioneered by the Lincoln County rancher John Chisum. In this regard, the map is advertising Kansas Pacific Railway\u2019s availability to the routes of the cattle trails. These are clearly marked routes to be followed by ranchers to market their beef east and west."
                ],
                [
                    4,
                    "This map also can be seen as a booster map and a souvenir intended to promote the Kansas Pacific Railway in general. It was issued folded inside of the back cover of a guide to the Railway and trails leading to it. The delightful title cartouche of a Texas longhorn steer with the Railway\u2019s name on a banner spanning its magnificent horns and the title of the map on a Texas lone star badge hanging from a ring in the steer\u2019s nose clearly underscores the map\u2019s publicity function."
                ]
            ],
            "citations": [
                {
                    "title": "The Best and Shortest Cattle Trail from Texas, 1875",
                    "source": "Kansas Pacific Railway Company, \"Kansas Pacific Railway : the Best and Shortest Cattle Trail from Texas\" (Kansas City, MO : K.C. Lith. Co., 1875). VAULT Graff 2275"
                }
            ]
        },
        {
            "title": "The Territory of Montana, 1870",
            "parent": "Maps of Trails and Roads of the Great West",
            "path": "./maps-of-trails-and-roads/1870-territory-of-montana",
            "miniessay": [
                [
                    3,
                    "Walter Washington De Lacy (1819-1892) was a military engineer and surveyor who compiled and drew this map for the Surveyor General\u2019s Office in Helena, Montana Territory; it was published in New York City by G.W. and C.B. Colton & Co. George Woolworth (1827-1901) and Charles B. Colton (1832-1916) were the sons of Joseph Hutchins Colton (1800-1893) and the inheritors of his publishing business. In addition to being a publisher, G.W. Colton also was a geographer, engraver, and mapmaker, which his father and brother were not. This map is from a wax engraving and is a revised version of one first done in 1865. It is updated with critical information on the country surrounding the headwaters of the Yellowstone River from an expedition to the area in 1869 led by C.W. Cook and David E. Folsom. In the lower left hand corner there also is an inset projecting the route of the Northern Pacific Railroad, which was begun in 1864 but not completed until 1883. The progress of this railroad helped to bring about the end of much of the previous traffic on the northern overland trails."
                ],
                [
                    4,
                    "J.H. Colton founded his firm in 1831, and in the decades that followed it rose to prominence especially in the publication of atlases, maps, and travel guide books, especially covering the American West. By 1865 when the sons took over the business, J.H. Colton & Co. had contributed greatly to the rise in importance of New York in the map trade and became an important rival of Mitchell & Co. For the next thirty years or so, G.W. and C.B. Colton carried on in the tradition of their father. The Coltons published their last map in 1892."
                ]
            ],
            "citations": [
                {
                    "title": "The Territory of Montana, 1870",
                    "source": "De Lacy, Walter Washington, \"Map of the Territory of Montana with Portions of the Adjoining Territories\", (New York : G.W. & C.B. Colton & Co., 1870). VAULT drawer Graff 1040"
                }
            ]
        },
        {
            "title": "A New Map of Texas, Oregon, and California, 1846",
            "parent": "Maps of Trails and Roads of the Great West",
            "path": "./maps-of-trails-and-roads/1846-new-map-of-texas",
            "miniessay": [
                [
                    3,
                    "Samuel Augustus Mitchell (1792-1868) was a geographer and publisher who over his forty years in the business helped make Philadelphia a leading center of the American map trade in the first half of the nineteenth century. In 1831, he began issuing pocket maps and guides of the United States and its territories for travelers. Mitchell likewise specialized in meeting the growing demand for geographical information about the West with high quality, mass market lithographed maps such as this one of his masterpieces. Published along with a forty-six page explanatory \u201cAccompaniment\u201d booklet into which it was folded, this map was one of the first depicting Texas as oversized state (with an extended panhandle) in the expanding United States. As it states in its extended title, this map is \u201ccompiled from the most recent authorities,\u201d such as the cartography of Lewis and Clark, Zebulon Pike, John C. Fr\u00e9mont, William H. Emory, among others. It was both popular and influential because of what it said about the West to an increasing and eager viewership. While working as a teacher Mitchell had found himself frustrated by the lack of good maps in the classroom. The numbers in which his maps such as this were produced at reduced costs also helped to alleviate that problem at least somewhat as well. Interest in this map also undoubtedly was heightened by beginning of Mexican-American War in 1846, the year of its publication."
                ],
                [
                    4,
                    "This map not only shows the political situation in the West, but the way west as well. The established Santa Fe Trail from the Mississippi to Santa Fe and the Old Spanish Trail from Santa Fe to the West Coast are clearly indicated. The Oregon Trail, which was only beginning to peak in importance in the United States\u2019 peopling of the West too is present. Once again, here the availability of water and the topography are the keys to the courses of the routes. But in the Southwest, the \u201cGreat Interior Basin of California\u201d is still for the most part left blank with only a few explanatory remarks."
                ]
            ],
            "citations": [
                {
                    "title": "A New Map of Texas, Oregon, and California, 1846",
                    "source": "Mitchell, Samuel Augustus, \"A New Map of Texas, Oregon, and California with the Regions Adjoining\" (Philadelphia : S. Augustus Mitchell, 1846). Map3C G4050 1846 .M5"
                }
            ]
        },
        {
            "title": "The Gold and Coal Fields of Alaska, 1898",
            "parent": "Maps of Trails and Roads of the Great West",
            "path": "./maps-of-trails-and-roads/1898-gold-and-coal-fields",
            "miniessay": [
                [
                    3,
                    "Already well established by the end of the nineteenth century, The US Coast and Geodetic Survey (1878) and the US Geological Survey (1879) were civilian governmental successors to the US Army Corps of Topographical Engineers. This Geological Survey map is a close copy of Chart T of the Coast and Geodetic Survey map and accompanying description of Alaska published in 1897 and was prepared in accordance with a resolution of the US Congress of 1898."
                ]
            ],
            "citations": [
                {
                    "title": "The Gold and Coal Fields of Alaska, 1898",
                    "source": "Geological Survey (U.S.), \"The Gold and Coal Fields of Alaska : Together with the Principal Steamer Routes and Trails\" ([Washington, DC] : U.S. Geological Survey, 1898). Map4C G4371.H1 1898 .U5"
                }
            ]
        },
        {
            "title": "Road from Capital of New Spain to Santa Fe, 1811",
            "parent": "Maps of Trails and Roads of the Great West",
            "path": "./maps-of-trails-and-roads/1811-road-from-capital-of-new-spain",
            "miniessay": [
                [
                    3,
                    "Friedrich Wilhelm Heinrich Alexander Freiherr von Humboldt (1769-1859) was a polymath, a dominant virtuoso intellectual\u2014naturalist, geographer, explorer, philosopher, diplomat, and author\u2014and a transitional figure of the later Enlightenment and early Romantic eras. In 1799-1804, Humboldt, armed with royal permits from the otherwise secretive Spanish, explored, researched, and collected specimens in the lands of Venezuela, the Oronoco River Basin, Cuba, Colombia, Ecuador, Peru, and Mexico. Some the findings of this extensive journey were detailed in Humboldt\u2019s Essai Politique sur Royaume de Nouvelle Espagne\u2026, published in Paris in 1809 and London in 1810. Accompanying this account was an atlas of finely engraved relevant maps by Humboldt, including a major map of New Spain and this one of El Camino Real, which is actually a detail of the New Spain map. He did not actually explore northern New Spain, so these maps were in part based on research done in Paris, Madrid, Seville, Mexico City (where he probably encountered Bernardo de Miera y Pacheco\u2019s cartography), and elsewhere."
                ],
                [
                    4,
                    "This is the first thoroughly detailed, widely disseminated printed map of the eastern branch of this main road system of the early American West. The route is detailed in three segments, from Santa Fe south to Chihuahua, Chihuahua to Durango, and Durango to Mexico City respectively. Reminiscent of the Spanish derroterros, which were its principle sources, it depicts only the surveyed road and its immediate environs. From this map it is clear that the route was significantly governed by the availability of water. Thus, north of Paseo del Norte (present-day El Paso-Juarez) the road essentially followed the Rio Grande Valley to Santa Fe. Several lakes too are prominently indicated all along the way. Mountains, mesas, and other particularly difficult terrains are circumvented where possible. Mexican and Indian pueblos on the itinerary are specified. And in Mexico, connecting east-west arteries are shown."
                ],
                [
                    5,
                    "Humboldt\u2019s cartography had a significant impact on the later mapping of the American West. For example, on his way back to Europe he stopped off in Washington, DC and left a manuscript copy of his New Spain map with his friend President Thomas Jefferson.  The information on this map was made available to Lieutenant Zebulon Montgomery Pike in preparation for his tour of exploration into the southern Louisiana Purchase in 1806-1807 and appeared on Pike\u2019s own crucial map of New Spain, published in Philadelphia in 1810. Since Pike had explored much of northern New Spain, his map was partially more accurate than Humboldt\u2019s. Both helped to further open up the West, and Humboldt\u2019s maps, especially this one of El Camino Real, were still respected and of value to the American military almost four decades later at the time of the Mexican-American War."
                ]
            ],
            "citations": [
                {
                    "title": "Road from Capital of New Spain to Santa Fe, 1807-1811",
                    "source": "Rivera, Pedro de, \"Carte de la Route que Me\u0300ne Depuis la Capitale de la Nouvelle Espagne jusqu\u2019a\u0300 S. Fe du Nouveau Mexique ... 1807\",  in Alexander von Humboldt, Atlas Ge\u0301ographique et Physique du Royaume de la Nouvelle-Espagne (Paris : Chez F. Schoell, 1811), plate 7. Folio Graff 2009"
                }
            ]
        },
        {
            "title": "Map of the Province of New Mexico, 1779",
            "parent": "Maps of Trails and Roads of the Great West",
            "path": "./maps-of-trails-and-roads/1779-map-of-the-province-of-new-mexico",
            "miniessay": [
                [
                    3,
                    "Don Bernardo de Miera y Pacheco (1713-1785) was an accomplished explorer and skilled cartographer and a captain in the Spanish Royal Corps of Engineers, founded by a royal decree of Felipe V of the new Spanish Bourbon Dynasty in 1711 to help rebuild his war-torn empire. These soldier-engineers were to be well schooled in mathematics, field astronomy, and map making. The Corps came to represent what was understood as scientific mapping, and in northern New Spain engineers such as Miera were adjunct to presidios and other military forces on the frontier. They surveyed geographical details that could be observed directly and more and more came to discount local hearsay information; they also were the first accurately to map the roads of the American West. The tradition they established  was built upon and advanced by Mexican and US soldier-engineers throughout the nineteenth century."
                ],
                [
                    4,
                    "The principle purpose of the Dominguez-Escalante Expedition was to find a way, what would become the Old Spanish Trail, between Santa Fe and Monterey in Alta California. They penetrated west through what is now New Mexico and Colorado into Utah to Laguna de los Timpanangos (Utah Lake), before being forced south into Arizona by a massive blizzard and a shortage of food and supplies and then back to Santa Fe, traveling a total of more than 1,800 miles. Miera\u2019s map incorporates the geographical and anthropological data from the expedition with what the Spanish already knew about these lands and as such is one of the most important maps of the American West and is an important source for the later maps of New Spain by Alexander von Humboldt and Zebulon Montgomery Pike, among others. It shows many of the discoveries made by the fathers and Miera, including Laguna Miera (Lake Sevier) in Arizona, and uses crosses on circles to mark the daily progress of the expedition. It also offers the first European depiction of the Upper Colorado River Basin and the lakes and streams of the eastern Great Basin."
                ],
                [
                    5,
                    "This map is a later copy of the original map completed by Miera in 1777 that was sent with Escalante\u2019s Diario Derrotero of the expedition to the viceroy of New Spain in Mexico City. Miera also prepared a report, detailing his recommendations for the placement of future presidios to combat the Indian threat to Western New Mexico. The originals of both maps are in the British Library, and The Newberry Library has photographic copies in its Karpinski Collection. Louis C. Karpinski (1878-1956) was a professor of mathematics at the University of Michigan and an enthusiastic student of North American cartography. While on leave, in 1926 he photographed more than 700 American-related maps in European archives, about 180 of them Spanish and four by Miera. He produced six sets of fine eleven-by-seventeen-inch black-and-white prints of these maps and donated them to six American research libraries, among them The Newberry Library, to make them more readily available to map researchers."
                ]
            ],
            "citations": [
                {
                    "title": "Map of the Province of New Mexico, 1779",
                    "source": "Miera y Pacheco, Bernardo de, \"Plan de la Provincia Interna del Nuevo Mexico\" (manuscript, 1779 ; photostatic reproduction [London] : British Museum, [19--]). MapPhoto England BL Add. Ms. 17651 u"
                }
            ]
        }
    ],
    "bib": [
        "Burr, Edward. 1939. Historical Sketch of the Corps of Engineers, United States Army, 1775-1865. Washington, DC: Government Printing Office.",
        "Fireman, Janet R. 1977. The Spanish Royal Corps of Engineers in the Western Borderlands: Instrument of Bourbon Reform 1764 to 1815. Glendale, CA:  The Arthur H. Clark Company.",
        "Jackson, W. Turrentine. 1952. Wagon Roads West: A Study of the Federal Road Surveys and Construction in the Trans-Mississippi West, 1846-1869. New Haven, CT: Yale Universitty Press.",
        "Reinhartz, Dennis. Summer 2010. \u201cAlexander von Humboldt:  His Earliest Surviving Map of New Spain.\u201d In IMCoS Journal 108, 13-18.",
        "Reinhartz, Dennis. Winter 2005. \u201cAmbition and Enterprise:  Zebulon Pike\u2019s Maps Relating to the Exploration of the Southern Louisiana Purchase.\u201d In  IMCoS Journal 103, 25-37.",
        "Reinhartz, Dennis. 2006. \u201cThe Arid Lands of the Greater Southwest on the Maps of Zebulon Pike and Stephen Long.\u201d In Forum of the Association of Arid Lands Studies XXII,12-18.",
        "Reinhartz, Dennis, and Charles C. Colley, eds. 1987. The Mapping of the American Southwest. College Station, TX: Texas A&M University Press.",
        "Reinhartz, Dennis, and Gerald D. Saxon, eds. 2005. Mapping of Empire:  Soldier Engineers on the Southwest Frontier. Austin: University of Texas Press.",
        "Ristow, Walter W. 1985. American Maps and Mapmakers: Commercial Cartography in theNineteenth Century. Detroit: Wayne State University Press.",
        "Warner, Ted J., ed. 1995. The Dominguez-Escalante Journal: Their Expedition through Colorado, Utah, Arizona, and New Mexico in 1776.  Salt Lake City: University of Utah Press.",
        "Woodward, David. 1977. The All-American Map: Wax Engraving and Its Influence on Cartography. Chicago: University of Chicago Press."
    ],
    "fr": [
        [
            "There are several different kinds of resources are available to the reader with an interest in pursuing this topic further, including some excellent introductions to thinking creatively and critically about what maps are and what they do, and for considering maps as historical evidence. Among the former are Rudolph Arnheim\u2019s essay \u201cThe Perception of Maps,\u201d American Cartographer 3:1 (1976), 5-10; Michael and Susan Southworth\u2019s Maps: A Visual Survey and Design Guide, (Boston, 1982); Edward R. Tufte\u2019s The Visual Display of Quantitative Information (Cheshire, CT, 1983); and the many thought-provoking essays compiled in Harley, J.B. The New Nature of Maps: Essays in the History of Cartography (Baltimore, 2001).",
            "On considering maps as historical evidence, several texts are recommended to begin with, including Janet Alleman-Brooks, Ambrose A. Clegg, Jr., and Albert P. Seboldt\u2019s \u201cMaking the Past Come Alive,\u201d Social Studies 68 (January-February 1977), 3-26; Edward C. Martin and Martin W. Sandler\u2019s \u201cRejuvenating the Teaching of United States History,\u201d Social History 7 (1971), 730-743; Edmond T. Parker and Michael P. Conzen\u2019s Using Maps as Evidence: Lessons in American Social and Economic History (Bethesda, MD, 1975); Judy and Dennis Reinhartz\u2019s Geography Across the School Curriculum (Washington, DC, 1990); and the essays in two edited collections: David Buisseret, ed., From Sea Charts to Satellite Images: Interpreting North American History through Maps (Chicago, 1990); and Dennis Reinhartz and Stephen E. Maizlish, eds., Essays on Walter Prescott Webb and the Teaching of History (College Station, 1985).",
            "Visual resources offer many more examples of maps of the sorts discussed in this essay, or, in some cases, engage the reader or viewer in a virtual re-visualization of some of these Western roads and trails. Printed works include: Center for Texas Studies at Texas Christian University\u2019s Going to Texas: Five Centuries of Texas Maps (Fort Worth, 2007); Peter L. Eidenbach\u2019s An Atlas of Historic New Mexico Maps, 1550-1941 (Albuquerque, 2012); James C. Martin and Robert Sidney Martin\u2019s Maps of Texas and the Southwest, 1513-1900 (Austin, 1999 [1984]), and Seymour I. Schwartz and Ralph E. Ehrenberg\u2019s The Mapping of America. New York: Harry N. Abrams, Inc., 1980. Online exploration of aspects of different Western trails is possible on the following sites: The California Trail: http://www.emigranttrailswest.org/virtualtour/california-trail; The Oregon Trail: http://oregontrail101.com; Santa Fe Trail Research http://www.santafetrailresearch.com; and Western Emigrant Trails: http://www.westernemigranttrails.com."
        ]
    ]
}