[
    {
        "cortexId": "NL1112ZP",
        "cortexUrl": "https://collections.newberry.org/asset-management/2KXJ8ZBR9EZO",
        "cortexParentId": "NL1Z7VR",
        "iiifId": "https://collections.newberry.org/IIIF3/Presentation/Canvas/2KXJ8ZBR9EZO",
        "title": "Elvira Sheridan Badger papers [box 01], 1859-ca. 1930",
        "querystring": "MM01-0006-05.tif",
        "truncPath": "american-railroad-maps-1828-1876-12",
        "filename": "main_american_railroad_maps_1828_1876_12.json"
    },
    {
        "cortexId": "NL1V5ER",
        "cortexUrl": "https://collections.newberry.org/asset-management/2KXJ8ZW38M9N",
        "cortexParentId": "NL1V5CW",
        "iiifId": "https://collections.newberry.org/IIIF3/Presentation/Canvas/2KXJ8ZW38M9N",
        "title": "Profiles of the New York State canals and feeders : showing the elevations of the same above tide water and the junction of the lateral canals with...",
        "querystring": "MM12-0118-01_Final.tif",
        "truncPath": "1862-canal-profiles-new-york",
        "filename": "1862_canal_profiles_new_york.json"
    },
    {
        "cortexId": "NL1UO5M",
        "cortexUrl": "https://collections.newberry.org/asset-management/2KXJ8ZWQEZBI",
        "cortexParentId": "NL1UMRC",
        "iiifId": "https://collections.newberry.org/IIIF3/Presentation/Canvas/2KXJ8ZWQEZBI",
        "title": "Cleveland Harbor including lower Cuyahoga River",
        "querystring": "MM13-0127-01_Final.tif",
        "truncPath": "1936-us-lake-survey-11",
        "filename": "1936_us_lake_survey_11.json"
    },
    {
        "cortexId": "NL1UO4O",
        "cortexUrl": "https://collections.newberry.org/asset-management/2KXJ8ZWQWNJ9",
        "cortexParentId": "NL1UMRC",
        "iiifId": "https://collections.newberry.org/IIIF3/Presentation/Canvas/2KXJ8ZWQWNJ9",
        "title": "Map showing the navigable depths of the rivers of the United States and the principal transportation routes on the sea-coasts and Great Lakes in the...",
        "querystring": "MM13-0124-01_Final.tif",
        "truncPath": "1894-water-transportation-routes-us-2",
        "filename": "1894_water_transportation_routes_us_2.json"
    },
    {
        "cortexId": "NL1UO2V",
        "cortexUrl": "https://collections.newberry.org/asset-management/2KXJ8ZWQNUL5",
        "cortexParentId": "NL1UMRC",
        "iiifId": "https://collections.newberry.org/IIIF3/Presentation/Canvas/2KXJ8ZWQNUL5",
        "title": "Nationalities map no. 1-4, Polk St. to Twelfth,...Chicago",
        "querystring": "MM14-0135_map_6f_g4014_c6_e2_1895_g7_wc.tif",
        "truncPath": "1895-nationalities-chicago-11",
        "filename": "1895_nationalities_chicago_11.json"
    },
    {
        "cortexId": "NL1UO1F",
        "cortexUrl": "https://collections.newberry.org/asset-management/2KXJ8ZWQP5K8",
        "cortexParentId": "NL1UMRC",
        "iiifId": "https://collections.newberry.org/IIIF3/Presentation/Canvas/2KXJ8ZWQP5K8",
        "title": "Profiles of the New York State canals and feeders : showing the elevations of the same above tide water and the junction of the lateral canals with...",
        "querystring": "MM12-0118-01_Final.tif",
        "truncPath": "1862-canal-profiles-new-york",
        "filename": "1862_canal_profiles_new_york.json"
    },
    {
        "cortexId": "NL1UO09",
        "cortexUrl": "https://collections.newberry.org/asset-management/2KXJ8ZWQTCOU",
        "cortexParentId": "NL1UMRC",
        "iiifId": "https://collections.newberry.org/IIIF3/Presentation/Canvas/2KXJ8ZWQTCOU",
        "title": "Sheet 1. A longitudinal section of the valley of the Mississippi River, from the junction of the Minnesota to the junction of the Ohio River : as...",
        "querystring": "MM12-0119-01_Final.tif",
        "truncPath": "1878-longitudinal-sections-15",
        "filename": "1878_longitudinal_sections_15.json"
    },
    {
        "cortexId": "NL1UNZW",
        "cortexUrl": "https://collections.newberry.org/asset-management/2KXJ8ZWQT8EP",
        "cortexParentId": "NL1UMRC",
        "iiifId": "https://collections.newberry.org/IIIF3/Presentation/Canvas/2KXJ8ZWQT8EP",
        "title": "An accurate map of North and South Carolina with their Indian frontiers shewing in a distinct manner all the mountains, rivers, swamps, marshes, bays,...",
        "querystring": "MM09-0086-01_Final.tif",
        "truncPath": "1775-carolinas-11",
        "filename": "1775_carolinas_11.json"
    },
    {
        "cortexId": "NL1UNZ7",
        "cortexUrl": "https://collections.newberry.org/asset-management/2KXJ8ZWQSBL1",
        "cortexParentId": "NL1UMRC",
        "iiifId": "https://collections.newberry.org/IIIF3/Presentation/Canvas/2KXJ8ZWQSBL1",
        "title": "General map of the middle British colonies, in America viz Virginia, Maryland, Delaware, Pensilvania, New-Jersey, New-York, Connecticut, and Rhode...",
        "querystring": "MM09-00084-01_final.tif",
        "truncPath": "1755-british-colonies-7",
        "filename": "1755_british_colonies_7.json"
    },
    {
        "cortexId": "NL1UNYR",
        "cortexUrl": "https://collections.newberry.org/asset-management/2KXJ8ZWQS0KR",
        "cortexParentId": "NL1UMRC",
        "iiifId": "https://collections.newberry.org/IIIF3/Presentation/Canvas/2KXJ8ZWQS0KR",
        "title": "Geological section from the Mississippi River to the Pacific Ocean along the route explored by Lieut. A.W. Whipple, Corp. of Topl. Engrs. near the...",
        "querystring": "MM01-0006-05.tif",
        "truncPath": "american-railroad-maps-1828-1876-12",
        "filename": "main_american_railroad_maps_1828_1876_12.json"
    },
    {
        "cortexId": "NL1UNYN",
        "cortexUrl": "https://collections.newberry.org/asset-management/2KXJ8ZWQSX0P",
        "cortexParentId": "NL1UMRC",
        "iiifId": "https://collections.newberry.org/IIIF3/Presentation/Canvas/2KXJ8ZWQSX0P",
        "title": "Virginia",
        "querystring": "MM08-0073-01_Final.tif",
        "truncPath": "1612-virginia-3",
        "filename": "1612_virginia_3.json"
    },
    {
        "cortexId": "NL1UNFG",
        "cortexUrl": "https://collections.newberry.org/asset-management/2KXJ8ZWQ9GTX",
        "cortexParentId": "NL1UMRC",
        "iiifId": "https://collections.newberry.org/IIIF3/Presentation/Canvas/2KXJ8ZWQ9GTX",
        "title": "The gold and coal fields of Alaska together with the principal steamer routes and trails",
        "querystring": "997505618805867_MM07-0070_map_4c_g4371_h1_1898_u5.tif",
        "truncPath": "1898-gold-and-coal-fields-12",
        "filename": "1898_gold_and_coal_fields_12.json"
    },
    {
        "cortexId": "NL1UNEW",
        "cortexUrl": "https://collections.newberry.org/asset-management/2KXJ8ZWQ90VR",
        "cortexParentId": "NL1UMRC",
        "iiifId": "https://collections.newberry.org/IIIF3/Presentation/Canvas/2KXJ8ZWQ90VR",
        "title": "Railroad lands in central and southwestern Kansas on eleven years' credit : the government grant of 3,000,000 acres to the Atchison, Topeka and Santa...",
        "querystring": "991847378805867_MM01-0010_map_4f_g4201_p3_1873_a7_001.tif",
        "truncPath": "1873-atsf-kansas-23",
        "filename": "1873_atsf_kansas_23.json"
    },
    {
        "cortexId": "NL1UNEJ",
        "cortexUrl": "https://collections.newberry.org/asset-management/2KXJ8ZWQ7FVB",
        "cortexParentId": "NL1UNF3",
        "iiifId": "https://collections.newberry.org/IIIF3/Presentation/Canvas/2KXJ8ZWQ7FVB",
        "title": "This represents the Charecke Nation by Col. Herberts map & my own observations with the path to Charles Town, its course & (distance measured by my...",
        "querystring": "994894278805867_MM09-0083_Ayer_map4F_G3860_1730_H8_1917_002.tif",
        "truncPath": "moving-pictures-3",
        "filename": "main_moving_pictures_3.json"
    },
    {
        "cortexId": "NL1UNE8",
        "cortexUrl": "https://collections.newberry.org/asset-management/2KXJ8ZWQ7A39",
        "cortexParentId": "NL1UMRC",
        "iiifId": "https://collections.newberry.org/IIIF3/Presentation/Canvas/2KXJ8ZWQ7A39",
        "title": "Topographical map of the road from Missouri to Oregon, commencing at the mouth of the Kansas in the Missouri River and ending at the mouth of the...",
        "querystring": "991570248805867_MM05-0044_Graff_3360_002.tif",
        "truncPath": "state-and-federal-4",
        "filename": "main_state_and_federal_4.json"
    },
    {
        "cortexId": "NL1UN4F",
        "cortexUrl": "https://collections.newberry.org/asset-management/2KXJ8ZWQ7Y6W",
        "cortexParentId": "NL1UNE8",
        "iiifId": "https://collections.newberry.org/IIIF3/Presentation/Canvas/2KXJ8ZWQ7Y6W",
        "title": "Topographical map of the road from Missouri to Oregon, commencing at the mouth of the Kansas in the Missouri River and ending at the mouth of the...",
        "querystring": "991570248805867_MM05-0044_Graff_3360_007.tif",
        "truncPath": "state-and-federal-9",
        "filename": "main_state_and_federal_9.json"
    },
    {
        "cortexId": "NL1UN4C",
        "cortexUrl": "https://collections.newberry.org/asset-management/2KXJ8ZWQ79PQ",
        "cortexParentId": "NL1UMRC",
        "iiifId": "https://collections.newberry.org/IIIF3/Presentation/Canvas/2KXJ8ZWQ79PQ",
        "title": "Map of the Southern Indian District of North America",
        "querystring": "991462688805867_MM20-0191_vault_ayer_map_ms_map_228_sheet_05.tif",
        "truncPath": "1775-southern-indian-district-of-north-america-0",
        "filename": "1775_southern_indian_district_of_north_america_0.json"
    },
    {
        "cortexId": "NL1UN4B",
        "cortexUrl": "https://collections.newberry.org/asset-management/2KXJ8ZWQVZ7I",
        "cortexParentId": "NL1UMRC",
        "iiifId": "https://collections.newberry.org/IIIF3/Presentation/Canvas/2KXJ8ZWQVZ7I",
        "title": "Carte de la coste de la Louisiane, depuis la Baye de St. Bernard jusqu'a celle de Saint Joseph ou tous les ports, rades, et bons mouillages sont...",
        "querystring": "991759858805867_MM19-0189_Ayer_MS_map_30_sheet_78.tif",
        "truncPath": "1726-louisiana-mexico-0",
        "filename": "1726_louisiana_mexico_0.json"
    },
    {
        "cortexId": "NL1UN43",
        "cortexUrl": "https://collections.newberry.org/asset-management/2KXJ8ZWQVLPI",
        "cortexParentId": "NL1UNE8",
        "iiifId": "https://collections.newberry.org/IIIF3/Presentation/Canvas/2KXJ8ZWQVLPI",
        "title": "Topographical map of the road from Missouri to Oregon, commencing at the mouth of the Kansas in the Missouri River and ending at the mouth of the...",
        "querystring": "991570248805867_MM05-0044_Graff_3360_006.tif",
        "truncPath": "state-and-federal-8",
        "filename": "main_state_and_federal_8.json"
    },
    {
        "cortexId": "NL1UN3W",
        "cortexUrl": "https://collections.newberry.org/asset-management/2KXJ8ZWQVF2B",
        "cortexParentId": "NL1UNEO",
        "iiifId": "https://collections.newberry.org/IIIF3/Presentation/Canvas/2KXJ8ZWQVF2B",
        "title": "Mappa geral da Republica dos Estados Unidos do Brasil : publicado por occasiaÌƒo da ExposicÌ§Ì§aÌƒo Nacional de 1908 por ordem do Exmo. Snr. Ministro da...",
        "querystring": "994086038805867_MM19-0185_g_1099_1_details_06.tif",
        "truncPath": "around-over-through-7",
        "filename": "main_around_over_through_7.json"
    },
    {
        "cortexId": "NL1UMX4",
        "cortexUrl": "https://collections.newberry.org/asset-management/2KXJ8ZWQJI68",
        "cortexParentId": "NL1UMRC",
        "iiifId": "https://collections.newberry.org/IIIF3/Presentation/Canvas/2KXJ8ZWQJI68",
        "title": "Washington, D.C. metropolitan area road map",
        "querystring": "999422378805867_MM15-0150_rmn_clients_3745_01.tif",
        "truncPath": "1955-road-map-southwestern-4-1",
        "filename": "1955_road_map_southwestern_4_1.json"
    },
    {
        "cortexId": "NL1UMWL",
        "cortexUrl": "https://collections.newberry.org/asset-management/2KXJ8ZWQ5KD5",
        "cortexParentId": "NL1UMRC",
        "iiifId": "https://collections.newberry.org/IIIF3/Presentation/Canvas/2KXJ8ZWQ5KD5",
        "title": "Lloyd's map of the lower Mississippi River from St. Louis to the Gulf of Mexico",
        "querystring": "998782318805867_MM15-0147_map_8f_g4042_m5_1862_l55.tif",
        "truncPath": "1862-mississippi-2",
        "filename": "1862_mississippi_2.json"
    },
    {
        "cortexId": "NL1UMWC",
        "cortexUrl": "https://collections.newberry.org/asset-management/2KXJ8ZWQ5S64",
        "cortexParentId": "NL1UMRC",
        "iiifId": "https://collections.newberry.org/IIIF3/Presentation/Canvas/2KXJ8ZWQ5S64",
        "title": "Independent telephone toll lines in New York, New Jersey, Pennsylvania : showing connections with Vermont, Delaware, Maryland, West Virginia, Ohio and...",
        "querystring": "998854198805867_MM25-0247_h_681_803_map.tif",
        "truncPath": "1905-independent-telephone-5",
        "filename": "1905_independent_telephone_5.json"
    },
    {
        "cortexId": "NL1UMVS",
        "cortexUrl": "https://collections.newberry.org/asset-management/2KXJ8ZWQKF_4",
        "cortexParentId": "NL1UMRC",
        "iiifId": "https://collections.newberry.org/IIIF3/Presentation/Canvas/2KXJ8ZWQKF_4",
        "title": "Übersichtskarte der wahrscheinlichen Route von Sir J. Franklin's Expedition vom J. 1845 bis 1848",
        "querystring": "998776328805867_MM18-0177_g_007_67_",
        "truncPath": "navigating-the-coasts-and-seas-6-1",
        "filename": "main_navigating_the_coasts_and_seas_6_1.json"
    },
    {
        "cortexId": "NL1UMVP",
        "cortexUrl": "https://collections.newberry.org/asset-management/2KXJ8ZWQKY_I",
        "cortexParentId": "NL1UMRC",
        "iiifId": "https://collections.newberry.org/IIIF3/Presentation/Canvas/2KXJ8ZWQKY_I",
        "title": "Karte vom amerikanischen Polynesien &c.",
        "querystring": "v1859_00.tif",
        "truncPath": "1859-frontiers-of-ocean-5-2",
        "filename": "1859_frontiers_of_ocean_5_2.json"
    },
    {
        "cortexId": "NL1UMVD",
        "cortexUrl": "https://collections.newberry.org/asset-management/2KXJ8ZWQKP_2",
        "cortexParentId": "NL1UMRC",
        "iiifId": "https://collections.newberry.org/IIIF3/Presentation/Canvas/2KXJ8ZWQKP_2",
        "title": "Karte der Vereinigten Staaten von Nord-America : Neu Braunschweigs, der beiden Canadas und Texas",
        "querystring": "998758218805867_MM14-0132_graff_409_01.tif",
        "truncPath": "1846-german-immigration-1",
        "filename": "1846_german_immigration_1.json"
    },
    {
        "cortexId": "NL1UMV4",
        "cortexUrl": "https://collections.newberry.org/asset-management/2KXJ8ZWQKA_7",
        "cortexParentId": "NL1UMRC",
        "iiifId": "https://collections.newberry.org/IIIF3/Presentation/Canvas/2KXJ8ZWQKA_7",
        "title": "Composite illustration of United States views and railroad map segments",
        "querystring": "998732578805867_MM15-0148_G_835_139.tif",
        "truncPath": "1884-zigzag-9",
        "filename": "1884_zigzag_9.json"
    },
    {
        "cortexId": "NL1UMUZ",
        "cortexUrl": "https://collections.newberry.org/asset-management/2KXJ8ZWQK9_P",
        "cortexParentId": "NL1UMRC",
        "iiifId": "https://collections.newberry.org/IIIF3/Presentation/Canvas/2KXJ8ZWQK9_P",
        "title": "Lock canal project map showing line of proposed lock canal with summit elevation at 85 feet",
        "querystring": "998559858805867_MM05-0047_map_8f_g4872_p3_1905_c3_pl_8.tif",
        "truncPath": "1905-panama-canal-15",
        "filename": "1905_panama_canal_15.json"
    },
    {
        "cortexId": "NL1UMV1",
        "cortexUrl": "https://collections.newberry.org/asset-management/2KXJ8ZWQK3_4",
        "cortexParentId": "NL1UMRC",
        "iiifId": "https://collections.newberry.org/IIIF3/Presentation/Canvas/2KXJ8ZWQK3_4",
        "title": "Fernanda, Hyspana, Ysabella, Saluatorie, Conceptons Marie",
        "querystring": "998731658805867_MM15-0141_Ayer_107_56_1493_1494_02.tif",
        "truncPath": "maps-movement-lit-1",
        "filename": "main_maps_movement_lit_1.json"
    },
    {
        "cortexId": "NL1UMV0",
        "cortexUrl": "https://collections.newberry.org/asset-management/2KXJ8ZWQKM_B",
        "cortexParentId": "NL1UMRC",
        "iiifId": "https://collections.newberry.org/IIIF3/Presentation/Canvas/2KXJ8ZWQKM_B",
        "title": "Globe showing section of the earth's interior",
        "querystring": "998732568805867_MM15-0149_Fitzgerald_QE_509_R44_1906_pg_27.tif",
        "truncPath": "1906-hollow-earth-6",
        "filename": "1906_hollow_earth_6.json"
    },
    {
        "cortexId": "NL1UMUY",
        "cortexUrl": "https://collections.newberry.org/asset-management/2KXJ8ZWQKD_1",
        "cortexParentId": "NL1UMRC",
        "iiifId": "https://collections.newberry.org/IIIF3/Presentation/Canvas/2KXJ8ZWQKD_1",
        "title": "Nautical chart of the Illinois Waterway and Illinois River at Peoria mile 161.9 to mile 164.1",
        "querystring": "998716058805867_MM13-0128_map6c_g4102_i51_1970_u5_01.tif",
        "truncPath": "1970-nautical-charts-illinois-17",
        "filename": "1970_nautical_charts_illinois_17.json"
    },
    {
        "cortexId": "NL1UMUT",
        "cortexUrl": "https://collections.newberry.org/asset-management/2KXJ8ZWP5VZ4",
        "cortexParentId": "NL1UMRC",
        "iiifId": "https://collections.newberry.org/IIIF3/Presentation/Canvas/2KXJ8ZWP5VZ4",
        "title": "Insula Hyspana",
        "querystring": "998731588805867_MM15-0141_Ayer_107_56_1493_1494_01.tif",
        "truncPath": "1494-christopher-columbus-0",
        "filename": "1494_christopher_columbus_0.json"
    },
    {
        "cortexId": "NL1UMUP",
        "cortexUrl": "https://collections.newberry.org/asset-management/2KXJ8ZWP5R75",
        "cortexParentId": "NL1UMRC",
        "iiifId": "https://collections.newberry.org/IIIF3/Presentation/Canvas/2KXJ8ZWP5R75",
        "title": "Route of the United States air mail Buenos Aires-Chicago with Junius B. Wood of the Chicago daily news",
        "querystring": "998723638805867_MM19-0186_H_65083_98_pg_22_23.tif",
        "truncPath": "around-over-through-11",
        "filename": "main_around_over_through_11.json"
    },
    {
        "cortexId": "NL1UMUN",
        "cortexUrl": "https://collections.newberry.org/asset-management/2KXJ8ZWP5T6R",
        "cortexParentId": "NL1UMUJ",
        "iiifId": "https://collections.newberry.org/IIIF3/Presentation/Canvas/2KXJ8ZWP5T6R",
        "title": "Falls of Ohio",
        "querystring": "998713838805867_MM12-0112_case_g_875_191_02.tif",
        "truncPath": "waterways-cartography-part-1-3",
        "filename": "main_waterways_cartography_part_1_3.json"
    },
    {
        "cortexId": "NL1UMUI",
        "cortexUrl": "https://collections.newberry.org/asset-management/2KXJ8ZWP5W4O",
        "cortexParentId": "NL1UMRC",
        "iiifId": "https://collections.newberry.org/IIIF3/Presentation/Canvas/2KXJ8ZWP5W4O",
        "title": "Freight rates charged for the transportation of articles classed as first class in the western classification via all rail and via river from...",
        "querystring": "5250_vol_17_map_09.tif",
        "truncPath": "waterways-cartography-part-2-6-2",
        "filename": "main_waterways_cartography_part_2_6_2.json"
    },
    {
        "cortexId": "NL1UMUB",
        "cortexUrl": "https://collections.newberry.org/asset-management/2KXJ8ZWP5GCR",
        "cortexParentId": "NL1UMRC",
        "iiifId": "https://collections.newberry.org/IIIF3/Presentation/Canvas/2KXJ8ZWP5GCR",
        "title": "Map of Ohio canals",
        "querystring": "998715618805867_MM13-0123_F_892_653_vol_13.tif",
        "truncPath": "1904-canals-ohio-4",
        "filename": "1904_canals_ohio_4.json"
    },
    {
        "cortexId": "NL1UMU5",
        "cortexUrl": "https://collections.newberry.org/asset-management/2KXJ8ZWP5FG7",
        "cortexParentId": "NL1UMUA",
        "iiifId": "https://collections.newberry.org/IIIF3/Presentation/Canvas/2KXJ8ZWP5FG7",
        "title": "Map of the Hudson River",
        "querystring": "998713858805867_MM12-0115_baskes_e_158_p91_1848_04.tif",
        "truncPath": "waterways-cartography-part-1-10",
        "filename": "main_waterways_cartography_part_1_10.json"
    },
    {
        "cortexId": "NL1UMTR",
        "cortexUrl": "https://collections.newberry.org/asset-management/2KXJ8ZWP4CSI",
        "cortexParentId": "NL1UMRC",
        "iiifId": "https://collections.newberry.org/IIIF3/Presentation/Canvas/2KXJ8ZWP4CSI",
        "title": "Map of military road from Fort Walla Walla on the Columbia to Fort Benton on the Missouri",
        "querystring": "998653688805867_MM07-0067_map_8f_graff_2932_map_1.tif",
        "truncPath": "1863-military-road-from-fort-walla-8",
        "filename": "1863_military_road_from_fort_walla_8.json"
    },
    {
        "cortexId": "NL1UMTP",
        "cortexUrl": "https://collections.newberry.org/asset-management/2KXJ8ZWP4QBK",
        "cortexParentId": "NL1UMRC",
        "iiifId": "https://collections.newberry.org/IIIF3/Presentation/Canvas/2KXJ8ZWP4QBK",
        "title": "Map of the East River waterfront from Grand Street to Thirty-fourth Street in New York City",
        "querystring": "998645668805867_MM06-0051_H_67_622_map",
        "truncPath": "planning-transportation-1-1",
        "filename": "main_planning_transportation_1_1.json"
    },
    {
        "cortexId": "NL1UMTK",
        "cortexUrl": "https://collections.newberry.org/asset-management/2KXJ8ZWP4RD5",
        "cortexParentId": "NL1UMRC",
        "iiifId": "https://collections.newberry.org/IIIF3/Presentation/Canvas/2KXJ8ZWP4RD5",
        "title": "Rand McNally & Co.'s road map of the country around New York including parts of northern and central New Jersey, Westchester County, Long Island,...",
        "querystring": "998643918805867_MM06-0053_map_6f_g3804_n4a1_1895_r3_001.tif",
        "truncPath": "1895-road-map-ny-3",
        "filename": "1895_road_map_ny_3.json"
    },
    {
        "cortexId": "NL1UMTB",
        "cortexUrl": "https://collections.newberry.org/asset-management/2KXJ8ZWP4EMX",
        "cortexParentId": "NL1UMRC",
        "iiifId": "https://collections.newberry.org/IIIF3/Presentation/Canvas/2KXJ8ZWP4EMX",
        "title": "Chicago Terminal Transfer Railroad Co. map showing property of railroads in the business center of Chicago",
        "querystring": "998645678805867_MM06-0054_map_4f_g4014_c6_2l5_1898_b7.tif",
        "truncPath": "1898-property-chicago-6",
        "filename": "1898_property_chicago_6.json"
    },
    {
        "cortexId": "NL1UMT9",
        "cortexUrl": "https://collections.newberry.org/asset-management/2KXJ8ZWP4488",
        "cortexParentId": "NL1UMRC",
        "iiifId": "https://collections.newberry.org/IIIF3/Presentation/Canvas/2KXJ8ZWP4488",
        "title": "Preliminary New England regional plan indicating progress of planning in New England : June 30, 1937",
        "querystring": "998643938805867_MM06-0056_temp_map_4f_g3721_g45_1937_n4.tif",
        "truncPath": "1937-new-england-regional-8",
        "filename": "1937_new_england_regional_8.json"
    },
    {
        "cortexId": "NL1UMT6",
        "cortexUrl": "https://collections.newberry.org/asset-management/2KXJ8ZWP4591",
        "cortexParentId": "NL1UMRC",
        "iiifId": "https://collections.newberry.org/IIIF3/Presentation/Canvas/2KXJ8ZWP4591",
        "title": "AAF cloth chart Keijō",
        "querystring": "998561588805867_MM05-0048_map_4c_g7800_svar_u5_no_2_002.tif",
        "truncPath": "state-and-federal-17",
        "filename": "main_state_and_federal_17.json"
    },
    {
        "cortexId": "NL1UMT5",
        "cortexUrl": "https://collections.newberry.org/asset-management/2KXJ8ZWP4SLB",
        "cortexParentId": "NL1UMRC",
        "iiifId": "https://collections.newberry.org/IIIF3/Presentation/Canvas/2KXJ8ZWP4SLB",
        "title": "Mass transit program, New York City",
        "querystring": "998645658805867_MM06-0060_ht_168_n5_a5_1969_002.tif",
        "truncPath": "planning-transportation-19",
        "filename": "main_planning_transportation_19.json"
    },
    {
        "cortexId": "NL1UMT0",
        "cortexUrl": "https://collections.newberry.org/asset-management/2KXJ8ZWP4MT9",
        "cortexParentId": "NL1UMTP",
        "iiifId": "https://collections.newberry.org/IIIF3/Presentation/Canvas/2KXJ8ZWP4MT9",
        "title": "Map of the East River waterfront from Grand Street to Thirty-fourth Street in New York City",
        "querystring": "998645668805867_MM06-0051_H_67_622_map",
        "truncPath": "planning-transportation-1-1",
        "filename": "main_planning_transportation_1_1.json"
    },
    {
        "cortexId": "NL1UMRR",
        "cortexUrl": "https://collections.newberry.org/asset-management/2KXJ8ZWPHWFO",
        "cortexParentId": "NL1UMRC",
        "iiifId": "https://collections.newberry.org/IIIF3/Presentation/Canvas/2KXJ8ZWPHWFO",
        "title": "General map of the Pennsylvania Railroad and its connections",
        "querystring": "998367918805867_MM01-0009_map_4f_g3701_p3_1876_r3_001.tif",
        "truncPath": "1876-penn-rr-25",
        "filename": "1876_penn_rr_25.json"
    },
    {
        "cortexId": "NL1UMRF",
        "cortexUrl": "https://collections.newberry.org/asset-management/2KXJ8ZWPHPHP",
        "cortexParentId": "NL1UMRC",
        "iiifId": "https://collections.newberry.org/IIIF3/Presentation/Canvas/2KXJ8ZWPHPHP",
        "title": "Cairo City",
        "querystring": "998365428805867_MM01-0004_graff_2081_002.tif",
        "truncPath": "american-railroad-maps-1828-1876-14",
        "filename": "main_american_railroad_maps_1828_1876_14.json"
    },
    {
        "cortexId": "NL1UMRD",
        "cortexUrl": "https://collections.newberry.org/asset-management/2KXJ8ZWPHTBR",
        "cortexParentId": "NL1UMRC",
        "iiifId": "https://collections.newberry.org/IIIF3/Presentation/Canvas/2KXJ8ZWPHTBR",
        "title": "Dunleith",
        "querystring": "998365418805867_MM01-0004_graff_2081_003.tif",
        "truncPath": "american-railroad-maps-1828-1876-15",
        "filename": "main_american_railroad_maps_1828_1876_15.json"
    },
    {
        "cortexId": "NL1UL3R",
        "cortexUrl": "https://collections.newberry.org/asset-management/2KXJ8ZWPGJ4B",
        "cortexParentId": "NL1NMU0",
        "iiifId": "https://collections.newberry.org/IIIF3/Presentation/Canvas/2KXJ8ZWPGJ4B",
        "title": "Southern Railway system : Southern Railway, Cincinnati, New Orleans & Texas Pacific Railway, Alabama Great Southern Railroad, New Orleans &...",
        "querystring": "999421528805867_MM03-0027_rmcn_atlas_a73_1925_007.tif",
        "truncPath": "american-railroad-maps-1873-2012-9",
        "filename": "main_american_railroad_maps_1873_2012_9.json"
    },
    {
        "cortexId": "NL1UL3Q",
        "cortexUrl": "https://collections.newberry.org/asset-management/2KXJ8ZWPK82Q",
        "cortexParentId": "NL1UL3R",
        "iiifId": "https://collections.newberry.org/IIIF3/Presentation/Canvas/2KXJ8ZWPK82Q",
        "title": "Southern Railway system : Southern Railway, Cincinnati, New Orleans & Texas Pacific Railway, Alabama Great Southern Railroad, New Orleans &...",
        "querystring": "999421528805867_MM03-0027_rmcn_atlas_a73_1925_006.tif",
        "truncPath": "american-railroad-maps-1873-2012-8",
        "filename": "main_american_railroad_maps_1873_2012_8.json"
    },
    {
        "cortexId": "NL1UL3P",
        "cortexUrl": "https://collections.newberry.org/asset-management/2KXJ8ZWPK7UP",
        "cortexParentId": "NL1NMU0",
        "iiifId": "https://collections.newberry.org/IIIF3/Presentation/Canvas/2KXJ8ZWPK7UP",
        "title": "Freight routes and junction points in southern territory",
        "querystring": "999421508805867_MM03-0027_rmcn_atlas_a73_1925_003.tif",
        "truncPath": "american-railroad-maps-1873-2012-5",
        "filename": "main_american_railroad_maps_1873_2012_5.json"
    },
    {
        "cortexId": "NL1UL3C",
        "cortexUrl": "https://collections.newberry.org/asset-management/2KXJ8ZWPKIX1",
        "cortexParentId": "NL1NMU0",
        "iiifId": "https://collections.newberry.org/IIIF3/Presentation/Canvas/2KXJ8ZWPKIX1",
        "title": "Condensed schedules of through trains and equipment of the Chicago, Milwaukee, and St. Paul Railway : west and northbound",
        "querystring": "999421458805867_MM03-0026_he_1805_c55_1920_002.tif",
        "truncPath": "american-railroad-maps-1873-2012-15",
        "filename": "main_american_railroad_maps_1873_2012_15.json"
    },
    {
        "cortexId": "NL1UL3B",
        "cortexUrl": "https://collections.newberry.org/asset-management/2KXJ8ZWPKJCB",
        "cortexParentId": "NL1UL3A",
        "iiifId": "https://collections.newberry.org/IIIF3/Presentation/Canvas/2KXJ8ZWPKJCB",
        "title": "Railroad valuation map, Itasca, Illinois, 1919",
        "querystring": "999476408805867_MM03-0030_map_2f_g4104_i8p3_1913_u55_002.tif",
        "truncPath": "1919-railroad-valuation-map-itasca-21",
        "filename": "1919_railroad_valuation_map_itasca_21.json"
    },
    {
        "cortexId": "NL1UL3A",
        "cortexUrl": "https://collections.newberry.org/asset-management/2KXJ8ZWPKRB5",
        "cortexParentId": "NL1NMU0",
        "iiifId": "https://collections.newberry.org/IIIF3/Presentation/Canvas/2KXJ8ZWPKRB5",
        "title": "Railroad valuation map, Itasca, Illinois, 1919",
        "querystring": "999476408805867_MM03-0030_map_2f_g4104_i8p3_1913_u55_001.tif",
        "truncPath": "american-railroad-maps-1873-2012-22",
        "filename": "main_american_railroad_maps_1873_2012_22.json"
    },
    {
        "cortexId": "NL1UL38",
        "cortexUrl": "https://collections.newberry.org/asset-management/2KXJ8ZWPK2P8",
        "cortexParentId": "NL1NMU0",
        "iiifId": "https://collections.newberry.org/IIIF3/Presentation/Canvas/2KXJ8ZWPK2P8",
        "title": "Map of part of the Dominion of Canada illustrating the use of the Canadian Pacific Railway in the movement of troops to quell the North-West troubles...",
        "querystring": "998497298805867_MM03-0022_map_4f_g3401_s57_1886_c3_001.tif",
        "truncPath": "1886-canadian-pacific-10",
        "filename": "1886_canadian_pacific_10.json"
    },
    {
        "cortexId": "NL1TQ3E",
        "cortexUrl": "https://collections.newberry.org/asset-management/2KXJ8ZXHUYD3",
        "cortexParentId": "NL1NMU0",
        "iiifId": "https://collections.newberry.org/IIIF3/Presentation/Canvas/2KXJ8ZXHUYD3",
        "title": "Plan of a survey for a rail road made under the direction of the Board of Directors of Internal Improvements",
        "querystring": "998368328805867_MM01-0001_case_h_66844_396_002.tif",
        "truncPath": "american-railroad-maps-1828-1876-1",
        "filename": "main_american_railroad_maps_1828_1876_1.json"
    },
    {
        "cortexId": "NL1TQ3D",
        "cortexUrl": "https://collections.newberry.org/asset-management/2KXJ8ZXHU3RS",
        "cortexParentId": "NL1NMU0",
        "iiifId": "https://collections.newberry.org/IIIF3/Presentation/Canvas/2KXJ8ZXHU3RS",
        "title": "Plan of a survey for a rail road made under the direction of the Board of Directors of Internal Improvements",
        "querystring": "998368328805867_MM01-0001_case_h_66844_396_001.tif",
        "truncPath": "1828-survey-boston-0",
        "filename": "1828_survey_boston_0.json"
    },
    {
        "cortexId": "NL1UO4V",
        "cortexUrl": "https://collections.newberry.org/asset-management/2KXJ8ZWQWMV7",
        "cortexParentId": "NL1UMRC",
        "iiifId": "https://collections.newberry.org/IIIF3/Presentation/Canvas/2KXJ8ZWQWMV7",
        "title": "Map of the western part of the Dominion of Canada shewing various routes to the Yukon Dist., 1898",
        "querystring": "MM13-0122-01_Final.tif",
        "truncPath": "1898-water-routes-yukon-3",
        "filename": "1898_water_routes_yukon_3.json"
    },
    {
        "cortexId": "NL1UO33",
        "cortexUrl": "https://collections.newberry.org/asset-management/2KXJ8ZWQNWJ2",
        "cortexParentId": "NL1UMRC",
        "iiifId": "https://collections.newberry.org/IIIF3/Presentation/Canvas/2KXJ8ZWQNWJ2",
        "title": "Airplane view of the port of Buffalo, N.Y",
        "querystring": "MM13-0126-03_Final.tif",
        "truncPath": "waterways-cartography-part-2-9",
        "filename": "main_waterways_cartography_part_2_9.json"
    },
    {
        "cortexId": "NL1UO2N",
        "cortexUrl": "https://collections.newberry.org/asset-management/2KXJ8ZWQNHX7",
        "cortexParentId": "NL1UMRC",
        "iiifId": "https://collections.newberry.org/IIIF3/Presentation/Canvas/2KXJ8ZWQNHX7",
        "title": "Destination of lake shipments from Buffalo, N.Y., during 1929",
        "querystring": "MM13-0126-02_Final.tif",
        "truncPath": "waterways-cartography-part-2-8",
        "filename": "main_waterways_cartography_part_2_8.json"
    },
    {
        "cortexId": "NL1UNZY",
        "cortexUrl": "https://collections.newberry.org/asset-management/2KXJ8ZWQTXYP",
        "cortexParentId": "NL1UMRC",
        "iiifId": "https://collections.newberry.org/IIIF3/Presentation/Canvas/2KXJ8ZWQTXYP",
        "title": "Map of South Carolina and a part of Georgia containing the whole sea-coast, all the islands, inlets, rivers, creeks, parishes, townships, boroughs,...",
        "querystring": "MM09-0087-01_Final.tif",
        "truncPath": "1757-south-carolina-10",
        "filename": "1757_south_carolina_10.json"
    },
    {
        "cortexId": "NL1UNYU",
        "cortexUrl": "https://collections.newberry.org/asset-management/2KXJ8ZWQS4AD",
        "cortexParentId": "NL1UMRC",
        "iiifId": "https://collections.newberry.org/IIIF3/Presentation/Canvas/2KXJ8ZWQS4AD",
        "title": "Plan of the rapids of Ohio, at low water, showing the islands, rocks, sands, currents, shores, and the route of the canal",
        "querystring": "MM05-0040-01.tif",
        "truncPath": "1808-rapids-ohio-0",
        "filename": "1808_rapids_ohio_0.json"
    },
    {
        "cortexId": "NL1UNYS",
        "cortexUrl": "https://collections.newberry.org/asset-management/2KXJ8ZWQS13K",
        "cortexParentId": "NL1UMRC",
        "iiifId": "https://collections.newberry.org/IIIF3/Presentation/Canvas/2KXJ8ZWQS13K",
        "title": "Map of America between latitudes 40 and 70 north and longitudes 45 and 180 west, exhibiting Mackenzie's track from Montreal to Fort Chipewyan & from...",
        "querystring": "MM08-0080-03_Final.tif",
        "truncPath": "1801-mackenzies-northern-voyages-8",
        "filename": "1801_mackenzies_northern_voyages_8.json"
    },
    {
        "cortexId": "NL1UNYO",
        "cortexUrl": "https://collections.newberry.org/asset-management/2KXJ8ZWQSZXI",
        "cortexParentId": "NL1UMRC",
        "iiifId": "https://collections.newberry.org/IIIF3/Presentation/Canvas/2KXJ8ZWQSZXI",
        "title": "Map of Mackenzie's track from Fort Chipewyan to the Pacific Ocean, in 1793",
        "querystring": "MM08-0080-01_Final.tif",
        "truncPath": "european-maps-for-exploration-9",
        "filename": "main_european_maps_for_exploration_9.json"
    },
    {
        "cortexId": "NL1UNYG",
        "cortexUrl": "https://collections.newberry.org/asset-management/2KXJ8ZWQSQSQ",
        "cortexParentId": "NL1UMRC",
        "iiifId": "https://collections.newberry.org/IIIF3/Presentation/Canvas/2KXJ8ZWQSQSQ",
        "title": "Map of Texas with parts of the adjoining states",
        "querystring": "MM07-0063-01_Final.tif",
        "truncPath": "1830-map-of-texas-with-parts-2",
        "filename": "1830_map_of_texas_with_parts_2.json"
    },
    {
        "cortexId": "NL1UNFI",
        "cortexUrl": "https://collections.newberry.org/asset-management/2KXJ8ZWQ942D",
        "cortexParentId": "NL1UMRC",
        "iiifId": "https://collections.newberry.org/IIIF3/Presentation/Canvas/2KXJ8ZWQ942D",
        "title": "Map of all the railroads in the United States in operation and progress",
        "querystring": "998365368805867_MM01-0007_IC_map6F_G3701_P3_1854_P6_001.tif",
        "truncPath": "1854-rr-us-19",
        "filename": "1854_rr_us_19.json"
    },
    {
        "cortexId": "NL1UNFC",
        "cortexUrl": "https://collections.newberry.org/asset-management/2KXJ8ZWQ9HM7",
        "cortexParentId": "NL1UMRC",
        "iiifId": "https://collections.newberry.org/IIIF3/Presentation/Canvas/2KXJ8ZWQ9HM7",
        "title": "Urbana",
        "querystring": "998365408805867_MM01-0004_graff_2081_005.tif",
        "truncPath": "american-railroad-maps-1828-1876-17",
        "filename": "main_american_railroad_maps_1828_1876_17.json"
    },
    {
        "cortexId": "NL1UNF7",
        "cortexUrl": "https://collections.newberry.org/asset-management/2KXJ8ZWQ9NA9",
        "cortexParentId": "NL1UMRC",
        "iiifId": "https://collections.newberry.org/IIIF3/Presentation/Canvas/2KXJ8ZWQ9NA9",
        "title": "Railroad and township map of the Chicago region",
        "querystring": "998365398805867_MM01-0004_graff_2081_004.tif",
        "truncPath": "american-railroad-maps-1828-1876-16",
        "filename": "main_american_railroad_maps_1828_1876_16.json"
    },
    {
        "cortexId": "NL1UNEH",
        "cortexUrl": "https://collections.newberry.org/asset-management/2KXJ8ZWQ7B21",
        "cortexParentId": "NL1UMRC",
        "iiifId": "https://collections.newberry.org/IIIF3/Presentation/Canvas/2KXJ8ZWQ7B21",
        "title": "Preliminary comprehensive city plan of Chicago a generalized presentation of the physical elements of the city plan designed for a population of...",
        "querystring": "994533958805867_MM06-0057_map_g10896_165_001.tif",
        "truncPath": "1946-preliminary-chicago-9",
        "filename": "1946_preliminary_chicago_9.json"
    },
    {
        "cortexId": "NL1UNEE",
        "cortexUrl": "https://collections.newberry.org/asset-management/2KXJ8ZWQ7Q7Q",
        "cortexParentId": "NL1UMRC",
        "iiifId": "https://collections.newberry.org/IIIF3/Presentation/Canvas/2KXJ8ZWQ7Q7Q",
        "title": "Map of the Oregon Territory",
        "querystring": "MM05-0043_Ayer_119.1_w6_1838.tif",
        "truncPath": "1841-us-expeditionary-oregon-2",
        "filename": "1841_us_expeditionary_oregon_2.json"
    },
    {
        "cortexId": "NL1UN4P",
        "cortexUrl": "https://collections.newberry.org/asset-management/2KXJ8ZWQ7K95",
        "cortexParentId": "NL1UMRC",
        "iiifId": "https://collections.newberry.org/IIIF3/Presentation/Canvas/2KXJ8ZWQ7K95",
        "title": "Map of the military district, Kansas and the territories",
        "querystring": "991410948805867_MM05-0046_case_ms_g4050_1866_d6_003.tif",
        "truncPath": "state-and-federal-14",
        "filename": "main_state_and_federal_14.json"
    },
    {
        "cortexId": "NL1UN4A",
        "cortexUrl": "https://collections.newberry.org/asset-management/2KXJ8ZWQVCDU",
        "cortexParentId": "NL1UMRC",
        "iiifId": "https://collections.newberry.org/IIIF3/Presentation/Canvas/2KXJ8ZWQVCDU",
        "title": "Guide to the Kansas gold mines at Pike's Peak : describing the routes, camping places, tools, outfits, etc.",
        "querystring": "991541658805867_MM07-0065_graff_1693_001.tif",
        "truncPath": "1859-route-from-kansas-city-6",
        "filename": "1859_route_from_kansas_city_6.json"
    },
    {
        "cortexId": "NL1UN45",
        "cortexUrl": "https://collections.newberry.org/asset-management/2KXJ8ZWQV4MD",
        "cortexParentId": "NL1UNEO",
        "iiifId": "https://collections.newberry.org/IIIF3/Presentation/Canvas/2KXJ8ZWQV4MD",
        "title": "Mappa geral da Republica dos Estados Unidos do Brasil : publicado por occasiaÌƒo da ExposicÌ§Ì§aÌƒo Nacional de 1908 por ordem do Exmo. Snr. Ministro da...",
        "querystring": "994086038805867_MM19-0185_g_1099_1_details_07.tif",
        "truncPath": "around-over-through-8",
        "filename": "main_around_over_through_8.json"
    },
    {
        "cortexId": "NL1UN42",
        "cortexUrl": "https://collections.newberry.org/asset-management/2KXJ8ZWQVDZ2",
        "cortexParentId": "NL1UNE8",
        "iiifId": "https://collections.newberry.org/IIIF3/Presentation/Canvas/2KXJ8ZWQVDZ2",
        "title": "Topographical map of the road from Missouri to Oregon, commencing at the mouth of the Kansas in the Missouri River and ending at the mouth of the...",
        "querystring": "991570248805867_MM05-0044_Graff_3360_004.tif",
        "truncPath": "state-and-federal-6",
        "filename": "main_state_and_federal_6.json"
    },
    {
        "cortexId": "NL1UN41",
        "cortexUrl": "https://collections.newberry.org/asset-management/2KXJ8ZWQVBC1",
        "cortexParentId": "NL1UNE8",
        "iiifId": "https://collections.newberry.org/IIIF3/Presentation/Canvas/2KXJ8ZWQVBC1",
        "title": "Topographical map of the road from Missouri to Oregon, commencing at the mouth of the Kansas in the Missouri River and ending at the mouth of the...",
        "querystring": "991570248805867_MM05-0044_Graff_3360_003.tif",
        "truncPath": "state-and-federal-5",
        "filename": "main_state_and_federal_5.json"
    },
    {
        "cortexId": "NL1UN40",
        "cortexUrl": "https://collections.newberry.org/asset-management/2KXJ8ZWQVHI7",
        "cortexParentId": "NL1UNE8",
        "iiifId": "https://collections.newberry.org/IIIF3/Presentation/Canvas/2KXJ8ZWQVHI7",
        "title": "Topographical map of the road from Missouri to Oregon, commencing at the mouth of the Kansas in the Missouri River and ending at the mouth of the...",
        "querystring": "991570248805867_MM05-0044_Graff_3360_005.tif",
        "truncPath": "state-and-federal-7",
        "filename": "main_state_and_federal_7.json"
    },
    {
        "cortexId": "NL1UN3Z",
        "cortexUrl": "https://collections.newberry.org/asset-management/2KXJ8ZWQVEXW",
        "cortexParentId": "NL1UMRC",
        "iiifId": "https://collections.newberry.org/IIIF3/Presentation/Canvas/2KXJ8ZWQVEXW",
        "title": "Kansas Pacific Railway the best and shortest cattle trail from Texas",
        "querystring": "991542168805867_MM07-0068-01__GR_2275_001.TIF",
        "truncPath": "1875-best-and-shortest-cattle-10",
        "filename": "1875_best_and_shortest_cattle_10.json"
    },
    {
        "cortexId": "NL1UN3X",
        "cortexUrl": "https://collections.newberry.org/asset-management/2KXJ8ZWQVUF5",
        "cortexParentId": "NL1UNEO",
        "iiifId": "https://collections.newberry.org/IIIF3/Presentation/Canvas/2KXJ8ZWQVUF5",
        "title": "Mappa geral da Republica dos Estados Unidos do Brasil : publicado por occasiaÌƒo da ExposicÌ§Ì§aÌƒo Nacional de 1908 por ordem do Exmo. Snr. Ministro da...",
        "querystring": "994086038805867_MM19-0185_g_1099_1_details_04.tif",
        "truncPath": "around-over-through-5",
        "filename": "main_around_over_through_5.json"
    },
    {
        "cortexId": "NL1UN3V",
        "cortexUrl": "https://collections.newberry.org/asset-management/2KXJ8ZWQVQVQ",
        "cortexParentId": "NL1UNEO",
        "iiifId": "https://collections.newberry.org/IIIF3/Presentation/Canvas/2KXJ8ZWQVQVQ",
        "title": "Mappa geral da Republica dos Estados Unidos do Brasil : publicado por occasiaÌƒo da ExposicÌ§Ì§aÌƒo Nacional de 1908 por ordem do Exmo. Snr. Ministro da...",
        "querystring": "994086038805867_MM19-0185_g_1099_1_details_05.tif",
        "truncPath": "around-over-through-6",
        "filename": "main_around_over_through_6.json"
    },
    {
        "cortexId": "NL1UMWM",
        "cortexUrl": "https://collections.newberry.org/asset-management/2KXJ8ZWQ5PKO",
        "cortexParentId": "NL1UMRC",
        "iiifId": "https://collections.newberry.org/IIIF3/Presentation/Canvas/2KXJ8ZWQ5PKO",
        "title": "Wegweiser durch die Staaten Ohio, Michigan, Indiana, Illinois, & Missouri : u. die Territorien Wisconsin & Jowa : nach den letzten Vermessungen der...",
        "querystring": "998758228805867_MM14-0131_graff_1682_pg_278.tif",
        "truncPath": "1843-northwestern-states-0",
        "filename": "1843_northwestern_states_0.json"
    },
    {
        "cortexId": "NL1UMWH",
        "cortexUrl": "https://collections.newberry.org/asset-management/2KXJ8ZWQ5MY7",
        "cortexParentId": "NL1UMRC",
        "iiifId": "https://collections.newberry.org/IIIF3/Presentation/Canvas/2KXJ8ZWQ5MY7",
        "title": "Hugh Finlay's tract from Canada to the Massachusetts Province",
        "querystring": "998854128805867_MM25-0241_case_g831_298_001.tif",
        "truncPath": "1773-colonial-post-roads-1",
        "filename": "1773_colonial_post_roads_1.json"
    },
    {
        "cortexId": "NL1UMVS",
        "cortexUrl": "https://collections.newberry.org/asset-management/2KXJ8ZWQKF_4",
        "cortexParentId": "NL1UMRC",
        "iiifId": "https://collections.newberry.org/IIIF3/Presentation/Canvas/2KXJ8ZWQKF_4",
        "title": "Übersichtskarte der wahrscheinlichen Route von Sir J. Franklin's Expedition vom J. 1845 bis 1848",
        "querystring": "998776328805867_MM18-0177_g_007_67_",
        "truncPath": "navigating-the-coasts-and-seas-6-1",
        "filename": "main_navigating_the_coasts_and_seas_6_1.json"
    },
    {
        "cortexId": "NL1UMVP",
        "cortexUrl": "https://collections.newberry.org/asset-management/2KXJ8ZWQKY_I",
        "cortexParentId": "NL1UMRC",
        "iiifId": "https://collections.newberry.org/IIIF3/Presentation/Canvas/2KXJ8ZWQKY_I",
        "title": "Karte vom amerikanischen Polynesien &c.",
        "querystring": "v1859_00.tif",
        "truncPath": "1859-frontiers-of-ocean-5-2",
        "filename": "1859_frontiers_of_ocean_5_2.json"
    },
    {
        "cortexId": "NL1UMVM",
        "cortexUrl": "https://collections.newberry.org/asset-management/2KXJ8ZWQKO_8",
        "cortexParentId": "NL1UMRC",
        "iiifId": "https://collections.newberry.org/IIIF3/Presentation/Canvas/2KXJ8ZWQKO_8",
        "title": "Steam engine",
        "querystring": "998774158805867_MM18-0174_a_21_737_v4_09.tif",
        "truncPath": "navigating-the-coasts-and-seas-4",
        "filename": "main_navigating_the_coasts_and_seas_4.json"
    },
    {
        "cortexId": "NL1UMVI",
        "cortexUrl": "https://collections.newberry.org/asset-management/2KXJ8ZWQKI_D",
        "cortexParentId": "NL1UMRC",
        "iiifId": "https://collections.newberry.org/IIIF3/Presentation/Canvas/2KXJ8ZWQKI_D",
        "title": "Chart of the Atlantic Ocean",
        "querystring": "998767618805867_MM18-0173_l_995_111_00.tif",
        "truncPath": "1807-trade-winds-0",
        "filename": "1807_trade_winds_0.json"
    },
    {
        "cortexId": "NL1UMVH",
        "cortexUrl": "https://collections.newberry.org/asset-management/2KXJ8ZWQKJ_R",
        "cortexParentId": "NL1UMRC",
        "iiifId": "https://collections.newberry.org/IIIF3/Presentation/Canvas/2KXJ8ZWQKJ_R",
        "title": "Map of the Southern States, showing the relative proportion of slaves in the different localities",
        "querystring": "998758528805867_MM14-0138_a5_392_v7_1863_map_p141.tif",
        "truncPath": "1863-slave-populations-4",
        "filename": "1863_slave_populations_4.json"
    },
    {
        "cortexId": "NL1UMV7",
        "cortexUrl": "https://collections.newberry.org/asset-management/2KXJ8ZWQKB_8",
        "cortexParentId": "NL1UMVK",
        "iiifId": "https://collections.newberry.org/IIIF3/Presentation/Canvas/2KXJ8ZWQKB_8",
        "title": "New Jersey Intracoastal Waterway Little Egg Harbor to Longport",
        "querystring": "998716078805867_MM13-0129_map_6f_g3812_c6_1949_u55_04.tif",
        "truncPath": "waterways-cartography-part-2-15",
        "filename": "main_waterways_cartography_part_2_15.json"
    },
    {
        "cortexId": "NL1UMV6",
        "cortexUrl": "https://collections.newberry.org/asset-management/2KXJ8ZWQK4_5",
        "cortexParentId": "NL1UMRC",
        "iiifId": "https://collections.newberry.org/IIIF3/Presentation/Canvas/2KXJ8ZWQK4_5",
        "title": "Umgebung von St. Louis : Blei District ; Umgebung von Lexington ; Umgebung von Nashville.",
        "querystring": "998758218805867_MM14-0132_graff_409_02.tif",
        "truncPath": "mapping-migration-2",
        "filename": "main_mapping_migration_2.json"
    },
    {
        "cortexId": "NL1UMV3",
        "cortexUrl": "https://collections.newberry.org/asset-management/2KXJ8ZWQK1_Q",
        "cortexParentId": "NL1UMVK",
        "iiifId": "https://collections.newberry.org/IIIF3/Presentation/Canvas/2KXJ8ZWQK1_Q",
        "title": "New Jersey Intracoastal Waterway Little Egg Harbor to Longport",
        "querystring": "998716078805867_MM13-0129_map_6f_g3812_c6_1949_u55_03.tif",
        "truncPath": "waterways-cartography-part-2-14",
        "filename": "main_waterways_cartography_part_2_14.json"
    },
    {
        "cortexId": "NL1UMUW",
        "cortexUrl": "https://collections.newberry.org/asset-management/2KXJ8ZWP51P5",
        "cortexParentId": "NL1UMRC",
        "iiifId": "https://collections.newberry.org/IIIF3/Presentation/Canvas/2KXJ8ZWP51P5",
        "title": "Nautical chart of the Illinois Waterway and Illinois River at Peoria mile 156.1 to mile 161.9",
        "querystring": "998716048805867_MM13-0128_map6c_g4102_i51_1970_u5_02.tif",
        "truncPath": "waterways-cartography-part-2-18",
        "filename": "main_waterways_cartography_part_2_18.json"
    },
    {
        "cortexId": "NL1UMUV",
        "cortexUrl": "https://collections.newberry.org/asset-management/2KXJ8ZWP59WK",
        "cortexParentId": "NL1UMRC",
        "iiifId": "https://collections.newberry.org/IIIF3/Presentation/Canvas/2KXJ8ZWP59WK",
        "title": "Valley of Mexico highways",
        "querystring": "998724278805867_MM19-0184_F_1209_T65_1938_02.tif",
        "truncPath": "around-over-through-13",
        "filename": "main_around_over_through_13.json"
    },
    {
        "cortexId": "NL1UMUS",
        "cortexUrl": "https://collections.newberry.org/asset-management/2KXJ8ZWP5AJU",
        "cortexParentId": "NL1UMTX",
        "iiifId": "https://collections.newberry.org/IIIF3/Presentation/Canvas/2KXJ8ZWP5AJU",
        "title": "New Orleans metropolitan area basic evacuation plan",
        "querystring": "998643898805867_MM06-0059_map_4f_g4014_n5r6_1961_h6_002.tif",
        "truncPath": "planning-transportation-17",
        "filename": "main_planning_transportation_17.json"
    },
    {
        "cortexId": "NL1UMUM",
        "cortexUrl": "https://collections.newberry.org/asset-management/2KXJ8ZWP5P5P",
        "cortexParentId": "NL1UMRC",
        "iiifId": "https://collections.newberry.org/IIIF3/Presentation/Canvas/2KXJ8ZWP5P5P",
        "title": "Chart of the new eight thousand mile airmail route of the Western Hemisphere",
        "querystring": "998723628805867_MM19-0186_H_65083_98_pg_3.tif",
        "truncPath": "1929-airmail-argentina-10",
        "filename": "1929_airmail_argentina_10.json"
    },
    {
        "cortexId": "NL1UMUL",
        "cortexUrl": "https://collections.newberry.org/asset-management/2KXJ8ZWP5K8D",
        "cortexParentId": "NL1UMRC",
        "iiifId": "https://collections.newberry.org/IIIF3/Presentation/Canvas/2KXJ8ZWP5K8D",
        "title": "Map, of part of the state of New Jersey, pointing out the course of an intended inland timber navigation between New York and Philadelphia",
        "querystring": "998713828805867_MM12-0111_case_4a_988_01.tif",
        "truncPath": "1808-proposed-canal-new-york-0",
        "filename": "1808_proposed_canal_new_york_0.json"
    },
    {
        "cortexId": "NL1UMUJ",
        "cortexUrl": "https://collections.newberry.org/asset-management/2KXJ8ZWP563I",
        "cortexParentId": "NL1UMRC",
        "iiifId": "https://collections.newberry.org/IIIF3/Presentation/Canvas/2KXJ8ZWP563I",
        "title": "Falls of Ohio",
        "querystring": "998713838805867_MM12-0112_case_g_875_191_01.tif",
        "truncPath": "1817-navigation-guide-for-inland-rivers-2",
        "filename": "1817_navigation_guide_for_inland_rivers_2.json"
    },
    {
        "cortexId": "NL1UMUI",
        "cortexUrl": "https://collections.newberry.org/asset-management/2KXJ8ZWP5W4O",
        "cortexParentId": "NL1UMRC",
        "iiifId": "https://collections.newberry.org/IIIF3/Presentation/Canvas/2KXJ8ZWP5W4O",
        "title": "Freight rates charged for the transportation of articles classed as first class in the western classification via all rail and via river from...",
        "querystring": "5250_vol_17_map_09.tif",
        "truncPath": "waterways-cartography-part-2-6-2",
        "filename": "main_waterways_cartography_part_2_6_2.json"
    },
    {
        "cortexId": "NL1UMUC",
        "cortexUrl": "https://collections.newberry.org/asset-management/2KXJ8ZWP5SEB",
        "cortexParentId": "NL1UMRC",
        "iiifId": "https://collections.newberry.org/IIIF3/Presentation/Canvas/2KXJ8ZWP5SEB",
        "title": "Cross-section profile and planimetric diagram illustrating the construction of a canal proposed for New Jersey",
        "querystring": "998713388805867_MM12-0111_case_4a_988_02.tif",
        "truncPath": "waterways-cartography-part-1-1",
        "filename": "main_waterways_cartography_part_1_1.json"
    },
    {
        "cortexId": "NL1UMTD",
        "cortexUrl": "https://collections.newberry.org/asset-management/2KXJ8ZWP4IQ1",
        "cortexParentId": "NL1UMRC",
        "iiifId": "https://collections.newberry.org/IIIF3/Presentation/Canvas/2KXJ8ZWP4IQ1",
        "title": "Carte de la route que mène depuis la capitale de la Nouvelle Espagne jusqu'à S. Fe du Nouveau Mexique",
        "querystring": "998653698805867_MM07-0062_graff_2009_pl_7.tif",
        "truncPath": "1811-road-from-capital-of-new-spain-1",
        "filename": "1811_road_from_capital_of_new_spain_1.json"
    },
    {
        "cortexId": "NL1UMT2",
        "cortexUrl": "https://collections.newberry.org/asset-management/2KXJ8ZWP42X8",
        "cortexParentId": "NL1UMRC",
        "iiifId": "https://collections.newberry.org/IIIF3/Presentation/Canvas/2KXJ8ZWP42X8",
        "title": "Valparaiso master plan, 1951 a guide for future community development",
        "querystring": "998643908805867_MM06-0058_map_2f_g4094_v2g5_1951_m4_cb.tif",
        "truncPath": "planning-transportation-15",
        "filename": "main_planning_transportation_15.json"
    },
    {
        "cortexId": "NL1UMSZ",
        "cortexUrl": "https://collections.newberry.org/asset-management/2KXJ8ZWP4N0U",
        "cortexParentId": "NL1UMRC",
        "iiifId": "https://collections.newberry.org/IIIF3/Presentation/Canvas/2KXJ8ZWP4N0U",
        "title": "Map of Southern Pacific Company and Pacific Electric Railway Company lines in the Los Angeles region of southern California",
        "querystring": "998645638805867_MM06-0055_5a_7267_vol_2.tif",
        "truncPath": "1911-electric-la-7",
        "filename": "1911_electric_la_7.json"
    },
    {
        "cortexId": "NL1UMS1",
        "cortexUrl": "https://collections.newberry.org/asset-management/2KXJ8ZWPSG2R",
        "cortexParentId": "NL1UMRC",
        "iiifId": "https://collections.newberry.org/IIIF3/Presentation/Canvas/2KXJ8ZWPSG2R",
        "title": "Map of the proposed northern route for a railroad to the Pacific",
        "querystring": "998365458805867_MM01-0005_graff_2216_001.tif",
        "truncPath": "1854-northern-rr-18",
        "filename": "1854_northern_rr_18.json"
    },
    {
        "cortexId": "NL1UMRS",
        "cortexUrl": "https://collections.newberry.org/asset-management/2KXJ8ZWPH5V1",
        "cortexParentId": "NL1UMRC",
        "iiifId": "https://collections.newberry.org/IIIF3/Presentation/Canvas/2KXJ8ZWPH5V1",
        "title": "Map of the New Orleans, Jackson, and Great Northern Railroad track leading to Amite City, Louisiana",
        "querystring": "998368438805867_MM01-0008_IC_6_n4_2_002.tif",
        "truncPath": "american-railroad-maps-1828-1876-21",
        "filename": "main_american_railroad_maps_1828_1876_21.json"
    },
    {
        "cortexId": "NL1UMRM",
        "cortexUrl": "https://collections.newberry.org/asset-management/2KXJ8ZWPHZ4W",
        "cortexParentId": "NL1UMRC",
        "iiifId": "https://collections.newberry.org/IIIF3/Presentation/Canvas/2KXJ8ZWPHZ4W",
        "title": "Map of the New Orleans, Jackson, and Great Northern Railroad track leading from its New Orleans passenger depot",
        "querystring": "998368448805867_MM01-0008_IC_6_n4_2_001.tif",
        "truncPath": "american-railroad-maps-1828-1876-22",
        "filename": "main_american_railroad_maps_1828_1876_22.json"
    },
    {
        "cortexId": "NL1UMRE",
        "cortexUrl": "https://collections.newberry.org/asset-management/2KXJ8ZWPHNRU",
        "cortexParentId": "NL1UMRC",
        "iiifId": "https://collections.newberry.org/IIIF3/Presentation/Canvas/2KXJ8ZWPHNRU",
        "title": "Outline map of Illinois",
        "querystring": "998365438805867_MM01-0004_graff_2081_001.tif",
        "truncPath": "1854-illinois-land-grant-13",
        "filename": "1854_illinois_land_grant_13.json"
    },
    {
        "cortexId": "NL1UL3T",
        "cortexUrl": "https://collections.newberry.org/asset-management/2KXJ8ZWPGMB9",
        "cortexParentId": "NL1UMRC",
        "iiifId": "https://collections.newberry.org/IIIF3/Presentation/Canvas/2KXJ8ZWPGMB9",
        "title": "The Milwaukee-Kansas City Southern Joint Agency map showing tracks from West End to Leeds",
        "querystring": "998497308805867_MM03-0028_map_6f_g4164_k2p3_1945_k3.tif",
        "truncPath": "1945-railroad-operations-map-industrial-20",
        "filename": "1945_railroad_operations_map_industrial_20.json"
    },
    {
        "cortexId": "NL1UL3O",
        "cortexUrl": "https://collections.newberry.org/asset-management/2KXJ8ZWPK6VI",
        "cortexParentId": "NL1NMU0",
        "iiifId": "https://collections.newberry.org/IIIF3/Presentation/Canvas/2KXJ8ZWPK6VI",
        "title": "Main stems of proposed railway systems",
        "querystring": "999421518805867_MM03-0027_rmcn_atlas_a73_1925_005.tif",
        "truncPath": "american-railroad-maps-1873-2012-7",
        "filename": "main_american_railroad_maps_1873_2012_7.json"
    },
    {
        "cortexId": "NL1UL3M",
        "cortexUrl": "https://collections.newberry.org/asset-management/2KXJ8ZWPKFL7",
        "cortexParentId": "NL1UL3O",
        "iiifId": "https://collections.newberry.org/IIIF3/Presentation/Canvas/2KXJ8ZWPKFL7",
        "title": "Main stems of proposed railway systems",
        "querystring": "999421518805867_MM03-0027_rmcn_atlas_a73_1925_004.tif",
        "truncPath": "american-railroad-maps-1873-2012-6",
        "filename": "main_american_railroad_maps_1873_2012_6.json"
    },
    {
        "cortexId": "NL1UL3L",
        "cortexUrl": "https://collections.newberry.org/asset-management/2KXJ8ZWPKNTU",
        "cortexParentId": "NL1UL3P",
        "iiifId": "https://collections.newberry.org/IIIF3/Presentation/Canvas/2KXJ8ZWPKNTU",
        "title": "Freight routes and junction points in southern territory",
        "querystring": "999421508805867_MM03-0027_rmcn_atlas_a73_1925_001.tif",
        "truncPath": "american-railroad-maps-1873-2012-4",
        "filename": "main_american_railroad_maps_1873_2012_4.json"
    },
    {
        "cortexId": "NL1UL3K",
        "cortexUrl": "https://collections.newberry.org/asset-management/2KXJ8ZWPKVN4",
        "cortexParentId": "NL1NMU0",
        "iiifId": "https://collections.newberry.org/IIIF3/Presentation/Canvas/2KXJ8ZWPKVN4",
        "title": "The Chicago, Milwaukee & St. Paul Railway : complete time tables",
        "querystring": "998496108805867_MM03-0026_he_1805_c55_1920_001.tif",
        "truncPath": "1920-milwaukee-road-14",
        "filename": "1920_milwaukee_road_14.json"
    },
    {
        "cortexId": "NL1UL3J",
        "cortexUrl": "https://collections.newberry.org/asset-management/2KXJ8ZWPKX4Q",
        "cortexParentId": "NL1NMU0",
        "iiifId": "https://collections.newberry.org/IIIF3/Presentation/Canvas/2KXJ8ZWPKX4Q",
        "title": "Condensed schedules of through trains and equipment of the Chicago, Milwaukee, and St. Paul Railway : east and southbound",
        "querystring": "999421468805867_MM03-0026_he_1805_c55_1920_004.tif",
        "truncPath": "american-railroad-maps-1873-2012-17",
        "filename": "main_american_railroad_maps_1873_2012_17.json"
    },
    {
        "cortexId": "NL1UL2N",
        "cortexUrl": "https://collections.newberry.org/asset-management/2KXJ8ZWPKTHR",
        "cortexParentId": "NL1UL2O",
        "iiifId": "https://collections.newberry.org/IIIF3/Presentation/Canvas/2KXJ8ZWPKTHR",
        "title": "To and across the White Mountains via Portland & Ogdensburg Railroad",
        "querystring": "998496138805867_MM03-0021_map_2f_g3742_w52p3_1879_p6_002.tif",
        "truncPath": "1870-white-mountains-24",
        "filename": "1870_white_mountains_24.json"
    },
    {
        "cortexId": "NL1TQ3C",
        "cortexUrl": "https://collections.newberry.org/asset-management/2KXJ8ZXHUA26",
        "cortexParentId": "NL1NMU0",
        "iiifId": "https://collections.newberry.org/IIIF3/Presentation/Canvas/2KXJ8ZXHUA26",
        "title": "Boston and Albany Railroad survey profiles from Boston to New York State line at Canaan",
        "querystring": "998368338805867_MM01-0001_case_h_66844_396_003.tif",
        "truncPath": "american-railroad-maps-1828-1876-2",
        "filename": "main_american_railroad_maps_1828_1876_2.json"
    },
    {
        "cortexId": "NL1TQ3B",
        "cortexUrl": "https://collections.newberry.org/asset-management/2KXJ8ZXHU08Z",
        "cortexParentId": "NL1TQ3C",
        "iiifId": "https://collections.newberry.org/IIIF3/Presentation/Canvas/2KXJ8ZXHU08Z",
        "title": "Boston and Albany Railroad survey profiles from Boston to New York State line at Canaan",
        "querystring": "998368338805867_MM01-0001_case_h_66844_396_004.tif",
        "truncPath": "american-railroad-maps-1828-1876-3",
        "filename": "main_american_railroad_maps_1828_1876_3.json"
    },
    {
        "cortexId": "NL1TQ3A",
        "cortexUrl": "https://collections.newberry.org/asset-management/2KXJ8ZXHU8ZM",
        "cortexParentId": "NL1NMU0",
        "iiifId": "https://collections.newberry.org/IIIF3/Presentation/Canvas/2KXJ8ZXHU8ZM",
        "title": "Map of the Duluth South-Shore & Atlantic Ry. and connections",
        "querystring": "998498438805867_MM03-0023_g_909_73_map.tif",
        "truncPath": "1890-lake-superior-13",
        "filename": "1890_lake_superior_13.json"
    },
    {
        "cortexId": "NL1UO5F",
        "cortexUrl": "https://collections.newberry.org/asset-management/2KXJ8ZWQWKX5",
        "cortexParentId": "NL1UMRC",
        "iiifId": "https://collections.newberry.org/IIIF3/Presentation/Canvas/2KXJ8ZWQWKX5",
        "title": "W. 1/2 of S.W. 1/4, section 33.40.14 : part of Sheffields add.",
        "querystring": "MM14-0136_baskes_g4104_c6_1886_r6_vol_3_02_wc.tif",
        "truncPath": "mapping-migration-8",
        "filename": "main_mapping_migration_8.json"
    },
    {
        "cortexId": "NL1UO22",
        "cortexUrl": "https://collections.newberry.org/asset-management/2KXJ8ZWQ2BX1",
        "cortexParentId": "NL1UMRC",
        "iiifId": "https://collections.newberry.org/IIIF3/Presentation/Canvas/2KXJ8ZWQ2BX1",
        "title": "Origin of lake receipts at Buffalo, N.Y., during 1929",
        "querystring": "MM13-0126-01_Final.tif",
        "truncPath": "1931-buffalo-great-lakes-7",
        "filename": "1931_buffalo_great_lakes_7.json"
    },
    {
        "cortexId": "NL1UO1S",
        "cortexUrl": "https://collections.newberry.org/asset-management/2KXJ8ZWQ20MR",
        "cortexParentId": "NL1UMRC",
        "iiifId": "https://collections.newberry.org/IIIF3/Presentation/Canvas/2KXJ8ZWQ20MR",
        "title": "Explorations and surveys for a rail road from the Mississippi River to the Pacific Ocean route near the 35th parallel. Map no. 2, from the Rio Grande...",
        "querystring": "MM01-0006-03_1_2.tif",
        "truncPath": "american-railroad-maps-1828-1876-11",
        "filename": "main_american_railroad_maps_1828_1876_11.json"
    },
    {
        "cortexId": "NL1UO0Z",
        "cortexUrl": "https://collections.newberry.org/asset-management/2KXJ8ZWQP97Q",
        "cortexParentId": "NL1UMRC",
        "iiifId": "https://collections.newberry.org/IIIF3/Presentation/Canvas/2KXJ8ZWQP97Q",
        "title": "Map of South Carolina and a part of Georgia containing the whole sea-coast, all the islands, inlets, rivers, creeks, parishes, townships, boroughs,...",
        "querystring": "MM09-0088-01_Full_Final.tif",
        "truncPath": "1780-south-carolina-14",
        "filename": "1780_south_carolina_14.json"
    },
    {
        "cortexId": "NL1UO0T",
        "cortexUrl": "https://collections.newberry.org/asset-management/2KXJ8ZWQPPOO",
        "cortexParentId": "NL1UMRC",
        "iiifId": "https://collections.newberry.org/IIIF3/Presentation/Canvas/2KXJ8ZWQPPOO",
        "title": "Map of the American Central Water Line and other principal lines of communication between the western states, and the Atlantic seaboard",
        "querystring": "MM12-0120-01_Final.tif",
        "truncPath": "1869-proposed-canal-inland-14",
        "filename": "1869_proposed_canal_inland_14.json"
    },
    {
        "cortexId": "NL1UO06",
        "cortexUrl": "https://collections.newberry.org/asset-management/2KXJ8ZWQTON1",
        "cortexParentId": "NL1UMRC",
        "iiifId": "https://collections.newberry.org/IIIF3/Presentation/Canvas/2KXJ8ZWQTON1",
        "title": "Map of the Hudson River : shewing location of proposed dams and jetties for permanently improving the navigation of the Hudson River",
        "querystring": "MM12-0116-01_Final.tif",
        "truncPath": "1852-proposed-dams-and-jetties-11",
        "filename": "1852_proposed_dams_and_jetties_11.json"
    },
    {
        "cortexId": "NL1UNZD",
        "cortexUrl": "https://collections.newberry.org/asset-management/2KXJ8ZWQTLDI",
        "cortexParentId": "NL1UMRC",
        "iiifId": "https://collections.newberry.org/IIIF3/Presentation/Canvas/2KXJ8ZWQTLDI",
        "title": "Explorations and surveys for a rail road route from the Mississippi River to the Pacific Ocean route near the 35th parallel. Map no. 1, From Fort...",
        "querystring": "MM01-0006-01_1_2.tif",
        "truncPath": "1853-pacific-rr-10",
        "filename": "1853_pacific_rr_10.json"
    },
    {
        "cortexId": "NL1UNZA",
        "cortexUrl": "https://collections.newberry.org/asset-management/2KXJ8ZWQTSR4",
        "cortexParentId": "NL1UMRC",
        "iiifId": "https://collections.newberry.org/IIIF3/Presentation/Canvas/2KXJ8ZWQTSR4",
        "title": "The seat of war in New England",
        "querystring": "MM09-0089-01_Final.tif",
        "truncPath": "1775-war-new-england-12",
        "filename": "1775_war_new_england_12.json"
    },
    {
        "cortexId": "NL1UNYL",
        "cortexUrl": "https://collections.newberry.org/asset-management/2KXJ8ZWQS8VP",
        "cortexParentId": "NL1UMRC",
        "iiifId": "https://collections.newberry.org/IIIF3/Presentation/Canvas/2KXJ8ZWQS8VP",
        "title": "Florida et Apalche",
        "querystring": "MM08-0072-01_Final.tif",
        "truncPath": "1598-florida-and-the-apalachee-lands-1",
        "filename": "1598_florida_and_the_apalachee_lands_1.json"
    },
    {
        "cortexId": "NL1UNYJ",
        "cortexUrl": "https://collections.newberry.org/asset-management/2KXJ8ZWQSCPU",
        "cortexParentId": "NL1UMRC",
        "iiifId": "https://collections.newberry.org/IIIF3/Presentation/Canvas/2KXJ8ZWQSCPU",
        "title": "Nautical chart of the Pacific coast of Mexico, Baja California, and the Gulf of California",
        "querystring": "MM08-0071-01_Final.tif",
        "truncPath": "1541-nautical-chart-of-the-pacific-coast-of-mexico-0",
        "filename": "1541_nautical_chart_of_the_pacific_coast_of_mexico_0.json"
    },
    {
        "cortexId": "NL1UNYH",
        "cortexUrl": "https://collections.newberry.org/asset-management/2KXJ8ZWQSF5B",
        "cortexParentId": "NL1UMRC",
        "iiifId": "https://collections.newberry.org/IIIF3/Presentation/Canvas/2KXJ8ZWQSF5B",
        "title": "Skeleton map of the overland mail route to California",
        "querystring": "MM07-0066-01_Final.tif",
        "truncPath": "1857-overland-mail-route-to-california-5",
        "filename": "1857_overland_mail_route_to_california_5.json"
    },
    {
        "cortexId": "NL1UNYA",
        "cortexUrl": "https://collections.newberry.org/asset-management/2KXJ8ZWQS2ND",
        "cortexParentId": "NL1UMRC",
        "iiifId": "https://collections.newberry.org/IIIF3/Presentation/Canvas/2KXJ8ZWQS2ND",
        "title": "Plan de la Provincia Interna del Nuevo Mexico que hizo por mandato del Teniente Coronel de Caballeria, gobernador y comandante general de dicha...",
        "querystring": "MM07-0061-01_Final.tif",
        "truncPath": "1779-map-of-the-province-of-new-mexico-0",
        "filename": "1779_map_of_the_province_of_new_mexico_0.json"
    },
    {
        "cortexId": "NL1UNL2",
        "cortexUrl": "https://collections.newberry.org/asset-management/2KXJ8ZWQ4F6B",
        "cortexParentId": "NL1UMRC",
        "iiifId": "https://collections.newberry.org/IIIF3/Presentation/Canvas/2KXJ8ZWQ4F6B",
        "title": "Kansas Pacific Railway the best and shortest cattle trail from Texas",
        "querystring": "991542168805867_MM07-0068-01__GR_2275_002.tif",
        "truncPath": "maps-of-trails-and-roads-11",
        "filename": "main_maps_of_trails_and_roads_11.json"
    },
    {
        "cortexId": "NL1UNFF",
        "cortexUrl": "https://collections.newberry.org/asset-management/2KXJ8ZWQ9JS4",
        "cortexParentId": "NL1UMRC",
        "iiifId": "https://collections.newberry.org/IIIF3/Presentation/Canvas/2KXJ8ZWQ9JS4",
        "title": "Map of the discoveries made by the Russians on the north west coast of America",
        "querystring": "995096398805867_MM08-0078_ayer_133_l772_1761.tif",
        "truncPath": "1761-russian-voyages-in-the-pacific-northwest-6",
        "filename": "1761_russian_voyages_in_the_pacific_northwest_6.json"
    },
    {
        "cortexId": "NL1UNES",
        "cortexUrl": "https://collections.newberry.org/asset-management/2KXJ8ZWQ7IK8",
        "cortexParentId": "NL1UMRC",
        "iiifId": "https://collections.newberry.org/IIIF3/Presentation/Canvas/2KXJ8ZWQ7IK8",
        "title": "Improved map of the territories of Michigan and Ouisconsin (pronounced Wisconsin)",
        "querystring": "991578698805867_MM15-0146_graff_1290.tif",
        "truncPath": "1836-michigan-ouisconsin-5",
        "filename": "1836_michigan_ouisconsin_5.json"
    },
    {
        "cortexId": "NL1UNEN",
        "cortexUrl": "https://collections.newberry.org/asset-management/2KXJ8ZWQ70ER",
        "cortexParentId": "NL1UNEO",
        "iiifId": "https://collections.newberry.org/IIIF3/Presentation/Canvas/2KXJ8ZWQ70ER",
        "title": "Mappa geral da Republica dos Estados Unidos do Brasil : publicado por occasiaÌƒo da ExposicÌ§Ì§aÌƒo Nacional de 1908 por ordem do Exmo. Snr. Ministro da...",
        "querystring": "994086038805867_MM19-0185_g_1099_1_details_02.tif",
        "truncPath": "around-over-through-3",
        "filename": "main_around_over_through_3.json"
    },
    {
        "cortexId": "NL1UNEL",
        "cortexUrl": "https://collections.newberry.org/asset-management/2KXJ8ZWQ75U8",
        "cortexParentId": "NL1UMRC",
        "iiifId": "https://collections.newberry.org/IIIF3/Presentation/Canvas/2KXJ8ZWQ75U8",
        "title": "Map of the territory of Montana with portions of the adjoining territories",
        "querystring": "991572058805867_MM07-0069_graff_1040.tif",
        "truncPath": "1870-territory-of-montana-9",
        "filename": "1870_territory_of_montana_9.json"
    },
    {
        "cortexId": "NL1UNEK",
        "cortexUrl": "https://collections.newberry.org/asset-management/2KXJ8ZWQ7HJ7",
        "cortexParentId": "NL1UMRC",
        "iiifId": "https://collections.newberry.org/IIIF3/Presentation/Canvas/2KXJ8ZWQ7HJ7",
        "title": "Map of the military district, Kansas and the territories",
        "querystring": "991410948805867_MM05-0046_case_ms_g4050_1866_d6_001.tif",
        "truncPath": "1866-union-pacific-rr-12",
        "filename": "1866_union_pacific_rr_12.json"
    },
    {
        "cortexId": "NL1UNEC",
        "cortexUrl": "https://collections.newberry.org/asset-management/2KXJ8ZWQ7DI2",
        "cortexParentId": "NL1UMRC",
        "iiifId": "https://collections.newberry.org/IIIF3/Presentation/Canvas/2KXJ8ZWQ7DI2",
        "title": "New map of the north parts of America claimed by France under the names of Louisiana, Mississipi, Canada and New France, with the adjoyning...",
        "querystring": "991578408805867_MM09-0082_graff_2855.tif",
        "truncPath": "1720-territorial-claims-1",
        "filename": "1720_territorial_claims_1.json"
    },
    {
        "cortexId": "NL1UN4Q",
        "cortexUrl": "https://collections.newberry.org/asset-management/2KXJ8ZWQ77OO",
        "cortexParentId": "NL1UNEH",
        "iiifId": "https://collections.newberry.org/IIIF3/Presentation/Canvas/2KXJ8ZWQ77OO",
        "title": "Preliminary comprehensive city plan of Chicago a generalized presentation of the physical elements of the city plan designed for a population of...",
        "querystring": "994533958805867_MM06-0057_map_g10896_165_003.tif",
        "truncPath": "planning-transportation-11",
        "filename": "main_planning_transportation_11.json"
    },
    {
        "cortexId": "NL1UN4O",
        "cortexUrl": "https://collections.newberry.org/asset-management/2KXJ8ZWQ71XK",
        "cortexParentId": "NL1UNEH",
        "iiifId": "https://collections.newberry.org/IIIF3/Presentation/Canvas/2KXJ8ZWQ71XK",
        "title": "Preliminary comprehensive city plan of Chicago a generalized presentation of the physical elements of the city plan designed for a population of...",
        "querystring": "994533958805867_MM06-0057_map_g10896_165_002.tif",
        "truncPath": "planning-transportation-10",
        "filename": "main_planning_transportation_10.json"
    },
    {
        "cortexId": "NL1UN49",
        "cortexUrl": "https://collections.newberry.org/asset-management/2KXJ8ZWQVIA8",
        "cortexParentId": "NL1UMRC",
        "iiifId": "https://collections.newberry.org/IIIF3/Presentation/Canvas/2KXJ8ZWQVIA8",
        "title": "Map of the California State Telegraph, and Overland Mail road : Austin to Great Salt Lake City : from actual survey, Aug., 1866",
        "querystring": "991679048805867_MM25-0243_Graff_4589.tif",
        "truncPath": "1866-wire-across-continent-3",
        "filename": "1866_wire_across_continent_3.json"
    },
    {
        "cortexId": "NL1UN44",
        "cortexUrl": "https://collections.newberry.org/asset-management/2KXJ8ZWQVXGP",
        "cortexParentId": "NL115BG6",
        "iiifId": "https://collections.newberry.org/IIIF3/Presentation/Canvas/2KXJ8ZWQVXGP",
        "title": "New map of Texas, Oregon, and California with the regions adjoining",
        "querystring": "991562448805867_MM07-0064_map_3c_g4050_1846_m5_003.tif",
        "truncPath": "maps-of-trails-and-roads-4",
        "filename": "main_maps_of_trails_and_roads_4.json"
    },
    {
        "cortexId": "NL1UN3Y",
        "cortexUrl": "https://collections.newberry.org/asset-management/2KXJ8ZWQV90Q",
        "cortexParentId": "NL1UNEO",
        "iiifId": "https://collections.newberry.org/IIIF3/Presentation/Canvas/2KXJ8ZWQV90Q",
        "title": "Mappa geral da Republica dos Estados Unidos do Brasil : publicado por occasiaÌƒo da ExposicÌ§Ì§aÌƒo Nacional de 1908 por ordem do Exmo. Snr. Ministro da...",
        "querystring": "994086038805867_MM19-0185_g_1099_1_details_03.tif",
        "truncPath": "around-over-through-4",
        "filename": "main_around_over_through_4.json"
    },
    {
        "cortexId": "NL1UMX7",
        "cortexUrl": "https://collections.newberry.org/asset-management/2KXJ8ZWQJND9",
        "cortexParentId": "NL1UMX4",
        "iiifId": "https://collections.newberry.org/IIIF3/Presentation/Canvas/2KXJ8ZWQJND9",
        "title": "Washington, D.C. metropolitan area road map",
        "querystring": "999422378805867_MM15-0150_rmn_clients_3745_02.tif",
        "truncPath": "1955-road-map-southwestern-4-2",
        "filename": "1955_road_map_southwestern_4_2.json"
    },
    {
        "cortexId": "NL1UMWO",
        "cortexUrl": "https://collections.newberry.org/asset-management/2KXJ8ZWQ50AR",
        "cortexParentId": "NL1UMRC",
        "iiifId": "https://collections.newberry.org/IIIF3/Presentation/Canvas/2KXJ8ZWQ50AR",
        "title": "Connecticut River Bridge at Springfield, Massachusetts",
        "querystring": "999374808805867_MM01-0003_map_3c_g3761_p3_1847_g8_004.tif",
        "truncPath": "american-railroad-maps-1828-1876-9",
        "filename": "main_american_railroad_maps_1828_1876_9.json"
    },
    {
        "cortexId": "NL1UMWN",
        "cortexUrl": "https://collections.newberry.org/asset-management/2KXJ8ZWQ5THX",
        "cortexParentId": "NL1UMRC",
        "iiifId": "https://collections.newberry.org/IIIF3/Presentation/Canvas/2KXJ8ZWQ5THX",
        "title": "Interior of engine house, at Springfield Massachusetts",
        "querystring": "999374798805867_MM01-0003_map_3c_g3761_p3_1847_g8_003.tif",
        "truncPath": "american-railroad-maps-1828-1876-8",
        "filename": "main_american_railroad_maps_1828_1876_8.json"
    },
    {
        "cortexId": "NL1UMWB",
        "cortexUrl": "https://collections.newberry.org/asset-management/2KXJ8ZWQ5GMX",
        "cortexParentId": "NL1UMRC",
        "iiifId": "https://collections.newberry.org/IIIF3/Presentation/Canvas/2KXJ8ZWQ5GMX",
        "title": "Map detailing miles 94-100 west of Boston on the Boston and Worcester Railroad and the Western Rail-Road",
        "querystring": "999374778805867_MM01-0003_map_3c_g3761_p3_1847_g8_001.tif",
        "truncPath": "1847-boston-worcester-6",
        "filename": "1847_boston_worcester_6.json"
    },
    {
        "cortexId": "NL1UMW9",
        "cortexUrl": "https://collections.newberry.org/asset-management/2KXJ8ZWQ5588",
        "cortexParentId": "NL1UMRC",
        "iiifId": "https://collections.newberry.org/IIIF3/Presentation/Canvas/2KXJ8ZWQ5588",
        "title": "Map showing the divisions of standard time",
        "querystring": "998854148805867_MM25-0245_baskes_g1019_g46_1889.tif",
        "truncPath": "1889-standard-time-4",
        "filename": "1889_standard_time_4.json"
    },
    {
        "cortexId": "NL1UMW8",
        "cortexUrl": "https://collections.newberry.org/asset-management/2KXJ8ZWQ5X4P",
        "cortexParentId": "NL1UMRC",
        "iiifId": "https://collections.newberry.org/IIIF3/Presentation/Canvas/2KXJ8ZWQ5X4P",
        "title": "Route from New London to Saybrook",
        "querystring": "998854178805867_MM25-0241_case_g831_298_002.tif",
        "truncPath": "mapping-communication-2",
        "filename": "main_mapping_communication_2.json"
    },
    {
        "cortexId": "NL1UMVW",
        "cortexUrl": "https://collections.newberry.org/asset-management/2KXJ8ZWQK8_O",
        "cortexParentId": "NL1UMRC",
        "iiifId": "https://collections.newberry.org/IIIF3/Presentation/Canvas/2KXJ8ZWQK8_O",
        "title": "Composition of the foreign-born population, 1890",
        "querystring": "998758608805867_MM14-0134govt_i_12_2_at6_02.tif",
        "truncPath": "mapping-migration-13",
        "filename": "main_mapping_migration_13.json"
    },
    {
        "cortexId": "NL1UMVV",
        "cortexUrl": "https://collections.newberry.org/asset-management/2KXJ8ZWQK7_2",
        "cortexParentId": "NL1UMRC",
        "iiifId": "https://collections.newberry.org/IIIF3/Presentation/Canvas/2KXJ8ZWQK7_2",
        "title": "Die nordatlantische Sargasso See : nach der Häufigkeit des Krautvorkommens dargestellt",
        "querystring": "998776358805867_MM18-0179__g_007_67_",
        "truncPath": "1891-algae-concentrations-10-1",
        "filename": "1891_algae_concentrations_10_1.json"
    },
    {
        "cortexId": "NL1UMVQ",
        "cortexUrl": "https://collections.newberry.org/asset-management/2KXJ8ZWQKV_X",
        "cortexParentId": "NL1UMRC",
        "iiifId": "https://collections.newberry.org/IIIF3/Presentation/Canvas/2KXJ8ZWQKV_X",
        "title": "Originalkarte der Rückreise der Österr.-Ungar. Expedition, Mai-August, 1874 : nach Weyprecht's Beobachtungen",
        "querystring": "v1877_00.tif",
        "truncPath": "1877-austro-hungarian-8-2",
        "filename": "1877_austro_hungarian_8_2.json"
    },
    {
        "cortexId": "NL1UMVN",
        "cortexUrl": "https://collections.newberry.org/asset-management/2KXJ8ZWQKZ_U",
        "cortexParentId": "NL1UMRC",
        "iiifId": "https://collections.newberry.org/IIIF3/Presentation/Canvas/2KXJ8ZWQKZ_U",
        "title": "W. 1/2 of N.W. 1/4, section 33.40.14 : Canal Trustees sub. of part of sec. 33.40.14",
        "querystring": "998758518805867_MM14-0136_baskes_g4104_c6_1886_r6_vol_3_03_wc.tif",
        "truncPath": "mapping-migration-9",
        "filename": "main_mapping_migration_9.json"
    },
    {
        "cortexId": "NL1UMVL",
        "cortexUrl": "https://collections.newberry.org/asset-management/2KXJ8ZWQKQ_P",
        "cortexParentId": "NL1UMRC",
        "iiifId": "https://collections.newberry.org/IIIF3/Presentation/Canvas/2KXJ8ZWQKQ_P",
        "title": "Distribution of those engaged in certain selected occupations, by color and nationality, 1890",
        "querystring": "998758618805867_MM14-0134govt_i_12_2_at6_03.tif",
        "truncPath": "mapping-migration-14",
        "filename": "main_mapping_migration_14.json"
    },
    {
        "cortexId": "NL1UMVJ",
        "cortexUrl": "https://collections.newberry.org/asset-management/2KXJ8ZWQKH_B",
        "cortexParentId": "NL1UMRC",
        "iiifId": "https://collections.newberry.org/IIIF3/Presentation/Canvas/2KXJ8ZWQKH_B",
        "title": "Mount Vesuvius, as seen from the Bay of Naples",
        "querystring": "998774118805867_MM18-0174_a_21_737_v5_00s.tif",
        "truncPath": "1820-ships-and-navigation-3",
        "filename": "1820_ships_and_navigation_3.json"
    },
    {
        "cortexId": "NL1UMVG",
        "cortexUrl": "https://collections.newberry.org/asset-management/2KXJ8ZWQKR_Q",
        "cortexParentId": "NL1UMRC",
        "iiifId": "https://collections.newberry.org/IIIF3/Presentation/Canvas/2KXJ8ZWQKR_Q",
        "title": "Quadrant and sextant of reflection",
        "querystring": "998766738805867_MM18-0173_l_995_111_03.tif",
        "truncPath": "navigating-the-coasts-and-seas-2",
        "filename": "main_navigating_the_coasts_and_seas_2.json"
    },
    {
        "cortexId": "NL1UMVC",
        "cortexUrl": "https://collections.newberry.org/asset-management/2KXJ8ZWQKT_W",
        "cortexParentId": "NL1UMRC",
        "iiifId": "https://collections.newberry.org/IIIF3/Presentation/Canvas/2KXJ8ZWQKT_W",
        "title": "Topographicall description and admeasurement of the yland of Barbados in the West Indyaes : with the mrs. names of the seureall plantacons",
        "querystring": "998732608805867_MM15-0143_ayer_1000_5_b22_l7_1657.tif",
        "truncPath": "1657-island-barbados-7",
        "filename": "1657_island_barbados_7.json"
    },
    {
        "cortexId": "NL1UMVB",
        "cortexUrl": "https://collections.newberry.org/asset-management/2KXJ8ZWQKL_U",
        "cortexParentId": "NL1UMRC",
        "iiifId": "https://collections.newberry.org/IIIF3/Presentation/Canvas/2KXJ8ZWQKL_U",
        "title": "New England : the most remarqueable parts thus named by the high and mighty Prince Charles, Prince of Great Britaine",
        "querystring": "998732618805867_MM15-0142_ayer_150_5_n4_s6_1616_01.tif",
        "truncPath": "1616-new-england-3",
        "filename": "1616_new_england_3.json"
    },
    {
        "cortexId": "NL1UMVA",
        "cortexUrl": "https://collections.newberry.org/asset-management/2KXJ8ZWQKG_W",
        "cortexParentId": "NL1UMRC",
        "iiifId": "https://collections.newberry.org/IIIF3/Presentation/Canvas/2KXJ8ZWQKG_W",
        "title": "Map of the route to California : compiled from accurate observations and surveys by government",
        "querystring": "998758458805867_MM14-0133_GR_4538_01.TIF",
        "truncPath": "1849-route-california-3",
        "filename": "1849_route_california_3.json"
    },
    {
        "cortexId": "NL1UMV9",
        "cortexUrl": "https://collections.newberry.org/asset-management/2KXJ8ZWQKK_K",
        "cortexParentId": "NL1UMRC",
        "iiifId": "https://collections.newberry.org/IIIF3/Presentation/Canvas/2KXJ8ZWQKK_K",
        "title": "New England : the most remarqueable parts thus named by the high and mighty Prince Charles, Prince of Great Britaine",
        "querystring": "998732618805867_MM15-0142_ayer_150_5_n4_s6_1616_01.tif",
        "truncPath": "1616-new-england-3",
        "filename": "1616_new_england_3.json"
    },
    {
        "cortexId": "NL1UMUX",
        "cortexUrl": "https://collections.newberry.org/asset-management/2KXJ8ZWQK5_D",
        "cortexParentId": "NL1UMRC",
        "iiifId": "https://collections.newberry.org/IIIF3/Presentation/Canvas/2KXJ8ZWQK5_D",
        "title": "South America sketch map showing the route of Prof. Hiram Bingham from Caracas to Bogota, 1907",
        "querystring": "998724268805867_MM19-0182_ayer_1300_5_c7_b61_1909_map.tif",
        "truncPath": "1909-route-bogota-9",
        "filename": "1909_route_bogota_9.json"
    },
    {
        "cortexId": "NL1UMUR",
        "cortexUrl": "https://collections.newberry.org/asset-management/2KXJ8ZWP5ZHW",
        "cortexParentId": "NL1UMRC",
        "iiifId": "https://collections.newberry.org/IIIF3/Presentation/Canvas/2KXJ8ZWP5ZHW",
        "title": "Mexico City routes for entering and leaving",
        "querystring": "998723608805867_MM19-0184_F_1209_T65_1938_01.tif",
        "truncPath": "1938-motorists-mexico-12",
        "filename": "1938_motorists_mexico_12.json"
    },
    {
        "cortexId": "NL1UMUE",
        "cortexUrl": "https://collections.newberry.org/asset-management/2KXJ8ZWP5OK2",
        "cortexParentId": "NL1UMRC",
        "iiifId": "https://collections.newberry.org/IIIF3/Presentation/Canvas/2KXJ8ZWP5OK2",
        "title": "Freight rates charged for the transportation of articles classed as first class in the classification as noted below via rail and via river from St....",
        "querystring": "998715628805867_MM13-0125_Govt.",
        "truncPath": "1908-freight-rates-inland-5-1",
        "filename": "1908_freight_rates_inland_5_1.json"
    },
    {
        "cortexId": "NL1UMUA",
        "cortexUrl": "https://collections.newberry.org/asset-management/2KXJ8ZWP5JYB",
        "cortexParentId": "NL1UMRC",
        "iiifId": "https://collections.newberry.org/IIIF3/Presentation/Canvas/2KXJ8ZWP5JYB",
        "title": "Map of the Hudson River",
        "querystring": "998713858805867_MM12-0115_baskes_e_158_p91_1848_01.tif",
        "truncPath": "1848-travel-guide-hudson-7",
        "filename": "1848_travel_guide_hudson_7.json"
    },
    {
        "cortexId": "NL1UMU1",
        "cortexUrl": "https://collections.newberry.org/asset-management/2KXJ8ZWP5UXD",
        "cortexParentId": "NL1UMRC",
        "iiifId": "https://collections.newberry.org/IIIF3/Presentation/Canvas/2KXJ8ZWP5UXD",
        "title": "Carte geographique de la Nouuelle Franse",
        "querystring": "998668988805867_MM08-0074_ayer_121_c6_1613_001.tif",
        "truncPath": "1612-new-france-2-1",
        "filename": "1612_new_france_2_1.json"
    },
    {
        "cortexId": "NL1UMSX",
        "cortexUrl": "https://collections.newberry.org/asset-management/2KXJ8ZWP4B12",
        "cortexParentId": "NL1UMTK",
        "iiifId": "https://collections.newberry.org/IIIF3/Presentation/Canvas/2KXJ8ZWP4B12",
        "title": "Rand McNally & Co.'s road map of the country around New York including parts of northern and central New Jersey, Westchester County, Long Island,...",
        "querystring": "998643918805867_MM06-0053_map_6f_g3804_n4a1_1895_r3_003.tif",
        "truncPath": "planning-transportation-5",
        "filename": "main_planning_transportation_5.json"
    },
    {
        "cortexId": "NL1UMSV",
        "cortexUrl": "https://collections.newberry.org/asset-management/2KXJ8ZWPSL1W",
        "cortexParentId": "NL1UMTK",
        "iiifId": "https://collections.newberry.org/IIIF3/Presentation/Canvas/2KXJ8ZWPSL1W",
        "title": "Rand McNally & Co.'s road map of the country around New York including parts of northern and central New Jersey, Westchester County, Long Island,...",
        "querystring": "998643918805867_MM06-0053_map_6f_g3804_n4a1_1895_r3_002.tif",
        "truncPath": "planning-transportation-4",
        "filename": "main_planning_transportation_4.json"
    },
    {
        "cortexId": "NL1UMRT",
        "cortexUrl": "https://collections.newberry.org/asset-management/2KXJ8ZWPH9CK",
        "cortexParentId": "NL1UMRR",
        "iiifId": "https://collections.newberry.org/IIIF3/Presentation/Canvas/2KXJ8ZWPH9CK",
        "title": "General map of the Pennsylvania Railroad and its connections",
        "querystring": "998367918805867_MM01-0009_map_4f_g3701_p3_1876_r3_002.tif",
        "truncPath": "american-railroad-maps-1828-1876-26",
        "filename": "main_american_railroad_maps_1828_1876_26.json"
    },
    {
        "cortexId": "NL1UL3S",
        "cortexUrl": "https://collections.newberry.org/asset-management/2KXJ8ZWPGR35",
        "cortexParentId": "NL1NMU0",
        "iiifId": "https://collections.newberry.org/IIIF3/Presentation/Canvas/2KXJ8ZWPGR35",
        "title": "Railroad map of Georgia 1916",
        "querystring": "998497288805867_MM03-0025_map_roll_g3921_p3_1916_g4.tif",
        "truncPath": "1916-georgia-railroad-12",
        "filename": "1916_georgia_railroad_12.json"
    },
    {
        "cortexId": "NL1UL3N",
        "cortexUrl": "https://collections.newberry.org/asset-management/2KXJ8ZWPKE3X",
        "cortexParentId": "NL1NMU0",
        "iiifId": "https://collections.newberry.org/IIIF3/Presentation/Canvas/2KXJ8ZWPKE3X",
        "title": "Map of steamship routes of the world",
        "querystring": "999421498805867_MM03-0027_rmcn_atlas_a73_1925_002.tif",
        "truncPath": "1925-atlas-of-traffic-maps-3",
        "filename": "1925_atlas_of_traffic_maps_3.json"
    },
    {
        "cortexId": "NL1UL3E",
        "cortexUrl": "https://collections.newberry.org/asset-management/2KXJ8ZWPKS6B",
        "cortexParentId": "NL1UL3F",
        "iiifId": "https://collections.newberry.org/IIIF3/Presentation/Canvas/2KXJ8ZWPKS6B",
        "title": "Intercity railroad passenger routes",
        "querystring": "999421538805867_MM03-0029_he_1805_a58_1971_002.tif",
        "truncPath": "american-railroad-maps-1873-2012-1",
        "filename": "main_american_railroad_maps_1873_2012_1.json"
    },
    {
        "cortexId": "NL1UL37",
        "cortexUrl": "https://collections.newberry.org/asset-management/2KXJ8ZWPKPKP",
        "cortexParentId": "NL1UL38",
        "iiifId": "https://collections.newberry.org/IIIF3/Presentation/Canvas/2KXJ8ZWPKPKP",
        "title": "Map of part of the Dominion of Canada illustrating the use of the Canadian Pacific Railway in the movement of troops to quell the North-West troubles...",
        "querystring": "998497298805867_MM03-0022_map_4f_g3401_s57_1886_c3_002.tif",
        "truncPath": "american-railroad-maps-1873-2012-11",
        "filename": "main_american_railroad_maps_1873_2012_11.json"
    },
    {
        "cortexId": "NL1TQ3F",
        "cortexUrl": "https://collections.newberry.org/asset-management/2KXJ8ZXHUC5E",
        "cortexParentId": "NL1TQ3C",
        "iiifId": "https://collections.newberry.org/IIIF3/Presentation/Canvas/2KXJ8ZXHUC5E",
        "title": "Boston and Albany Railroad survey profiles from Boston to New York State line at Canaan",
        "querystring": "998368338805867_MM01-0001_case_h_66844_396_005.tif",
        "truncPath": "american-railroad-maps-1828-1876-4",
        "filename": "main_american_railroad_maps_1828_1876_4.json"
    },
    {
        "cortexId": "NL1TQ39",
        "cortexUrl": "https://collections.newberry.org/asset-management/2KXJ8ZXHUEW3",
        "cortexParentId": "NL1NMU0",
        "iiifId": "https://collections.newberry.org/IIIF3/Presentation/Canvas/2KXJ8ZXHUEW3",
        "title": "Carte des États-unis d'Amérique, 1836",
        "querystring": "998366288805867_MM01-0002_h_6083_16_001.tif",
        "truncPath": "1836-vision-us-rr-5",
        "filename": "1836_vision_us_rr_5.json"
    },
    {
        "cortexId": "NL1UNF1",
        "cortexUrl": "https://collections.newberry.org/asset-management/2KXJ8ZWQ9EYW",
        "cortexParentId": "NL1UNF3",
        "iiifId": "https://collections.newberry.org/IIIF3/Presentation/Canvas/2KXJ8ZWQ9EYW",
        "title": "This represents the Charecke Nation by Col. Herberts map & my own observations with the path to Charles Town, its course & (distance measured by my...",
        "querystring": "994894278805867_MM09-0083_Ayer_map4F_G3860_1730_H8_1917_005.tif",
        "truncPath": "moving-pictures-6",
        "filename": "main_moving_pictures_6.json"
    },
    {
        "cortexId": "NL1UNEB",
        "cortexUrl": "https://collections.newberry.org/asset-management/2KXJ8ZWQ7SG4",
        "cortexParentId": "NL1UMRC",
        "iiifId": "https://collections.newberry.org/IIIF3/Presentation/Canvas/2KXJ8ZWQ7SG4",
        "title": "Map of the military district, Kansas and the territories",
        "querystring": "991410948805867_MM05-0046_case_ms_g4050_1866_d6_002.tif",
        "truncPath": "state-and-federal-13",
        "filename": "main_state_and_federal_13.json"
    },
    {
        "cortexId": "NL1UN4K",
        "cortexUrl": "https://collections.newberry.org/asset-management/2KXJ8ZWQ76MU",
        "cortexParentId": "NL1UMRC",
        "iiifId": "https://collections.newberry.org/IIIF3/Presentation/Canvas/2KXJ8ZWQ76MU",
        "title": "Plan for New York City, 1969 : a proposal",
        "querystring": "99839558805867_MM06-0060_ht_168_n5_a5_1969_001.tif",
        "truncPath": "1969-plan-nyc-18",
        "filename": "1969_plan_nyc_18.json"
    },
    {
        "cortexId": "NL1UMVR",
        "cortexUrl": "https://collections.newberry.org/asset-management/2KXJ8ZWQKN_7",
        "cortexParentId": "NL1UMRC",
        "iiifId": "https://collections.newberry.org/IIIF3/Presentation/Canvas/2KXJ8ZWQKN_7",
        "title": "Karte des San Juan- od. Haro-Archipels : nach den Aufnahmen der Engl. Admiralität unter Kellett, Richards, &c. 1847, 1858 und 1859",
        "querystring": "v1859_02.tif",
        "truncPath": "navigating-the-coasts-and-seas-7-2",
        "filename": "main_navigating_the_coasts_and_seas_7_2.json"
    },
    {
        "cortexId": "NL1UMVO",
        "cortexUrl": "https://collections.newberry.org/asset-management/2KXJ8ZWQKX_O",
        "cortexParentId": "NL1UMVK",
        "iiifId": "https://collections.newberry.org/IIIF3/Presentation/Canvas/2KXJ8ZWQKX_O",
        "title": "New Jersey Intracoastal Waterway Little Egg Harbor to Longport",
        "querystring": "998716078805867_MM13-0129_map_6f_g3812_c6_1949_u55_02.tif",
        "truncPath": "waterways-cartography-part-2-13",
        "filename": "main_waterways_cartography_part_2_13.json"
    },
    {
        "cortexId": "NL1UMUO",
        "cortexUrl": "https://collections.newberry.org/asset-management/2KXJ8ZWP50L4",
        "cortexParentId": "NL1UMRC",
        "iiifId": "https://collections.newberry.org/IIIF3/Presentation/Canvas/2KXJ8ZWP50L4",
        "title": "Highways of Mexico",
        "querystring": "998723618805867_MM19-0184_F_1209_T65_1938_03.tif",
        "truncPath": "around-over-through-14",
        "filename": "main_around_over_through_14.json"
    },
    {
        "cortexId": "NL1UMU3",
        "cortexUrl": "https://collections.newberry.org/asset-management/2KXJ8ZWP52Q8",
        "cortexParentId": "NL1UMRC",
        "iiifId": "https://collections.newberry.org/IIIF3/Presentation/Canvas/2KXJ8ZWP52Q8",
        "title": "Globe gore of eastern North America, from Hudson Bay to the Gulf of Mexico",
        "querystring": "998670108805867_MM08-0076_map_2f_g3300_1688_c6.tif",
        "truncPath": "1688-globe-gore-of-eastern-north-america-5",
        "filename": "1688_globe_gore_of_eastern_north_america_5.json"
    },
    {
        "cortexId": "NL1UMTP",
        "cortexUrl": "https://collections.newberry.org/asset-management/2KXJ8ZWP4QBK",
        "cortexParentId": "NL1UMRC",
        "iiifId": "https://collections.newberry.org/IIIF3/Presentation/Canvas/2KXJ8ZWP4QBK",
        "title": "Map of the East River waterfront from Grand Street to Thirty-fourth Street in New York City",
        "querystring": "998645668805867_MM06-0051_H_67_622_map",
        "truncPath": "planning-transportation-1-1",
        "filename": "main_planning_transportation_1_1.json"
    },
    {
        "cortexId": "NL1UMT0",
        "cortexUrl": "https://collections.newberry.org/asset-management/2KXJ8ZWP4MT9",
        "cortexParentId": "NL1UMTP",
        "iiifId": "https://collections.newberry.org/IIIF3/Presentation/Canvas/2KXJ8ZWP4MT9",
        "title": "Map of the East River waterfront from Grand Street to Thirty-fourth Street in New York City",
        "querystring": "998645668805867_MM06-0051_H_67_622_map",
        "truncPath": "planning-transportation-1-1",
        "filename": "main_planning_transportation_1_1.json"
    }
]