[{
        "CoreField.Identifier": "NL1UMUT",
        "Document.CortexParentLink": "https://collections.newberry.org/asset-management/2KXJ8ZWPVDTO",
        "Document.CortexShareLink": "https://collections.newberry.org/asset-management/2KXJ8ZWP5VZ4",
        "Document.ParentIdentifier": "NL1UMRC",
        "CoreField.IIIFResourceType": "Canvas",
        "Document.IIIFV3ID": "https://collections.newberry.org/IIIF3/Presentation/Canvas/2KXJ8ZWP5VZ4",
        "originalfilename": "998731588805867_MM15-0141_Ayer_107_56_1493_1494_01.tif",
        "RelatedValue.Original-Filename": "",
        "CoreField.OriginalFileName": "998731588805867_MM15-0141_Ayer_107_56_1493_1494_01.tif",
        "Title": "Insula Hyspana"
    }, {
        "CoreField.Identifier": "NL1UNYJ",
        "Document.CortexParentLink": "https://collections.newberry.org/asset-management/2KXJ8ZWPVDTO",
        "Document.CortexShareLink": "https://collections.newberry.org/asset-management/2KXJ8ZWQSCPU",
        "Document.ParentIdentifier": "NL1UMRC",
        "CoreField.IIIFResourceType": "Canvas",
        "Document.IIIFV3ID": "https://collections.newberry.org/IIIF3/Presentation/Canvas/2KXJ8ZWQSCPU",
        "originalfilename": "MM08-0071-01_Final.tif",
        "RelatedValue.Original-Filename": "",
        "CoreField.OriginalFileName": "MM08-0071-01_Final.tif",
        "Title": "Nautical chart of the Pacific coast of Mexico, Baja California, and the Gulf of California"
    }, {
        "CoreField.Identifier": "NL1UNYL",
        "Document.CortexParentLink": "https://collections.newberry.org/asset-management/2KXJ8ZWPVDTO",
        "Document.CortexShareLink": "https://collections.newberry.org/asset-management/2KXJ8ZWQS8VP",
        "Document.ParentIdentifier": "NL1UMRC",
        "CoreField.IIIFResourceType": "Canvas",
        "Document.IIIFV3ID": "https://collections.newberry.org/IIIF3/Presentation/Canvas/2KXJ8ZWQS8VP",
        "originalfilename": "MM08-0072-01_Final.tif",
        "RelatedValue.Original-Filename": "",
        "CoreField.OriginalFileName": "MM08-0072-01_Final.tif",
        "Title": "Florida et Apalche"
    }, {
        "CoreField.Identifier": "NL1UNYN",
        "Document.CortexParentLink": "https://collections.newberry.org/asset-management/2KXJ8ZWPVDTO",
        "Document.CortexShareLink": "https://collections.newberry.org/asset-management/2KXJ8ZWQSX0P",
        "Document.ParentIdentifier": "NL1UMRC",
        "CoreField.IIIFResourceType": "Canvas",
        "Document.IIIFV3ID": "https://collections.newberry.org/IIIF3/Presentation/Canvas/2KXJ8ZWQSX0P",
        "originalfilename": "MM08-0073-01_Final.tif",
        "RelatedValue.Original-Filename": "",
        "CoreField.OriginalFileName": "MM08-0073-01_Final.tif",
        "Title": "Virginia"
    }, {
        "CoreField.Identifier": "NL1UNEC",
        "Document.CortexParentLink": "https://collections.newberry.org/asset-management/2KXJ8ZWPVDTO",
        "Document.CortexShareLink": "https://collections.newberry.org/asset-management/2KXJ8ZWQ7DI2",
        "Document.ParentIdentifier": "NL1UMRC",
        "CoreField.IIIFResourceType": "Canvas",
        "Document.IIIFV3ID": "https://collections.newberry.org/IIIF3/Presentation/Canvas/2KXJ8ZWQ7DI2",
        "originalfilename": "991578408805867_MM09-0082_graff_2855.tif",
        "RelatedValue.Original-Filename": "",
        "CoreField.OriginalFileName": "991578408805867_MM09-0082_graff_2855.tif",
        "Title": "New map of the north parts of America claimed by France under the names of Louisiana, Mississipi, Canada and New France, with the adjoyning..."
    }, {
        "CoreField.Identifier": "NL1UN4B",
        "Document.CortexParentLink": "https://collections.newberry.org/asset-management/2KXJ8ZWPVDTO",
        "Document.CortexShareLink": "https://collections.newberry.org/asset-management/2KXJ8ZWQVZ7I",
        "Document.ParentIdentifier": "NL1UMRC",
        "CoreField.IIIFResourceType": "Canvas",
        "Document.IIIFV3ID": "https://collections.newberry.org/IIIF3/Presentation/Canvas/2KXJ8ZWQVZ7I",
        "originalfilename": "991759858805867_MM19-0189_Ayer_MS_map_30_sheet_78.tif",
        "RelatedValue.Original-Filename": "",
        "CoreField.OriginalFileName": "991759858805867_MM19-0189_Ayer_MS_map_30_sheet_78.tif",
        "Title": "Carte de la coste de la Louisiane, depuis la Baye de St. Bernard jusqu\u0027a celle de Saint Joseph ou tous les ports, rades, et bons mouillages sont..."
    }, {
        "CoreField.Identifier": "NL1UNF3",
        "Document.CortexParentLink": "https://collections.newberry.org/asset-management/2KXJ8ZWPVDTO",
        "Document.CortexShareLink": "https://collections.newberry.org/asset-management/2KXJ8ZWQ924D",
        "Document.ParentIdentifier": "NL1UMRC",
        "CoreField.IIIFResourceType": "Canvas",
        "Document.IIIFV3ID": "https://collections.newberry.org/IIIF3/Presentation/Canvas/2KXJ8ZWQ924D",
        "originalfilename": "994894278805867_MM09-0083_Ayer_map4F_G3860_1730_H8_1917_001.tif",
        "RelatedValue.Original-Filename": "",
        "CoreField.OriginalFileName": "994894278805867_MM09-0083_Ayer_map4F_G3860_1730_H8_1917_001.tif",
        "Title": "This represents the Charecke Nation by Col. Herberts map & my own observations with the path to Charles Town, its course & (distance measured by my..."
    }, {
        "CoreField.Identifier": "NL1UNZ5",
        "Document.CortexParentLink": "https://collections.newberry.org/asset-management/2KXJ8ZWPVDTO",
        "Document.CortexShareLink": "https://collections.newberry.org/asset-management/2KXJ8ZWQSKH5",
        "Document.ParentIdentifier": "NL1UMRC",
        "CoreField.IIIFResourceType": "Canvas",
        "Document.IIIFV3ID": "https://collections.newberry.org/IIIF3/Presentation/Canvas/2KXJ8ZWQSKH5",
        "originalfilename": "MM09-0085-01_Final.tif",
        "RelatedValue.Original-Filename": "",
        "CoreField.OriginalFileName": "MM09-0085-01_Final.tif",
        "Title": "Map of the most inhabited part of Virginia containing the whole province of Maryland with part of Pensilvania, New Jersey and North Carolina"
    }, {
        "CoreField.Identifier": "NL1UNZY",
        "Document.CortexParentLink": "https://collections.newberry.org/asset-management/2KXJ8ZWPVDTO",
        "Document.CortexShareLink": "https://collections.newberry.org/asset-management/2KXJ8ZWQTXYP",
        "Document.ParentIdentifier": "NL1UMRC",
        "CoreField.IIIFResourceType": "Canvas",
        "Document.IIIFV3ID": "https://collections.newberry.org/IIIF3/Presentation/Canvas/2KXJ8ZWQTXYP",
        "originalfilename": "MM09-0087-01_Final.tif",
        "RelatedValue.Original-Filename": "",
        "CoreField.OriginalFileName": "MM09-0087-01_Final.tif",
        "Title": "Map of South Carolina and a part of Georgia containing the whole sea-coast, all the islands, inlets, rivers, creeks, parishes, townships, boroughs,..."
    }, {
        "CoreField.Identifier": "NL1UNFF",
        "Document.CortexParentLink": "https://collections.newberry.org/asset-management/2KXJ8ZWPVDTO",
        "Document.CortexShareLink": "https://collections.newberry.org/asset-management/2KXJ8ZWQ9JS4",
        "Document.ParentIdentifier": "NL1UMRC",
        "CoreField.IIIFResourceType": "Canvas",
        "Document.IIIFV3ID": "https://collections.newberry.org/IIIF3/Presentation/Canvas/2KXJ8ZWQ9JS4",
        "originalfilename": "995096398805867_MM08-0078_ayer_133_l772_1761.tif",
        "RelatedValue.Original-Filename": "",
        "CoreField.OriginalFileName": "995096398805867_MM08-0078_ayer_133_l772_1761.tif",
        "Title": "Map of the discoveries made by the Russians on the north west coast of America"
    }, {
        "CoreField.Identifier": "NL1UNZW",
        "Document.CortexParentLink": "https://collections.newberry.org/asset-management/2KXJ8ZWPVDTO",
        "Document.CortexShareLink": "https://collections.newberry.org/asset-management/2KXJ8ZWQT8EP",
        "Document.ParentIdentifier": "NL1UMRC",
        "CoreField.IIIFResourceType": "Canvas",
        "Document.IIIFV3ID": "https://collections.newberry.org/IIIF3/Presentation/Canvas/2KXJ8ZWQT8EP",
        "originalfilename": "MM09-0086-01_Final.tif",
        "RelatedValue.Original-Filename": "",
        "CoreField.OriginalFileName": "MM09-0086-01_Final.tif",
        "Title": "An accurate map of North and South Carolina with their Indian frontiers shewing in a distinct manner all the mountains, rivers, swamps, marshes, bays,..."
    }, {
        "CoreField.Identifier": "NL1UN4C",
        "Document.CortexParentLink": "https://collections.newberry.org/asset-management/2KXJ8ZWPVDTO",
        "Document.CortexShareLink": "https://collections.newberry.org/asset-management/2KXJ8ZWQ79PQ",
        "Document.ParentIdentifier": "NL1UMRC",
        "CoreField.IIIFResourceType": "Canvas",
        "Document.IIIFV3ID": "https://collections.newberry.org/IIIF3/Presentation/Canvas/2KXJ8ZWQ79PQ",
        "originalfilename": "991462688805867_MM20-0191_vault_ayer_map_ms_map_228_sheet_05.tif",
        "RelatedValue.Original-Filename": "",
        "CoreField.OriginalFileName": "991462688805867_MM20-0191_vault_ayer_map_ms_map_228_sheet_05.tif",
        "Title": "Map of the Southern Indian District of North America"
    }, {
        "CoreField.Identifier": "NL1UNZA",
        "Document.CortexParentLink": "https://collections.newberry.org/asset-management/2KXJ8ZWPVDTO",
        "Document.CortexShareLink": "https://collections.newberry.org/asset-management/2KXJ8ZWQTSR4",
        "Document.ParentIdentifier": "NL1UMRC",
        "CoreField.IIIFResourceType": "Canvas",
        "Document.IIIFV3ID": "https://collections.newberry.org/IIIF3/Presentation/Canvas/2KXJ8ZWQTSR4",
        "originalfilename": "MM09-0089-01_Final.tif",
        "RelatedValue.Original-Filename": "",
        "CoreField.OriginalFileName": "MM09-0089-01_Final.tif",
        "Title": "The seat of war in New England"
    }, {
        "CoreField.Identifier": "NL1UNZX",
        "Document.CortexParentLink": "https://collections.newberry.org/asset-management/2KXJ8ZWPVDTO",
        "Document.CortexShareLink": "https://collections.newberry.org/asset-management/2KXJ8ZWQTJ14",
        "Document.ParentIdentifier": "NL1UMRC",
        "CoreField.IIIFResourceType": "Canvas",
        "Document.IIIFV3ID": "https://collections.newberry.org/IIIF3/Presentation/Canvas/2KXJ8ZWQTJ14",
        "originalfilename": "MM09-0090-01_Final.tif",
        "RelatedValue.Original-Filename": "",
        "CoreField.OriginalFileName": "MM09-0090-01_Final.tif",
        "Title": "The harbour of Charles Town in South-Carolina"
    }, {
        "CoreField.Identifier": "NL1UNYA",
        "Document.CortexParentLink": "https://collections.newberry.org/asset-management/2KXJ8ZWPVDTO",
        "Document.CortexShareLink": "https://collections.newberry.org/asset-management/2KXJ8ZWQS2ND",
        "Document.ParentIdentifier": "NL1UMRC",
        "CoreField.IIIFResourceType": "Canvas",
        "Document.IIIFV3ID": "https://collections.newberry.org/IIIF3/Presentation/Canvas/2KXJ8ZWQS2ND",
        "originalfilename": "MM07-0061-01_Final.tif",
        "RelatedValue.Original-Filename": "",
        "CoreField.OriginalFileName": "MM07-0061-01_Final.tif",
        "Title": "Plan de la Provincia Interna del Nuevo Mexico que hizo por mandato del Teniente Coronel de Caballeria, gobernador y comandante general de dicha..."
    }, {
        "CoreField.Identifier": "NL1UO0Z",
        "Document.CortexParentLink": "https://collections.newberry.org/asset-management/2KXJ8ZWPVDTO",
        "Document.CortexShareLink": "https://collections.newberry.org/asset-management/2KXJ8ZWQP97Q",
        "Document.ParentIdentifier": "NL1UMRC",
        "CoreField.IIIFResourceType": "Canvas",
        "Document.IIIFV3ID": "https://collections.newberry.org/IIIF3/Presentation/Canvas/2KXJ8ZWQP97Q",
        "originalfilename": "MM09-0088-01_Full_Final.tif",
        "RelatedValue.Original-Filename": "",
        "CoreField.OriginalFileName": "MM09-0088-01_Full_Final.tif",
        "Title": "Map of South Carolina and a part of Georgia containing the whole sea-coast, all the islands, inlets, rivers, creeks, parishes, townships, boroughs,..."
    }, {
        "CoreField.Identifier": "NL1UNYS",
        "Document.CortexParentLink": "https://collections.newberry.org/asset-management/2KXJ8ZWPVDTO",
        "Document.CortexShareLink": "https://collections.newberry.org/asset-management/2KXJ8ZWQS13K",
        "Document.ParentIdentifier": "NL1UMRC",
        "CoreField.IIIFResourceType": "Canvas",
        "Document.IIIFV3ID": "https://collections.newberry.org/IIIF3/Presentation/Canvas/2KXJ8ZWQS13K",
        "originalfilename": "MM08-0080-03_Final.tif",
        "RelatedValue.Original-Filename": "",
        "CoreField.OriginalFileName": "MM08-0080-03_Final.tif",
        "Title": "Map of America between latitudes 40 and 70 north and longitudes 45 and 180 west, exhibiting Mackenzie\u0027s track from Montreal to Fort Chipewyan & from..."
    }, {
        "CoreField.Identifier": "NL1UNYU",
        "Document.CortexParentLink": "https://collections.newberry.org/asset-management/2KXJ8ZWPVDTO",
        "Document.CortexShareLink": "https://collections.newberry.org/asset-management/2KXJ8ZWQS4AD",
        "Document.ParentIdentifier": "NL1UMRC",
        "CoreField.IIIFResourceType": "Canvas",
        "Document.IIIFV3ID": "https://collections.newberry.org/IIIF3/Presentation/Canvas/2KXJ8ZWQS4AD",
        "originalfilename": "MM05-0040-01.tif",
        "RelatedValue.Original-Filename": "",
        "CoreField.OriginalFileName": "MM05-0040-01.tif",
        "Title": "Plan of the rapids of Ohio, at low water, showing the islands, rocks, sands, currents, shores, and the route of the canal"
    }, {
        "CoreField.Identifier": "NL1UO28",
        "Document.CortexParentLink": "https://collections.newberry.org/asset-management/2KXJ8ZWPVDTO",
        "Document.CortexShareLink": "https://collections.newberry.org/asset-management/2KXJ8ZWQ2ML7",
        "Document.ParentIdentifier": "NL1UMRC",
        "CoreField.IIIFResourceType": "Canvas",
        "Document.IIIFV3ID": "https://collections.newberry.org/IIIF3/Presentation/Canvas/2KXJ8ZWQ2ML7",
        "originalfilename": "MM12-0113-01_Final.tif",
        "RelatedValue.Original-Filename": "",
        "CoreField.OriginalFileName": "MM12-0113-01_Final.tif",
        "Title": "United States of America"
    }, {
        "CoreField.Identifier": "NL1UNYG",
        "Document.CortexParentLink": "https://collections.newberry.org/asset-management/2KXJ8ZWPVDTO",
        "Document.CortexShareLink": "https://collections.newberry.org/asset-management/2KXJ8ZWQSQSQ",
        "Document.ParentIdentifier": "NL1UMRC",
        "CoreField.IIIFResourceType": "Canvas",
        "Document.IIIFV3ID": "https://collections.newberry.org/IIIF3/Presentation/Canvas/2KXJ8ZWQSQSQ",
        "originalfilename": "MM07-0063-01_Final.tif",
        "RelatedValue.Original-Filename": "",
        "CoreField.OriginalFileName": "MM07-0063-01_Final.tif",
        "Title": "Map of Texas with parts of the adjoining states"
    }, {
        "CoreField.Identifier": "NL1UNES",
        "Document.CortexParentLink": "https://collections.newberry.org/asset-management/2KXJ8ZWPVDTO",
        "Document.CortexShareLink": "https://collections.newberry.org/asset-management/2KXJ8ZWQ7IK8",
        "Document.ParentIdentifier": "NL1UMRC",
        "CoreField.IIIFResourceType": "Canvas",
        "Document.IIIFV3ID": "https://collections.newberry.org/IIIF3/Presentation/Canvas/2KXJ8ZWQ7IK8",
        "originalfilename": "991578698805867_MM15-0146_graff_1290.tif",
        "RelatedValue.Original-Filename": "",
        "CoreField.OriginalFileName": "991578698805867_MM15-0146_graff_1290.tif",
        "Title": "Improved map of the territories of Michigan and Ouisconsin (pronounced Wisconsin)"
    }, {
        "CoreField.Identifier": "NL1UMT0",
        "Document.CortexParentLink": "https://collections.newberry.org/asset-management/2KXJ8ZWP4QBK",
        "Document.CortexShareLink": "https://collections.newberry.org/asset-management/2KXJ8ZWP4MT9",
        "Document.ParentIdentifier": "NL1UMTP",
        "CoreField.IIIFResourceType": "Canvas",
        "Document.IIIFV3ID": "https://collections.newberry.org/IIIF3/Presentation/Canvas/2KXJ8ZWP4MT9",
        "originalfilename": "998645668805867_MM06-0051_H_67_622_map 2_001.tif",
        "RelatedValue.Original-Filename": "",
        "CoreField.OriginalFileName": "998645668805867_MM06-0051_H_67_622_map 2_001.tif",
        "Title": "Map of the East River waterfront from Grand Street to Thirty-fourth Street in New York City"
    }, {
        "CoreField.Identifier": "NL1UNEE",
        "Document.CortexParentLink": "https://collections.newberry.org/asset-management/2KXJ8ZWPVDTO",
        "Document.CortexShareLink": "https://collections.newberry.org/asset-management/2KXJ8ZWQ7Q7Q",
        "Document.ParentIdentifier": "NL1UMRC",
        "CoreField.IIIFResourceType": "Canvas",
        "Document.IIIFV3ID": "https://collections.newberry.org/IIIF3/Presentation/Canvas/2KXJ8ZWQ7Q7Q",
        "originalfilename": "MM05-0043_Ayer_119.1_w6_1838.tif",
        "RelatedValue.Original-Filename": "",
        "CoreField.OriginalFileName": "MM05-0043_Ayer_119.1_w6_1838.tif",
        "Title": "Map of the Oregon Territory"
    }, {
        "CoreField.Identifier": "NL1UND7",
        "Document.CortexParentLink": "https://collections.newberry.org/asset-management/2KXJ8ZWQ7A39",
        "Document.CortexShareLink": "https://collections.newberry.org/asset-management/2KXJ8ZWQ7NF9",
        "Document.ParentIdentifier": "NL1UNE8",
        "CoreField.IIIFResourceType": "Canvas",
        "Document.IIIFV3ID": "https://collections.newberry.org/IIIF3/Presentation/Canvas/2KXJ8ZWQ7NF9",
        "originalfilename": "991570248805867_MM05-0044_Graff_3360_001.tif",
        "RelatedValue.Original-Filename": "",
        "CoreField.OriginalFileName": "991570248805867_MM05-0044_Graff_3360_001.tif",
        "Title": "Topographical map of the road from Missouri to Oregon, commencing at the mouth of the Kansas in the Missouri River and ending at the mouth of the..."
    }, {
        "CoreField.Identifier": "NL1UNKN",
        "Document.CortexParentLink": "https://collections.newberry.org/asset-management/2KXJ8ZREHEHE",
        "Document.CortexShareLink": "https://collections.newberry.org/asset-management/2KXJ8ZWQ43CB",
        "Document.ParentIdentifier": "NL115BG6",
        "CoreField.IIIFResourceType": "Canvas",
        "Document.IIIFV3ID": "https://collections.newberry.org/IIIF3/Presentation/Canvas/2KXJ8ZWQ43CB",
        "originalfilename": "991562448805867_MM07-0064_MM07-0064_map_3c_g4050_1846_m5_002.tif",
        "RelatedValue.Original-Filename": "",
        "CoreField.OriginalFileName": "991562448805867_MM07-0064_MM07-0064_map_3c_g4050_1846_m5_002.tif",
        "Title": "New map of Texas, Oregon, and California with the regions adjoining"
    }, {
        "CoreField.Identifier": "NL1UO06",
        "Document.CortexParentLink": "https://collections.newberry.org/asset-management/2KXJ8ZWPVDTO",
        "Document.CortexShareLink": "https://collections.newberry.org/asset-management/2KXJ8ZWQTON1",
        "Document.ParentIdentifier": "NL1UMRC",
        "CoreField.IIIFResourceType": "Canvas",
        "Document.IIIFV3ID": "https://collections.newberry.org/IIIF3/Presentation/Canvas/2KXJ8ZWQTON1",
        "originalfilename": "MM12-0116-01_Final.tif",
        "RelatedValue.Original-Filename": "",
        "CoreField.OriginalFileName": "MM12-0116-01_Final.tif",
        "Title": "Map of the Hudson River : shewing location of proposed dams and jetties for permanently improving the navigation of the Hudson River"
    }, {
        "CoreField.Identifier": "NL1UO1S",
        "Document.CortexParentLink": "https://collections.newberry.org/asset-management/2KXJ8ZWPVDTO",
        "Document.CortexShareLink": "https://collections.newberry.org/asset-management/2KXJ8ZWQ20MR",
        "Document.ParentIdentifier": "NL1UMRC",
        "CoreField.IIIFResourceType": "Canvas",
        "Document.IIIFV3ID": "https://collections.newberry.org/IIIF3/Presentation/Canvas/2KXJ8ZWQ20MR",
        "originalfilename": "MM01-0006-03_1_2.tif",
        "RelatedValue.Original-Filename": "",
        "CoreField.OriginalFileName": "MM01-0006-03_1_2.tif",
        "Title": "Explorations and surveys for a rail road from the Mississippi River to the Pacific Ocean route near the 35th parallel. Map no. 2, from the Rio Grande..."
    }, {
        "CoreField.Identifier": "NL1UNZD",
        "Document.CortexParentLink": "https://collections.newberry.org/asset-management/2KXJ8ZWPVDTO",
        "Document.CortexShareLink": "https://collections.newberry.org/asset-management/2KXJ8ZWQTLDI",
        "Document.ParentIdentifier": "NL1UMRC",
        "CoreField.IIIFResourceType": "Canvas",
        "Document.IIIFV3ID": "https://collections.newberry.org/IIIF3/Presentation/Canvas/2KXJ8ZWQTLDI",
        "originalfilename": "MM01-0006-01_1_2.tif",
        "RelatedValue.Original-Filename": "",
        "CoreField.OriginalFileName": "MM01-0006-01_1_2.tif",
        "Title": "Explorations and surveys for a rail road route from the Mississippi River to the Pacific Ocean route near the 35th parallel. Map no. 1, From Fort..."
    }, {
        "CoreField.Identifier": "NL1UNFI",
        "Document.CortexParentLink": "https://collections.newberry.org/asset-management/2KXJ8ZWPVDTO",
        "Document.CortexShareLink": "https://collections.newberry.org/asset-management/2KXJ8ZWQ942D",
        "Document.ParentIdentifier": "NL1UMRC",
        "CoreField.IIIFResourceType": "Canvas",
        "Document.IIIFV3ID": "https://collections.newberry.org/IIIF3/Presentation/Canvas/2KXJ8ZWQ942D",
        "originalfilename": "998365368805867_MM01-0007_IC_map6F_G3701_P3_1854_P6_001.tif",
        "RelatedValue.Original-Filename": "",
        "CoreField.OriginalFileName": "998365368805867_MM01-0007_IC_map6F_G3701_P3_1854_P6_001.tif",
        "Title": "Map of all the railroads in the United States in operation and progress"
    }, {
        "CoreField.Identifier": "NL1UNYH",
        "Document.CortexParentLink": "https://collections.newberry.org/asset-management/2KXJ8ZWPVDTO",
        "Document.CortexShareLink": "https://collections.newberry.org/asset-management/2KXJ8ZWQSF5B",
        "Document.ParentIdentifier": "NL1UMRC",
        "CoreField.IIIFResourceType": "Canvas",
        "Document.IIIFV3ID": "https://collections.newberry.org/IIIF3/Presentation/Canvas/2KXJ8ZWQSF5B",
        "originalfilename": "MM07-0066-01_Final.tif",
        "RelatedValue.Original-Filename": "",
        "CoreField.OriginalFileName": "MM07-0066-01_Final.tif",
        "Title": "Skeleton map of the overland mail route to California"
    }, {
        "CoreField.Identifier": "NL1UNFD",
        "Document.CortexParentLink": "https://collections.newberry.org/asset-management/2KXJ8ZWPVDTO",
        "Document.CortexShareLink": "https://collections.newberry.org/asset-management/2KXJ8ZWQ9TGX",
        "Document.ParentIdentifier": "NL1UMRC",
        "CoreField.IIIFResourceType": "Canvas",
        "Document.IIIFV3ID": "https://collections.newberry.org/IIIF3/Presentation/Canvas/2KXJ8ZWQ9TGX",
        "originalfilename": "997396178805867_MM05-0045_map_6f_g4014_c6_2c5_1858_u5_001.tif",
        "RelatedValue.Original-Filename": "",
        "CoreField.OriginalFileName": "997396178805867_MM05-0045_map_6f_g4014_c6_2c5_1858_u5_001.tif",
        "Title": "Chicago harbor & bar, Illinois from survey made between the 17th of August & the 2nd of September 1858"
    }, {
        "CoreField.Identifier": "NL1UN4A",
        "Document.CortexParentLink": "https://collections.newberry.org/asset-management/2KXJ8ZWPVDTO",
        "Document.CortexShareLink": "https://collections.newberry.org/asset-management/2KXJ8ZWQVCDU",
        "Document.ParentIdentifier": "NL1UMRC",
        "CoreField.IIIFResourceType": "Canvas",
        "Document.IIIFV3ID": "https://collections.newberry.org/IIIF3/Presentation/Canvas/2KXJ8ZWQVCDU",
        "originalfilename": "991541658805867_MM07-0065_graff_1693_001.tif",
        "RelatedValue.Original-Filename": "",
        "CoreField.OriginalFileName": "991541658805867_MM07-0065_graff_1693_001.tif",
        "Title": "Guide to the Kansas gold mines at Pike\u0027s Peak : describing the routes, camping places, tools, outfits, etc."
    }, {
        "CoreField.Identifier": "NL1UO0V",
        "Document.CortexParentLink": "https://collections.newberry.org/asset-management/2KXJ8ZWPVDTO",
        "Document.CortexShareLink": "https://collections.newberry.org/asset-management/2KXJ8ZWQPF0B",
        "Document.ParentIdentifier": "NL1UMRC",
        "CoreField.IIIFResourceType": "Canvas",
        "Document.IIIFV3ID": "https://collections.newberry.org/IIIF3/Presentation/Canvas/2KXJ8ZWQPF0B",
        "originalfilename": "MM12-0117-01_Final.tif",
        "RelatedValue.Original-Filename": "",
        "CoreField.OriginalFileName": "MM12-0117-01_Final.tif",
        "Title": "Canada : canals and lakes"
    }, {
        "CoreField.Identifier": "NL1UO1F",
        "Document.CortexParentLink": "https://collections.newberry.org/asset-management/2KXJ8ZWPVDTO",
        "Document.CortexShareLink": "https://collections.newberry.org/asset-management/2KXJ8ZWQP5K8",
        "Document.ParentIdentifier": "NL1UMRC",
        "CoreField.IIIFResourceType": "Canvas",
        "Document.IIIFV3ID": "https://collections.newberry.org/IIIF3/Presentation/Canvas/2KXJ8ZWQP5K8",
        "originalfilename": "MM12-0118-01_Final.tif",
        "RelatedValue.Original-Filename": "",
        "CoreField.OriginalFileName": "MM12-0118-01_Final.tif",
        "Title": "Profiles of the New York State canals and feeders : showing the elevations of the same above tide water and the junction of the lateral canals with..."
    }, {
        "CoreField.Identifier": "NL1UNEK",
        "Document.CortexParentLink": "https://collections.newberry.org/asset-management/2KXJ8ZWPVDTO",
        "Document.CortexShareLink": "https://collections.newberry.org/asset-management/2KXJ8ZWQ7HJ7",
        "Document.ParentIdentifier": "NL1UMRC",
        "CoreField.IIIFResourceType": "Canvas",
        "Document.IIIFV3ID": "https://collections.newberry.org/IIIF3/Presentation/Canvas/2KXJ8ZWQ7HJ7",
        "originalfilename": "991410948805867_MM05-0046_case_ms_g4050_1866_d6_001.tif",
        "RelatedValue.Original-Filename": "",
        "CoreField.OriginalFileName": "991410948805867_MM05-0046_case_ms_g4050_1866_d6_001.tif",
        "Title": "Map of the military district, Kansas and the territories"
    }, {
        "CoreField.Identifier": "NL1UN49",
        "Document.CortexParentLink": "https://collections.newberry.org/asset-management/2KXJ8ZWPVDTO",
        "Document.CortexShareLink": "https://collections.newberry.org/asset-management/2KXJ8ZWQVIA8",
        "Document.ParentIdentifier": "NL1UMRC",
        "CoreField.IIIFResourceType": "Canvas",
        "Document.IIIFV3ID": "https://collections.newberry.org/IIIF3/Presentation/Canvas/2KXJ8ZWQVIA8",
        "originalfilename": "991679048805867_MM25-0243_Graff_4589.tif",
        "RelatedValue.Original-Filename": "",
        "CoreField.OriginalFileName": "991679048805867_MM25-0243_Graff_4589.tif",
        "Title": "Map of the California State Telegraph, and Overland Mail road : Austin to Great Salt Lake City : from actual survey, Aug., 1866"
    }, {
        "CoreField.Identifier": "NL1UO0T",
        "Document.CortexParentLink": "https://collections.newberry.org/asset-management/2KXJ8ZWPVDTO",
        "Document.CortexShareLink": "https://collections.newberry.org/asset-management/2KXJ8ZWQPPOO",
        "Document.ParentIdentifier": "NL1UMRC",
        "CoreField.IIIFResourceType": "Canvas",
        "Document.IIIFV3ID": "https://collections.newberry.org/IIIF3/Presentation/Canvas/2KXJ8ZWQPPOO",
        "originalfilename": "MM12-0120-01_Final.tif",
        "RelatedValue.Original-Filename": "",
        "CoreField.OriginalFileName": "MM12-0120-01_Final.tif",
        "Title": "Map of the American Central Water Line and other principal lines of communication between the western states, and the Atlantic seaboard"
    }, {
        "CoreField.Identifier": "NL1UNEL",
        "Document.CortexParentLink": "https://collections.newberry.org/asset-management/2KXJ8ZWPVDTO",
        "Document.CortexShareLink": "https://collections.newberry.org/asset-management/2KXJ8ZWQ75U8",
        "Document.ParentIdentifier": "NL1UMRC",
        "CoreField.IIIFResourceType": "Canvas",
        "Document.IIIFV3ID": "https://collections.newberry.org/IIIF3/Presentation/Canvas/2KXJ8ZWQ75U8",
        "originalfilename": "991572058805867_MM07-0069_graff_1040.tif",
        "RelatedValue.Original-Filename": "",
        "CoreField.OriginalFileName": "991572058805867_MM07-0069_graff_1040.tif",
        "Title": "Map of the territory of Montana with portions of the adjoining territories"
    }, {
        "CoreField.Identifier": "NL1UL2N",
        "Document.CortexParentLink": "https://collections.newberry.org/asset-management/2KXJ8ZWPKLJW",
        "Document.CortexShareLink": "https://collections.newberry.org/asset-management/2KXJ8ZWPKTHR",
        "Document.ParentIdentifier": "NL1UL2O",
        "CoreField.IIIFResourceType": "Canvas",
        "Document.IIIFV3ID": "https://collections.newberry.org/IIIF3/Presentation/Canvas/2KXJ8ZWPKTHR",
        "originalfilename": "998496138805867_MM03-0021_map_2f_g3742_w52p3_1879_p6_002.tif",
        "RelatedValue.Original-Filename": "",
        "CoreField.OriginalFileName": "998496138805867_MM03-0021_map_2f_g3742_w52p3_1879_p6_002.tif",
        "Title": "To and across the White Mountains via Portland & Ogdensburg Railroad"
    }, {
        "CoreField.Identifier": "NL1UNEW",
        "Document.CortexParentLink": "https://collections.newberry.org/asset-management/2KXJ8ZWPVDTO",
        "Document.CortexShareLink": "https://collections.newberry.org/asset-management/2KXJ8ZWQ90VR",
        "Document.ParentIdentifier": "NL1UMRC",
        "CoreField.IIIFResourceType": "Canvas",
        "Document.IIIFV3ID": "https://collections.newberry.org/IIIF3/Presentation/Canvas/2KXJ8ZWQ90VR",
        "originalfilename": "991847378805867_MM01-0010_map_4f_g4201_p3_1873_a7_001.tif",
        "RelatedValue.Original-Filename": "",
        "CoreField.OriginalFileName": "991847378805867_MM01-0010_map_4f_g4201_p3_1873_a7_001.tif",
        "Title": "Railroad lands in central and southwestern Kansas on eleven years\u0027 credit : the government grant of 3,000,000 acres to the Atchison, Topeka and Santa..."
    }, {
        "CoreField.Identifier": "NL1UN3Z",
        "Document.CortexParentLink": "https://collections.newberry.org/asset-management/2KXJ8ZWPVDTO",
        "Document.CortexShareLink": "https://collections.newberry.org/asset-management/2KXJ8ZWQVEXW",
        "Document.ParentIdentifier": "NL1UMRC",
        "CoreField.IIIFResourceType": "Canvas",
        "Document.IIIFV3ID": "https://collections.newberry.org/IIIF3/Presentation/Canvas/2KXJ8ZWQVEXW",
        "originalfilename": "991542168805867_MM07-0068-01__GR_2275_001.TIF",
        "RelatedValue.Original-Filename": "",
        "CoreField.OriginalFileName": "991542168805867_MM07-0068-01__GR_2275_001.TIF",
        "Title": "Kansas Pacific Railway the best and shortest cattle trail from Texas"
    }, {
        "CoreField.Identifier": "NL1UMU9",
        "Document.CortexParentLink": "https://collections.newberry.org/asset-management/2KXJ8ZWPVDTO",
        "Document.CortexShareLink": "https://collections.newberry.org/asset-management/2KXJ8ZWP5511",
        "Document.ParentIdentifier": "NL1UMRC",
        "CoreField.IIIFResourceType": "Canvas",
        "Document.IIIFV3ID": "https://collections.newberry.org/IIIF3/Presentation/Canvas/2KXJ8ZWP5511",
        "originalfilename": "998643888805867_MM06-0052_map_6f_g3824_p5p3_1876_w4.tif",
        "RelatedValue.Original-Filename": "",
        "CoreField.OriginalFileName": "998643888805867_MM06-0052_map_6f_g3824_p5p3_1876_w4.tif",
        "Title": "Railway map of Philadelphia to accompany Westcott\u0027s guide book to Philadelphia"
    }, {
        "CoreField.Identifier": "NL1UO09",
        "Document.CortexParentLink": "https://collections.newberry.org/asset-management/2KXJ8ZWPVDTO",
        "Document.CortexShareLink": "https://collections.newberry.org/asset-management/2KXJ8ZWQTCOU",
        "Document.ParentIdentifier": "NL1UMRC",
        "CoreField.IIIFResourceType": "Canvas",
        "Document.IIIFV3ID": "https://collections.newberry.org/IIIF3/Presentation/Canvas/2KXJ8ZWQTCOU",
        "originalfilename": "MM12-0119-01_Final.tif",
        "RelatedValue.Original-Filename": "",
        "CoreField.OriginalFileName": "MM12-0119-01_Final.tif",
        "Title": "Sheet 1. A longitudinal section of the valley of the Mississippi River, from the junction of the Minnesota to the junction of the Ohio River : as..."
    }, {
        "CoreField.Identifier": "NL1UO1M",
        "Document.CortexParentLink": "https://collections.newberry.org/asset-management/2KXJ8ZWPVDTO",
        "Document.CortexShareLink": "https://collections.newberry.org/asset-management/2KXJ8ZWQ24WD",
        "Document.ParentIdentifier": "NL1UMRC",
        "CoreField.IIIFResourceType": "Canvas",
        "Document.IIIFV3ID": "https://collections.newberry.org/IIIF3/Presentation/Canvas/2KXJ8ZWQ24WD",
        "originalfilename": "MM13-0121-01_Final.tif",
        "RelatedValue.Original-Filename": "",
        "CoreField.OriginalFileName": "MM13-0121-01_Final.tif",
        "Title": "Canals"
    }, {
        "CoreField.Identifier": "NL1UO4O",
        "Document.CortexParentLink": "https://collections.newberry.org/asset-management/2KXJ8ZWPVDTO",
        "Document.CortexShareLink": "https://collections.newberry.org/asset-management/2KXJ8ZWQWNJ9",
        "Document.ParentIdentifier": "NL1UMRC",
        "CoreField.IIIFResourceType": "Canvas",
        "Document.IIIFV3ID": "https://collections.newberry.org/IIIF3/Presentation/Canvas/2KXJ8ZWQWNJ9",
        "originalfilename": "MM13-0124-01_Final.tif",
        "RelatedValue.Original-Filename": "",
        "CoreField.OriginalFileName": "MM13-0124-01_Final.tif",
        "Title": "Map showing the navigable depths of the rivers of the United States and the principal transportation routes on the sea-coasts and Great Lakes in the..."
    }, {
        "CoreField.Identifier": "NL1UO2V",
        "Document.CortexParentLink": "https://collections.newberry.org/asset-management/2KXJ8ZWPVDTO",
        "Document.CortexShareLink": "https://collections.newberry.org/asset-management/2KXJ8ZWQNUL5",
        "Document.ParentIdentifier": "NL1UMRC",
        "CoreField.IIIFResourceType": "Canvas",
        "Document.IIIFV3ID": "https://collections.newberry.org/IIIF3/Presentation/Canvas/2KXJ8ZWQNUL5",
        "originalfilename": "MM14-0135_map_6f_g4014_c6_e2_1895_g7_wc.tif",
        "RelatedValue.Original-Filename": "",
        "CoreField.OriginalFileName": "MM14-0135_map_6f_g4014_c6_e2_1895_g7_wc.tif",
        "Title": "Nationalities map no. 1-4, Polk St. to Twelfth,...Chicago"
    }, {
        "CoreField.Identifier": "NL1UNFG",
        "Document.CortexParentLink": "https://collections.newberry.org/asset-management/2KXJ8ZWPVDTO",
        "Document.CortexShareLink": "https://collections.newberry.org/asset-management/2KXJ8ZWQ9GTX",
        "Document.ParentIdentifier": "NL1UMRC",
        "CoreField.IIIFResourceType": "Canvas",
        "Document.IIIFV3ID": "https://collections.newberry.org/IIIF3/Presentation/Canvas/2KXJ8ZWQ9GTX",
        "originalfilename": "997505618805867_MM07-0070_map_4c_g4371_h1_1898_u5.tif",
        "RelatedValue.Original-Filename": "",
        "CoreField.OriginalFileName": "997505618805867_MM07-0070_map_4c_g4371_h1_1898_u5.tif",
        "Title": "The gold and coal fields of Alaska together with the principal steamer routes and trails"
    }, {
        "CoreField.Identifier": "NL1UO4V",
        "Document.CortexParentLink": "https://collections.newberry.org/asset-management/2KXJ8ZWPVDTO",
        "Document.CortexShareLink": "https://collections.newberry.org/asset-management/2KXJ8ZWQWMV7",
        "Document.ParentIdentifier": "NL1UMRC",
        "CoreField.IIIFResourceType": "Canvas",
        "Document.IIIFV3ID": "https://collections.newberry.org/IIIF3/Presentation/Canvas/2KXJ8ZWQWMV7",
        "originalfilename": "MM13-0122-01_Final.tif",
        "RelatedValue.Original-Filename": "",
        "CoreField.OriginalFileName": "MM13-0122-01_Final.tif",
        "Title": "Map of the western part of the Dominion of Canada shewing various routes to the Yukon Dist., 1898"
    }, {
        "CoreField.Identifier": "NL1UMV0",
        "Document.CortexParentLink": "https://collections.newberry.org/asset-management/2KXJ8ZWPVDTO",
        "Document.CortexShareLink": "https://collections.newberry.org/asset-management/2KXJ8ZWQKM_B",
        "Document.ParentIdentifier": "NL1UMRC",
        "CoreField.IIIFResourceType": "Canvas",
        "Document.IIIFV3ID": "https://collections.newberry.org/IIIF3/Presentation/Canvas/2KXJ8ZWQKM_B",
        "originalfilename": "998732568805867_MM15-0149_Fitzgerald_QE_509_R44_1906_pg_27.tif",
        "RelatedValue.Original-Filename": "",
        "CoreField.OriginalFileName": "998732568805867_MM15-0149_Fitzgerald_QE_509_R44_1906_pg_27.tif",
        "Title": "Globe showing section of the earth\u0027s interior"
    }, {
        "CoreField.Identifier": "NL1UNEO",
        "Document.CortexParentLink": "https://collections.newberry.org/asset-management/2KXJ8ZWPVDTO",
        "Document.CortexShareLink": "https://collections.newberry.org/asset-management/2KXJ8ZWQ7ECW",
        "Document.ParentIdentifier": "NL1UMRC",
        "CoreField.IIIFResourceType": "Canvas",
        "Document.IIIFV3ID": "https://collections.newberry.org/IIIF3/Presentation/Canvas/2KXJ8ZWQ7ECW",
        "originalfilename": "994086038805867_MM19-0185_g_1099_1_details_01.tif",
        "RelatedValue.Original-Filename": "",
        "CoreField.OriginalFileName": "994086038805867_MM19-0185_g_1099_1_details_01.tif",
        "Title": "Mappa geral da Republica dos Estados Unidos do Brasil : publicado por occasia\u00cc\u0192o da Exposic\u00cc\u00a7\u00cc\u00a7a\u00cc\u0192o Nacional de 1908 por ordem do Exmo. Snr. Ministro da..."
    }, {
        "CoreField.Identifier": "NL1UL3B",
        "Document.CortexParentLink": "https://collections.newberry.org/asset-management/2KXJ8ZWPKRB5",
        "Document.CortexShareLink": "https://collections.newberry.org/asset-management/2KXJ8ZWPKJCB",
        "Document.ParentIdentifier": "NL1UL3A",
        "CoreField.IIIFResourceType": "Canvas",
        "Document.IIIFV3ID": "https://collections.newberry.org/IIIF3/Presentation/Canvas/2KXJ8ZWPKJCB",
        "originalfilename": "999476408805867_MM03-0030_map_2f_g4104_i8p3_1913_u55_002.tif",
        "RelatedValue.Original-Filename": "",
        "CoreField.OriginalFileName": "999476408805867_MM03-0030_map_2f_g4104_i8p3_1913_u55_002.tif",
        "Title": "Railroad valuation map, Itasca, Illinois, 1919"
    }, {
        "CoreField.Identifier": "NL1UO22",
        "Document.CortexParentLink": "https://collections.newberry.org/asset-management/2KXJ8ZWPVDTO",
        "Document.CortexShareLink": "https://collections.newberry.org/asset-management/2KXJ8ZWQ2BX1",
        "Document.ParentIdentifier": "NL1UMRC",
        "CoreField.IIIFResourceType": "Canvas",
        "Document.IIIFV3ID": "https://collections.newberry.org/IIIF3/Presentation/Canvas/2KXJ8ZWQ2BX1",
        "originalfilename": "MM13-0126-01_Final.tif",
        "RelatedValue.Original-Filename": "",
        "CoreField.OriginalFileName": "MM13-0126-01_Final.tif",
        "Title": "Origin of lake receipts at Buffalo, N.Y., during 1929"
    }, {
        "CoreField.Identifier": "NL1UO5M",
        "Document.CortexParentLink": "https://collections.newberry.org/asset-management/2KXJ8ZWPVDTO",
        "Document.CortexShareLink": "https://collections.newberry.org/asset-management/2KXJ8ZWQEZBI",
        "Document.ParentIdentifier": "NL1UMRC",
        "CoreField.IIIFResourceType": "Canvas",
        "Document.IIIFV3ID": "https://collections.newberry.org/IIIF3/Presentation/Canvas/2KXJ8ZWQEZBI",
        "originalfilename": "MM13-0127-01_Final.tif",
        "RelatedValue.Original-Filename": "",
        "CoreField.OriginalFileName": "MM13-0127-01_Final.tif",
        "Title": "Cleveland Harbor including lower Cuyahoga River"
    }, {
        "CoreField.Identifier": "NL1UNEH",
        "Document.CortexParentLink": "https://collections.newberry.org/asset-management/2KXJ8ZWPVDTO",
        "Document.CortexShareLink": "https://collections.newberry.org/asset-management/2KXJ8ZWQ7B21",
        "Document.ParentIdentifier": "NL1UMRC",
        "CoreField.IIIFResourceType": "Canvas",
        "Document.IIIFV3ID": "https://collections.newberry.org/IIIF3/Presentation/Canvas/2KXJ8ZWQ7B21",
        "originalfilename": "994533958805867_MM06-0057_map_g10896_165_001.tif",
        "RelatedValue.Original-Filename": "",
        "CoreField.OriginalFileName": "994533958805867_MM06-0057_map_g10896_165_001.tif",
        "Title": "Preliminary comprehensive city plan of Chicago a generalized presentation of the physical elements of the city plan designed for a population of..."
    }, {
        "CoreField.Identifier": "NL1UMX7",
        "Document.CortexParentLink": "https://collections.newberry.org/asset-management/2KXJ8ZWQJI68",
        "Document.CortexShareLink": "https://collections.newberry.org/asset-management/2KXJ8ZWQJND9",
        "Document.ParentIdentifier": "NL1UMX4",
        "CoreField.IIIFResourceType": "Canvas",
        "Document.IIIFV3ID": "https://collections.newberry.org/IIIF3/Presentation/Canvas/2KXJ8ZWQJND9",
        "originalfilename": "999422378805867_MM15-0150_rmn_clients_3745_02.tif",
        "RelatedValue.Original-Filename": "",
        "CoreField.OriginalFileName": "999422378805867_MM15-0150_rmn_clients_3745_02.tif",
        "Title": "Washington, D.C. metropolitan area road map"
    }, {
        "CoreField.Identifier": "NL1UN4K",
        "Document.CortexParentLink": "https://collections.newberry.org/asset-management/2KXJ8ZWPVDTO",
        "Document.CortexShareLink": "https://collections.newberry.org/asset-management/2KXJ8ZWQ76MU",
        "Document.ParentIdentifier": "NL1UMRC",
        "CoreField.IIIFResourceType": "Canvas",
        "Document.IIIFV3ID": "https://collections.newberry.org/IIIF3/Presentation/Canvas/2KXJ8ZWQ76MU",
        "originalfilename": "99839558805867_MM06-0060_ht_168_n5_a5_1969_001.tif",
        "RelatedValue.Original-Filename": "",
        "CoreField.OriginalFileName": "99839558805867_MM06-0060_ht_168_n5_a5_1969_001.tif",
        "Title": "Plan for New York City, 1969 : a proposal"
    },
    {
        "CoreField.Identifier": "NL1UO1S",
        "Document.CortexParentLink": "https://collections.newberry.org/asset-management/2KXJ8ZWPVDTO",
        "Document.CortexShareLink": "https://collections.newberry.org/asset-management/2KXJ8ZWQ20MR",
        "Document.ParentIdentifier": "NL1UMRC",
        "CoreField.IIIFResourceType": "Canvas",
        "Document.IIIFV3ID": "https://collections.newberry.org/IIIF3/Presentation/Canvas/2KXJ8ZWQ20MR",
        "originalfilename": "MM01-0006-03_1_2.tif",
        "RelatedValue.Original-Filename": "",
        "CoreField.OriginalFileName": "MM01-0006-03_1_2.tif",
        "Title": "Explorations and surveys for a rail road from the Mississippi River to the Pacific Ocean route near the 35th parallel. Map no. 2, from the Rio Grande..."
    }, {
        "CoreField.Identifier": "NL1112ZP",
        "Document.CortexParentLink": "https://collections.newberry.org/asset-management/2KXJ8Z2BGPS9",
        "Document.CortexShareLink": "https://collections.newberry.org/asset-management/2KXJ8ZBR9EZO",
        "Document.ParentIdentifier": "NL1Z7VR",
        "CoreField.IIIFResourceType": "Canvas",
        "Document.IIIFV3ID": "https://collections.newberry.org/IIIF3/Presentation/Canvas/2KXJ8ZBR9EZO",
        "originalfilename": "998080028805867_mms_badger_box_01_fl_05_0006.tif",
        "RelatedValue.Original-Filename": "",
        "CoreField.OriginalFileName": "998080028805867_mms_badger_box_01_fl_05_0006.tif",
        "Title": "Elvira Sheridan Badger papers [box 01], 1859-ca. 1930"
    }, {
        "CoreField.Identifier": "NL1UNYR",
        "Document.CortexParentLink": "https://collections.newberry.org/asset-management/2KXJ8ZWPVDTO",
        "Document.CortexShareLink": "https://collections.newberry.org/asset-management/2KXJ8ZWQS0KR",
        "Document.ParentIdentifier": "NL1UMRC",
        "CoreField.IIIFResourceType": "Canvas",
        "Document.IIIFV3ID": "https://collections.newberry.org/IIIF3/Presentation/Canvas/2KXJ8ZWQS0KR",
        "originalfilename": "MM01-0006-05.tif",
        "RelatedValue.Original-Filename": "",
        "CoreField.OriginalFileName": "MM01-0006-05.tif",
        "Title": "Geological section from the Mississippi River to the Pacific Ocean along the route explored by Lieut. A.W. Whipple, Corp. of Topl. Engrs. near the..."
    }, {
        "CoreField.Identifier": "NL1UNF7",
        "Document.CortexParentLink": "https://collections.newberry.org/asset-management/2KXJ8ZWPVDTO",
        "Document.CortexShareLink": "https://collections.newberry.org/asset-management/2KXJ8ZWQ9NA9",
        "Document.ParentIdentifier": "NL1UMRC",
        "CoreField.IIIFResourceType": "Canvas",
        "Document.IIIFV3ID": "https://collections.newberry.org/IIIF3/Presentation/Canvas/2KXJ8ZWQ9NA9",
        "originalfilename": "998365398805867_MM01-0004_graff_2081_004.tif",
        "RelatedValue.Original-Filename": "",
        "CoreField.OriginalFileName": "998365398805867_MM01-0004_graff_2081_004.tif",
        "Title": "Railroad and township map of the Chicago region"
    }, {
        "CoreField.Identifier": "NL1UNFC",
        "Document.CortexParentLink": "https://collections.newberry.org/asset-management/2KXJ8ZWPVDTO",
        "Document.CortexShareLink": "https://collections.newberry.org/asset-management/2KXJ8ZWQ9HM7",
        "Document.ParentIdentifier": "NL1UMRC",
        "CoreField.IIIFResourceType": "Canvas",
        "Document.IIIFV3ID": "https://collections.newberry.org/IIIF3/Presentation/Canvas/2KXJ8ZWQ9HM7",
        "originalfilename": "998365408805867_MM01-0004_graff_2081_005.tif",
        "RelatedValue.Original-Filename": "",
        "CoreField.OriginalFileName": "998365408805867_MM01-0004_graff_2081_005.tif",
        "Title": "Urbana"
    }, {
        "CoreField.Identifier": "NL1UNF0",
        "Document.CortexParentLink": "https://collections.newberry.org/asset-management/2KXJ8ZWQ90VR",
        "Document.CortexShareLink": "https://collections.newberry.org/asset-management/2KXJ8ZWQ93FB",
        "Document.ParentIdentifier": "NL1UNEW",
        "CoreField.IIIFResourceType": "Canvas",
        "Document.IIIFV3ID": "https://collections.newberry.org/IIIF3/Presentation/Canvas/2KXJ8ZWQ93FB",
        "originalfilename": "991847378805867_MM01-0010_map_4f_g4201_p3_1873_a7_002.tif",
        "RelatedValue.Original-Filename": "",
        "CoreField.OriginalFileName": "991847378805867_MM01-0010_map_4f_g4201_p3_1873_a7_002.tif",
        "Title": "Railroad lands in central and southwestern Kansas on eleven years\u0027 credit : the government grant of 3,000,000 acres to the Atchison, Topeka and Santa..."
    }, {
        "CoreField.Identifier": "NL1UMRT",
        "Document.CortexParentLink": "https://collections.newberry.org/asset-management/2KXJ8ZWPHWFO",
        "Document.CortexShareLink": "https://collections.newberry.org/asset-management/2KXJ8ZWPH9CK",
        "Document.ParentIdentifier": "NL1UMRR",
        "CoreField.IIIFResourceType": "Canvas",
        "Document.IIIFV3ID": "https://collections.newberry.org/IIIF3/Presentation/Canvas/2KXJ8ZWPH9CK",
        "originalfilename": "998367918805867_MM01-0009_map_4f_g3701_p3_1876_r3_002.tif",
        "RelatedValue.Original-Filename": "",
        "CoreField.OriginalFileName": "998367918805867_MM01-0009_map_4f_g3701_p3_1876_r3_002.tif",
        "Title": "General map of the Pennsylvania Railroad and its connections"
    }, {
        "CoreField.Identifier": "NL1TQ3B",
        "Document.CortexParentLink": "https://collections.newberry.org/asset-management/2KXJ8ZXHUA26",
        "Document.CortexShareLink": "https://collections.newberry.org/asset-management/2KXJ8ZXHU08Z",
        "Document.ParentIdentifier": "NL1TQ3C",
        "CoreField.IIIFResourceType": "Canvas",
        "Document.IIIFV3ID": "https://collections.newberry.org/IIIF3/Presentation/Canvas/2KXJ8ZXHU08Z",
        "originalfilename": "998368338805867_MM01-0001_case_h_66844_396_004.tif",
        "RelatedValue.Original-Filename": "",
        "CoreField.OriginalFileName": "998368338805867_MM01-0001_case_h_66844_396_004.tif",
        "Title": "Boston and Albany Railroad survey profiles from Boston to New York State line at Canaan"
    }, {
        "CoreField.Identifier": "NL1TQ3F",
        "Document.CortexParentLink": "https://collections.newberry.org/asset-management/2KXJ8ZXHUA26",
        "Document.CortexShareLink": "https://collections.newberry.org/asset-management/2KXJ8ZXHUC5E",
        "Document.ParentIdentifier": "NL1TQ3C",
        "CoreField.IIIFResourceType": "Canvas",
        "Document.IIIFV3ID": "https://collections.newberry.org/IIIF3/Presentation/Canvas/2KXJ8ZXHUC5E",
        "originalfilename": "998368338805867_MM01-0001_case_h_66844_396_005.tif",
        "RelatedValue.Original-Filename": "",
        "CoreField.OriginalFileName": "998368338805867_MM01-0001_case_h_66844_396_005.tif",
        "Title": "Boston and Albany Railroad survey profiles from Boston to New York State line at Canaan"
    }, {
        "CoreField.Identifier": "NL1UL3E",
        "Document.CortexParentLink": "https://collections.newberry.org/asset-management/2KXJ8ZWPKQ5K",
        "Document.CortexShareLink": "https://collections.newberry.org/asset-management/2KXJ8ZWPKS6B",
        "Document.ParentIdentifier": "NL1UL3F",
        "CoreField.IIIFResourceType": "Canvas",
        "Document.IIIFV3ID": "https://collections.newberry.org/IIIF3/Presentation/Canvas/2KXJ8ZWPKS6B",
        "originalfilename": "999421538805867_MM03-0029_he_1805_a58_1971_002.tif",
        "RelatedValue.Original-Filename": "",
        "CoreField.OriginalFileName": "999421538805867_MM03-0029_he_1805_a58_1971_002.tif",
        "Title": "Intercity railroad passenger routes"
    }, {
        "CoreField.Identifier": "NL1UL37",
        "Document.CortexParentLink": "https://collections.newberry.org/asset-management/2KXJ8ZWPK2P8",
        "Document.CortexShareLink": "https://collections.newberry.org/asset-management/2KXJ8ZWPKPKP",
        "Document.ParentIdentifier": "NL1UL38",
        "CoreField.IIIFResourceType": "Canvas",
        "Document.IIIFV3ID": "https://collections.newberry.org/IIIF3/Presentation/Canvas/2KXJ8ZWPKPKP",
        "originalfilename": "998497298805867_MM03-0022_map_4f_g3401_s57_1886_c3_002.tif",
        "RelatedValue.Original-Filename": "",
        "CoreField.OriginalFileName": "998497298805867_MM03-0022_map_4f_g3401_s57_1886_c3_002.tif",
        "Title": "Map of part of the Dominion of Canada illustrating the use of the Canadian Pacific Railway in the movement of troops to quell the North-West troubles..."
    }, {
        "CoreField.Identifier": "NL1UL3D",
        "Document.CortexParentLink": "https://collections.newberry.org/asset-management/2KXJ8ZWPKQ5K",
        "Document.CortexShareLink": "https://collections.newberry.org/asset-management/2KXJ8ZWPKHE9",
        "Document.ParentIdentifier": "NL1UL3F",
        "CoreField.IIIFResourceType": "Canvas",
        "Document.IIIFV3ID": "https://collections.newberry.org/IIIF3/Presentation/Canvas/2KXJ8ZWPKHE9",
        "originalfilename": "999421538805867_MM03-0029_he_1805_a58_1971_003.tif",
        "RelatedValue.Original-Filename": "",
        "CoreField.OriginalFileName": "999421538805867_MM03-0029_he_1805_a58_1971_003.tif",
        "Title": "Intercity railroad passenger routes"
    }, {
        "CoreField.Identifier": "NL1UL3L",
        "Document.CortexParentLink": "https://collections.newberry.org/asset-management/2KXJ8ZWPK7UP",
        "Document.CortexShareLink": "https://collections.newberry.org/asset-management/2KXJ8ZWPKNTU",
        "Document.ParentIdentifier": "NL1UL3P",
        "CoreField.IIIFResourceType": "Canvas",
        "Document.IIIFV3ID": "https://collections.newberry.org/IIIF3/Presentation/Canvas/2KXJ8ZWPKNTU",
        "originalfilename": "999421508805867_MM03-0027_rmcn_atlas_a73_1925_001.tif",
        "RelatedValue.Original-Filename": "",
        "CoreField.OriginalFileName": "999421508805867_MM03-0027_rmcn_atlas_a73_1925_001.tif",
        "Title": "Freight routes and junction points in southern territory"
    }, {
        "CoreField.Identifier": "NL1UL3M",
        "Document.CortexParentLink": "https://collections.newberry.org/asset-management/2KXJ8ZWPK6VI",
        "Document.CortexShareLink": "https://collections.newberry.org/asset-management/2KXJ8ZWPKFL7",
        "Document.ParentIdentifier": "NL1UL3O",
        "CoreField.IIIFResourceType": "Canvas",
        "Document.IIIFV3ID": "https://collections.newberry.org/IIIF3/Presentation/Canvas/2KXJ8ZWPKFL7",
        "originalfilename": "999421518805867_MM03-0027_rmcn_atlas_a73_1925_004.tif",
        "RelatedValue.Original-Filename": "",
        "CoreField.OriginalFileName": "999421518805867_MM03-0027_rmcn_atlas_a73_1925_004.tif",
        "Title": "Main stems of proposed railway systems"
    }, {
        "CoreField.Identifier": "NL1UL3Q",
        "Document.CortexParentLink": "https://collections.newberry.org/asset-management/2KXJ8ZWPGJ4B",
        "Document.CortexShareLink": "https://collections.newberry.org/asset-management/2KXJ8ZWPK82Q",
        "Document.ParentIdentifier": "NL1UL3R",
        "CoreField.IIIFResourceType": "Canvas",
        "Document.IIIFV3ID": "https://collections.newberry.org/IIIF3/Presentation/Canvas/2KXJ8ZWPK82Q",
        "originalfilename": "999421528805867_MM03-0027_rmcn_atlas_a73_1925_006.tif",
        "RelatedValue.Original-Filename": "",
        "CoreField.OriginalFileName": "999421528805867_MM03-0027_rmcn_atlas_a73_1925_006.tif",
        "Title": "Southern Railway system : Southern Railway, Cincinnati, New Orleans & Texas Pacific Railway, Alabama Great Southern Railroad, New Orleans &..."
    }, {
        "CoreField.Identifier": "NL1UNEN",
        "Document.CortexParentLink": "https://collections.newberry.org/asset-management/2KXJ8ZWQ7ECW",
        "Document.CortexShareLink": "https://collections.newberry.org/asset-management/2KXJ8ZWQ70ER",
        "Document.ParentIdentifier": "NL1UNEO",
        "CoreField.IIIFResourceType": "Canvas",
        "Document.IIIFV3ID": "https://collections.newberry.org/IIIF3/Presentation/Canvas/2KXJ8ZWQ70ER",
        "originalfilename": "994086038805867_MM19-0185_g_1099_1_details_02.tif",
        "RelatedValue.Original-Filename": "",
        "CoreField.OriginalFileName": "994086038805867_MM19-0185_g_1099_1_details_02.tif",
        "Title": "Mappa geral da Republica dos Estados Unidos do Brasil : publicado por occasia\u00cc\u0192o da Exposic\u00cc\u00a7\u00cc\u00a7a\u00cc\u0192o Nacional de 1908 por ordem do Exmo. Snr. Ministro da..."
    }, {
        "CoreField.Identifier": "NL1UN3Y",
        "Document.CortexParentLink": "https://collections.newberry.org/asset-management/2KXJ8ZWQ7ECW",
        "Document.CortexShareLink": "https://collections.newberry.org/asset-management/2KXJ8ZWQV90Q",
        "Document.ParentIdentifier": "NL1UNEO",
        "CoreField.IIIFResourceType": "Canvas",
        "Document.IIIFV3ID": "https://collections.newberry.org/IIIF3/Presentation/Canvas/2KXJ8ZWQV90Q",
        "originalfilename": "994086038805867_MM19-0185_g_1099_1_details_03.tif",
        "RelatedValue.Original-Filename": "",
        "CoreField.OriginalFileName": "994086038805867_MM19-0185_g_1099_1_details_03.tif",
        "Title": "Mappa geral da Republica dos Estados Unidos do Brasil : publicado por occasia\u00cc\u0192o da Exposic\u00cc\u00a7\u00cc\u00a7a\u00cc\u0192o Nacional de 1908 por ordem do Exmo. Snr. Ministro da..."
    }, {
        "CoreField.Identifier": "NL1UN3X",
        "Document.CortexParentLink": "https://collections.newberry.org/asset-management/2KXJ8ZWQ7ECW",
        "Document.CortexShareLink": "https://collections.newberry.org/asset-management/2KXJ8ZWQVUF5",
        "Document.ParentIdentifier": "NL1UNEO",
        "CoreField.IIIFResourceType": "Canvas",
        "Document.IIIFV3ID": "https://collections.newberry.org/IIIF3/Presentation/Canvas/2KXJ8ZWQVUF5",
        "originalfilename": "994086038805867_MM19-0185_g_1099_1_details_04.tif",
        "RelatedValue.Original-Filename": "",
        "CoreField.OriginalFileName": "994086038805867_MM19-0185_g_1099_1_details_04.tif",
        "Title": "Mappa geral da Republica dos Estados Unidos do Brasil : publicado por occasia\u00cc\u0192o da Exposic\u00cc\u00a7\u00cc\u00a7a\u00cc\u0192o Nacional de 1908 por ordem do Exmo. Snr. Ministro da..."
    }, {
        "CoreField.Identifier": "NL1UN3V",
        "Document.CortexParentLink": "https://collections.newberry.org/asset-management/2KXJ8ZWQ7ECW",
        "Document.CortexShareLink": "https://collections.newberry.org/asset-management/2KXJ8ZWQVQVQ",
        "Document.ParentIdentifier": "NL1UNEO",
        "CoreField.IIIFResourceType": "Canvas",
        "Document.IIIFV3ID": "https://collections.newberry.org/IIIF3/Presentation/Canvas/2KXJ8ZWQVQVQ",
        "originalfilename": "994086038805867_MM19-0185_g_1099_1_details_05.tif",
        "RelatedValue.Original-Filename": "",
        "CoreField.OriginalFileName": "994086038805867_MM19-0185_g_1099_1_details_05.tif",
        "Title": "Mappa geral da Republica dos Estados Unidos do Brasil : publicado por occasia\u00cc\u0192o da Exposic\u00cc\u00a7\u00cc\u00a7a\u00cc\u0192o Nacional de 1908 por ordem do Exmo. Snr. Ministro da..."
    }, {
        "CoreField.Identifier": "NL1UN3W",
        "Document.CortexParentLink": "https://collections.newberry.org/asset-management/2KXJ8ZWQ7ECW",
        "Document.CortexShareLink": "https://collections.newberry.org/asset-management/2KXJ8ZWQVF2B",
        "Document.ParentIdentifier": "NL1UNEO",
        "CoreField.IIIFResourceType": "Canvas",
        "Document.IIIFV3ID": "https://collections.newberry.org/IIIF3/Presentation/Canvas/2KXJ8ZWQVF2B",
        "originalfilename": "994086038805867_MM19-0185_g_1099_1_details_06.tif",
        "RelatedValue.Original-Filename": "",
        "CoreField.OriginalFileName": "994086038805867_MM19-0185_g_1099_1_details_06.tif",
        "Title": "Mappa geral da Republica dos Estados Unidos do Brasil : publicado por occasia\u00cc\u0192o da Exposic\u00cc\u00a7\u00cc\u00a7a\u00cc\u0192o Nacional de 1908 por ordem do Exmo. Snr. Ministro da..."
    }, {
        "CoreField.Identifier": "NL1UN45",
        "Document.CortexParentLink": "https://collections.newberry.org/asset-management/2KXJ8ZWQ7ECW",
        "Document.CortexShareLink": "https://collections.newberry.org/asset-management/2KXJ8ZWQV4MD",
        "Document.ParentIdentifier": "NL1UNEO",
        "CoreField.IIIFResourceType": "Canvas",
        "Document.IIIFV3ID": "https://collections.newberry.org/IIIF3/Presentation/Canvas/2KXJ8ZWQV4MD",
        "originalfilename": "994086038805867_MM19-0185_g_1099_1_details_07.tif",
        "RelatedValue.Original-Filename": "",
        "CoreField.OriginalFileName": "994086038805867_MM19-0185_g_1099_1_details_07.tif",
        "Title": "Mappa geral da Republica dos Estados Unidos do Brasil : publicado por occasia\u00cc\u0192o da Exposic\u00cc\u00a7\u00cc\u00a7a\u00cc\u0192o Nacional de 1908 por ordem do Exmo. Snr. Ministro da..."
    }, {
        "CoreField.Identifier": "NL1UNYO",
        "Document.CortexParentLink": "https://collections.newberry.org/asset-management/2KXJ8ZWPVDTO",
        "Document.CortexShareLink": "https://collections.newberry.org/asset-management/2KXJ8ZWQSZXI",
        "Document.ParentIdentifier": "NL1UMRC",
        "CoreField.IIIFResourceType": "Canvas",
        "Document.IIIFV3ID": "https://collections.newberry.org/IIIF3/Presentation/Canvas/2KXJ8ZWQSZXI",
        "originalfilename": "MM08-0080-01_Final.tif",
        "RelatedValue.Original-Filename": "",
        "CoreField.OriginalFileName": "MM08-0080-01_Final.tif",
        "Title": "Map of Mackenzie\u0027s track from Fort Chipewyan to the Pacific Ocean, in 1793"
    }, {
        "CoreField.Identifier": "NL1UMVW",
        "Document.CortexParentLink": "https://collections.newberry.org/asset-management/2KXJ8ZWPVDTO",
        "Document.CortexShareLink": "https://collections.newberry.org/asset-management/2KXJ8ZWQK8_O",
        "Document.ParentIdentifier": "NL1UMRC",
        "CoreField.IIIFResourceType": "Canvas",
        "Document.IIIFV3ID": "https://collections.newberry.org/IIIF3/Presentation/Canvas/2KXJ8ZWQK8_O",
        "originalfilename": "998758608805867_MM14-0134govt_i_12_2_at6_02.tif",
        "RelatedValue.Original-Filename": "",
        "CoreField.OriginalFileName": "998758608805867_MM14-0134govt_i_12_2_at6_02.tif",
        "Title": "Composition of the foreign-born population, 1890"
    }, {
        "CoreField.Identifier": "NL1UMVL",
        "Document.CortexParentLink": "https://collections.newberry.org/asset-management/2KXJ8ZWPVDTO",
        "Document.CortexShareLink": "https://collections.newberry.org/asset-management/2KXJ8ZWQKQ_P",
        "Document.ParentIdentifier": "NL1UMRC",
        "CoreField.IIIFResourceType": "Canvas",
        "Document.IIIFV3ID": "https://collections.newberry.org/IIIF3/Presentation/Canvas/2KXJ8ZWQKQ_P",
        "originalfilename": "998758618805867_MM14-0134govt_i_12_2_at6_03.tif",
        "RelatedValue.Original-Filename": "",
        "CoreField.OriginalFileName": "998758618805867_MM14-0134govt_i_12_2_at6_03.tif",
        "Title": "Distribution of those engaged in certain selected occupations, by color and nationality, 1890"
    }, {
        "CoreField.Identifier": "NL1UNEZ",
        "Document.CortexParentLink": "https://collections.newberry.org/asset-management/2KXJ8ZWPVDTO",
        "Document.CortexShareLink": "https://collections.newberry.org/asset-management/2KXJ8ZWQ9X8P",
        "Document.ParentIdentifier": "NL1UMRC",
        "CoreField.IIIFResourceType": "Canvas",
        "Document.IIIFV3ID": "https://collections.newberry.org/IIIF3/Presentation/Canvas/2KXJ8ZWQ9X8P",
        "originalfilename": "MM14-0136_baskes_g4104_c6_1886_r6_vol_3_02.tif",
        "RelatedValue.Original-Filename": "",
        "CoreField.OriginalFileName": "MM14-0136_baskes_g4104_c6_1886_r6_vol_3_02.tif",
        "Title": "W. 1/2 of N.W. 1/4, section 33.40.14 : Canal Trustees sub. of part of sec. 33.40.14"
    }, {
        "CoreField.Identifier": "NL1UMV1",
        "Document.CortexParentLink": "https://collections.newberry.org/asset-management/2KXJ8ZWPVDTO",
        "Document.CortexShareLink": "https://collections.newberry.org/asset-management/2KXJ8ZWQK3_4",
        "Document.ParentIdentifier": "NL1UMRC",
        "CoreField.IIIFResourceType": "Canvas",
        "Document.IIIFV3ID": "https://collections.newberry.org/IIIF3/Presentation/Canvas/2KXJ8ZWQK3_4",
        "originalfilename": "998731658805867_MM15-0141_Ayer_107_56_1493_1494_02.tif",
        "RelatedValue.Original-Filename": "",
        "CoreField.OriginalFileName": "998731658805867_MM15-0141_Ayer_107_56_1493_1494_02.tif",
        "Title": "Fernanda, Hyspana, Ysabella, Saluatorie, Conceptons Marie"
    }, {
        "CoreField.Identifier": "NL1UNL2",
        "Document.CortexParentLink": "https://collections.newberry.org/asset-management/2KXJ8ZWPVDTO",
        "Document.CortexShareLink": "https://collections.newberry.org/asset-management/2KXJ8ZWQ4F6B",
        "Document.ParentIdentifier": "NL1UMRC",
        "CoreField.IIIFResourceType": "Canvas",
        "Document.IIIFV3ID": "https://collections.newberry.org/IIIF3/Presentation/Canvas/2KXJ8ZWQ4F6B",
        "originalfilename": "991542168805867_MM07-0068-01__GR_2275_002.tif",
        "RelatedValue.Original-Filename": "",
        "CoreField.OriginalFileName": "991542168805867_MM07-0068-01__GR_2275_002.tif",
        "Title": "Kansas Pacific Railway the best and shortest cattle trail from Texas"
    }, {
        "CoreField.Identifier": "NL1UN44",
        "Document.CortexParentLink": "https://collections.newberry.org/asset-management/2KXJ8ZREHEHE",
        "Document.CortexShareLink": "https://collections.newberry.org/asset-management/2KXJ8ZWQVXGP",
        "Document.ParentIdentifier": "NL115BG6",
        "CoreField.IIIFResourceType": "Canvas",
        "Document.IIIFV3ID": "https://collections.newberry.org/IIIF3/Presentation/Canvas/2KXJ8ZWQVXGP",
        "originalfilename": "991562448805867_MM07-0064_map_3c_g4050_1846_m5_003.tif",
        "RelatedValue.Original-Filename": "",
        "CoreField.OriginalFileName": "991562448805867_MM07-0064_map_3c_g4050_1846_m5_003.tif",
        "Title": "New map of Texas, Oregon, and California with the regions adjoining"
    }, {
        "CoreField.Identifier": "NL1UNEJ",
        "Document.CortexParentLink": "https://collections.newberry.org/asset-management/2KXJ8ZWQ924D",
        "Document.CortexShareLink": "https://collections.newberry.org/asset-management/2KXJ8ZWQ7FVB",
        "Document.ParentIdentifier": "NL1UNF3",
        "CoreField.IIIFResourceType": "Canvas",
        "Document.IIIFV3ID": "https://collections.newberry.org/IIIF3/Presentation/Canvas/2KXJ8ZWQ7FVB",
        "originalfilename": "994894278805867_MM09-0083_Ayer_map4F_G3860_1730_H8_1917_002.tif",
        "RelatedValue.Original-Filename": "",
        "CoreField.OriginalFileName": "994894278805867_MM09-0083_Ayer_map4F_G3860_1730_H8_1917_002.tif",
        "Title": "This represents the Charecke Nation by Col. Herberts map & my own observations with the path to Charles Town, its course & (distance measured by my..."
    }, {
        "CoreField.Identifier": "NL1UNEP",
        "Document.CortexParentLink": "https://collections.newberry.org/asset-management/2KXJ8ZWQ924D",
        "Document.CortexShareLink": "https://collections.newberry.org/asset-management/2KXJ8ZWQ7MS7",
        "Document.ParentIdentifier": "NL1UNF3",
        "CoreField.IIIFResourceType": "Canvas",
        "Document.IIIFV3ID": "https://collections.newberry.org/IIIF3/Presentation/Canvas/2KXJ8ZWQ7MS7",
        "originalfilename": "994894278805867_MM09-0083_Ayer_map4F_G3860_1730_H8_1917_003.tif",
        "RelatedValue.Original-Filename": "",
        "CoreField.OriginalFileName": "994894278805867_MM09-0083_Ayer_map4F_G3860_1730_H8_1917_003.tif",
        "Title": "This represents the Charecke Nation by Col. Herberts map & my own observations with the path to Charles Town, its course & (distance measured by my..."
    }, {
        "CoreField.Identifier": "NL1UNEQ",
        "Document.CortexParentLink": "https://collections.newberry.org/asset-management/2KXJ8ZWQ924D",
        "Document.CortexShareLink": "https://collections.newberry.org/asset-management/2KXJ8ZWQ7JT4",
        "Document.ParentIdentifier": "NL1UNF3",
        "CoreField.IIIFResourceType": "Canvas",
        "Document.IIIFV3ID": "https://collections.newberry.org/IIIF3/Presentation/Canvas/2KXJ8ZWQ7JT4",
        "originalfilename": "994894278805867_MM09-0083_Ayer_map4F_G3860_1730_H8_1917_004.tif",
        "RelatedValue.Original-Filename": "",
        "CoreField.OriginalFileName": "994894278805867_MM09-0083_Ayer_map4F_G3860_1730_H8_1917_004.tif",
        "Title": "This represents the Charecke Nation by Col. Herberts map & my own observations with the path to Charles Town, its course & (distance measured by my..."
    }, {
        "CoreField.Identifier": "NL1UNF1",
        "Document.CortexParentLink": "https://collections.newberry.org/asset-management/2KXJ8ZWQ924D",
        "Document.CortexShareLink": "https://collections.newberry.org/asset-management/2KXJ8ZWQ9EYW",
        "Document.ParentIdentifier": "NL1UNF3",
        "CoreField.IIIFResourceType": "Canvas",
        "Document.IIIFV3ID": "https://collections.newberry.org/IIIF3/Presentation/Canvas/2KXJ8ZWQ9EYW",
        "originalfilename": "994894278805867_MM09-0083_Ayer_map4F_G3860_1730_H8_1917_005.tif",
        "RelatedValue.Original-Filename": "",
        "CoreField.OriginalFileName": "994894278805867_MM09-0083_Ayer_map4F_G3860_1730_H8_1917_005.tif",
        "Title": "This represents the Charecke Nation by Col. Herberts map & my own observations with the path to Charles Town, its course & (distance measured by my..."
    }, {
        "CoreField.Identifier": "NL1UNZ6",
        "Document.CortexParentLink": "https://collections.newberry.org/asset-management/2KXJ8ZWPVDTO",
        "Document.CortexShareLink": "https://collections.newberry.org/asset-management/2KXJ8ZWQS7GO",
        "Document.ParentIdentifier": "NL1UMRC",
        "CoreField.IIIFResourceType": "Canvas",
        "Document.IIIFV3ID": "https://collections.newberry.org/IIIF3/Presentation/Canvas/2KXJ8ZWQS7GO",
        "originalfilename": "MM09-0085-02-Final.tif",
        "RelatedValue.Original-Filename": "",
        "CoreField.OriginalFileName": "MM09-0085-02-Final.tif",
        "Title": "Map of the most inhabited part of Virginia containing the whole province of Maryland with part of Pensilvania, New Jersey and North Carolina"
    }, {
        "CoreField.Identifier": "NL1UN4O",
        "Document.CortexParentLink": "https://collections.newberry.org/asset-management/2KXJ8ZWQ7B21",
        "Document.CortexShareLink": "https://collections.newberry.org/asset-management/2KXJ8ZWQ71XK",
        "Document.ParentIdentifier": "NL1UNEH",
        "CoreField.IIIFResourceType": "Canvas",
        "Document.IIIFV3ID": "https://collections.newberry.org/IIIF3/Presentation/Canvas/2KXJ8ZWQ71XK",
        "originalfilename": "994533958805867_MM06-0057_map_g10896_165_002.tif",
        "RelatedValue.Original-Filename": "",
        "CoreField.OriginalFileName": "994533958805867_MM06-0057_map_g10896_165_002.tif",
        "Title": "Preliminary comprehensive city plan of Chicago a generalized presentation of the physical elements of the city plan designed for a population of..."
    }, {
        "CoreField.Identifier": "NL1UN4Q",
        "Document.CortexParentLink": "https://collections.newberry.org/asset-management/2KXJ8ZWQ7B21",
        "Document.CortexShareLink": "https://collections.newberry.org/asset-management/2KXJ8ZWQ77OO",
        "Document.ParentIdentifier": "NL1UNEH",
        "CoreField.IIIFResourceType": "Canvas",
        "Document.IIIFV3ID": "https://collections.newberry.org/IIIF3/Presentation/Canvas/2KXJ8ZWQ77OO",
        "originalfilename": "994533958805867_MM06-0057_map_g10896_165_003.tif",
        "RelatedValue.Original-Filename": "",
        "CoreField.OriginalFileName": "994533958805867_MM06-0057_map_g10896_165_003.tif",
        "Title": "Preliminary comprehensive city plan of Chicago a generalized presentation of the physical elements of the city plan designed for a population of..."
    }, {
        "CoreField.Identifier": "NL1UNEV",
        "Document.CortexParentLink": "https://collections.newberry.org/asset-management/2KXJ8ZWQ7B21",
        "Document.CortexShareLink": "https://collections.newberry.org/asset-management/2KXJ8ZWQ9SJ4",
        "Document.ParentIdentifier": "NL1UNEH",
        "CoreField.IIIFResourceType": "Canvas",
        "Document.IIIFV3ID": "https://collections.newberry.org/IIIF3/Presentation/Canvas/2KXJ8ZWQ9SJ4",
        "originalfilename": "994533958805867_MM06-0057_map_g10896_165_004.tif",
        "RelatedValue.Original-Filename": "",
        "CoreField.OriginalFileName": "994533958805867_MM06-0057_map_g10896_165_004.tif",
        "Title": "Preliminary comprehensive city plan of Chicago a generalized presentation of the physical elements of the city plan designed for a population of..."
    }, {
        "CoreField.Identifier": "NL1UNEU",
        "Document.CortexParentLink": "https://collections.newberry.org/asset-management/2KXJ8ZWQ7B21",
        "Document.CortexShareLink": "https://collections.newberry.org/asset-management/2KXJ8ZWQ9I58",
        "Document.ParentIdentifier": "NL1UNEH",
        "CoreField.IIIFResourceType": "Canvas",
        "Document.IIIFV3ID": "https://collections.newberry.org/IIIF3/Presentation/Canvas/2KXJ8ZWQ9I58",
        "originalfilename": "994533958805867_MM06-0057_map_g10896_165_005.tif",
        "RelatedValue.Original-Filename": "",
        "CoreField.OriginalFileName": "994533958805867_MM06-0057_map_g10896_165_005.tif",
        "Title": "Preliminary comprehensive city plan of Chicago a generalized presentation of the physical elements of the city plan designed for a population of..."
    }, {
        "CoreField.Identifier": "NL1UMUS",
        "Document.CortexParentLink": "https://collections.newberry.org/asset-management/2KXJ8ZWP58OQ",
        "Document.CortexShareLink": "https://collections.newberry.org/asset-management/2KXJ8ZWP5AJU",
        "Document.ParentIdentifier": "NL1UMTX",
        "CoreField.IIIFResourceType": "Canvas",
        "Document.IIIFV3ID": "https://collections.newberry.org/IIIF3/Presentation/Canvas/2KXJ8ZWP5AJU",
        "originalfilename": "998643898805867_MM06-0059_map_4f_g4014_n5r6_1961_h6_002.tif",
        "RelatedValue.Original-Filename": "",
        "CoreField.OriginalFileName": "998643898805867_MM06-0059_map_4f_g4014_n5r6_1961_h6_002.tif",
        "Title": "New Orleans metropolitan area basic evacuation plan"
    }, {
        "CoreField.Identifier": "NL1UMT0",
        "Document.CortexParentLink": "https://collections.newberry.org/asset-management/2KXJ8ZWP4QBK",
        "Document.CortexShareLink": "https://collections.newberry.org/asset-management/2KXJ8ZWP4MT9",
        "Document.ParentIdentifier": "NL1UMTP",
        "CoreField.IIIFResourceType": "Canvas",
        "Document.IIIFV3ID": "https://collections.newberry.org/IIIF3/Presentation/Canvas/2KXJ8ZWP4MT9",
        "originalfilename": "998645668805867_MM06-0051_H_67_622_map 2_001.tif",
        "RelatedValue.Original-Filename": "",
        "CoreField.OriginalFileName": "998645668805867_MM06-0051_H_67_622_map 2_001.tif",
        "Title": "Map of the East River waterfront from Grand Street to Thirty-fourth Street in New York City"
    }, {
        "CoreField.Identifier": "NL1UNFD",
        "Document.CortexParentLink": "https://collections.newberry.org/asset-management/2KXJ8ZWPVDTO",
        "Document.CortexShareLink": "https://collections.newberry.org/asset-management/2KXJ8ZWQ9TGX",
        "Document.ParentIdentifier": "NL1UMRC",
        "CoreField.IIIFResourceType": "Canvas",
        "Document.IIIFV3ID": "https://collections.newberry.org/IIIF3/Presentation/Canvas/2KXJ8ZWQ9TGX",
        "originalfilename": "997396178805867_MM05-0045_map_6f_g4014_c6_2c5_1858_u5_001.tif",
        "RelatedValue.Original-Filename": "",
        "CoreField.OriginalFileName": "997396178805867_MM05-0045_map_6f_g4014_c6_2c5_1858_u5_001.tif",
        "Title": "Chicago harbor & bar, Illinois from survey made between the 17th of August & the 2nd of September 1858"
    }, {
        "CoreField.Identifier": "NL1UMT0",
        "Document.CortexParentLink": "https://collections.newberry.org/asset-management/2KXJ8ZWP4QBK",
        "Document.CortexShareLink": "https://collections.newberry.org/asset-management/2KXJ8ZWP4MT9",
        "Document.ParentIdentifier": "NL1UMTP",
        "CoreField.IIIFResourceType": "Canvas",
        "Document.IIIFV3ID": "https://collections.newberry.org/IIIF3/Presentation/Canvas/2KXJ8ZWP4MT9",
        "originalfilename": "998645668805867_MM06-0051_H_67_622_map 2_001.tif",
        "RelatedValue.Original-Filename": "",
        "CoreField.OriginalFileName": "998645668805867_MM06-0051_H_67_622_map 2_001.tif",
        "Title": "Map of the East River waterfront from Grand Street to Thirty-fourth Street in New York City"
    }, {
        "CoreField.Identifier": "NL1UMSV",
        "Document.CortexParentLink": "https://collections.newberry.org/asset-management/2KXJ8ZWP4RD5",
        "Document.CortexShareLink": "https://collections.newberry.org/asset-management/2KXJ8ZWPSL1W",
        "Document.ParentIdentifier": "NL1UMTK",
        "CoreField.IIIFResourceType": "Canvas",
        "Document.IIIFV3ID": "https://collections.newberry.org/IIIF3/Presentation/Canvas/2KXJ8ZWPSL1W",
        "originalfilename": "998643918805867_MM06-0053_map_6f_g3804_n4a1_1895_r3_002.tif",
        "RelatedValue.Original-Filename": "",
        "CoreField.OriginalFileName": "998643918805867_MM06-0053_map_6f_g3804_n4a1_1895_r3_002.tif",
        "Title": "Rand McNally & Co.\u0027s road map of the country around New York including parts of northern and central New Jersey, Westchester County, Long Island,..."
    }, {
        "CoreField.Identifier": "NL1UMSX",
        "Document.CortexParentLink": "https://collections.newberry.org/asset-management/2KXJ8ZWP4RD5",
        "Document.CortexShareLink": "https://collections.newberry.org/asset-management/2KXJ8ZWP4B12",
        "Document.ParentIdentifier": "NL1UMTK",
        "CoreField.IIIFResourceType": "Canvas",
        "Document.IIIFV3ID": "https://collections.newberry.org/IIIF3/Presentation/Canvas/2KXJ8ZWP4B12",
        "originalfilename": "998643918805867_MM06-0053_map_6f_g3804_n4a1_1895_r3_003.tif",
        "RelatedValue.Original-Filename": "",
        "CoreField.OriginalFileName": "998643918805867_MM06-0053_map_6f_g3804_n4a1_1895_r3_003.tif",
        "Title": "Rand McNally & Co.\u0027s road map of the country around New York including parts of northern and central New Jersey, Westchester County, Long Island,..."
    }, {
        "CoreField.Identifier": "NL1UN4H",
        "Document.CortexParentLink": "https://collections.newberry.org/asset-management/2KXJ8ZWQ7A39",
        "Document.CortexShareLink": "https://collections.newberry.org/asset-management/2KXJ8ZWQ7PBO",
        "Document.ParentIdentifier": "NL1UNE8",
        "CoreField.IIIFResourceType": "Canvas",
        "Document.IIIFV3ID": "https://collections.newberry.org/IIIF3/Presentation/Canvas/2KXJ8ZWQ7PBO",
        "originalfilename": "991570248805867_MM05-0044_Graff_3360_008.tif",
        "RelatedValue.Original-Filename": "",
        "CoreField.OriginalFileName": "991570248805867_MM05-0044_Graff_3360_008.tif",
        "Title": "Topographical map of the road from Missouri to Oregon, commencing at the mouth of the Kansas in the Missouri River and ending at the mouth of the..."
    }, {
        "CoreField.Identifier": "NL1UNEB",
        "Document.CortexParentLink": "https://collections.newberry.org/asset-management/2KXJ8ZWPVDTO",
        "Document.CortexShareLink": "https://collections.newberry.org/asset-management/2KXJ8ZWQ7SG4",
        "Document.ParentIdentifier": "NL1UMRC",
        "CoreField.IIIFResourceType": "Canvas",
        "Document.IIIFV3ID": "https://collections.newberry.org/IIIF3/Presentation/Canvas/2KXJ8ZWQ7SG4",
        "originalfilename": "991410948805867_MM05-0046_case_ms_g4050_1866_d6_002.tif",
        "RelatedValue.Original-Filename": "",
        "CoreField.OriginalFileName": "991410948805867_MM05-0046_case_ms_g4050_1866_d6_002.tif",
        "Title": "Map of the military district, Kansas and the territories"
    }, {
        "CoreField.Identifier": "NL1UN4P",
        "Document.CortexParentLink": "https://collections.newberry.org/asset-management/2KXJ8ZWPVDTO",
        "Document.CortexShareLink": "https://collections.newberry.org/asset-management/2KXJ8ZWQ7K95",
        "Document.ParentIdentifier": "NL1UMRC",
        "CoreField.IIIFResourceType": "Canvas",
        "Document.IIIFV3ID": "https://collections.newberry.org/IIIF3/Presentation/Canvas/2KXJ8ZWQ7K95",
        "originalfilename": "991410948805867_MM05-0046_case_ms_g4050_1866_d6_003.tif",
        "RelatedValue.Original-Filename": "",
        "CoreField.OriginalFileName": "991410948805867_MM05-0046_case_ms_g4050_1866_d6_003.tif",
        "Title": "Map of the military district, Kansas and the territories"
    }, {
        "CoreField.Identifier": "NL1UNE8",
        "Document.CortexParentLink": "https://collections.newberry.org/asset-management/2KXJ8ZWPVDTO",
        "Document.CortexShareLink": "https://collections.newberry.org/asset-management/2KXJ8ZWQ7A39",
        "Document.ParentIdentifier": "NL1UMRC",
        "CoreField.IIIFResourceType": "Canvas",
        "Document.IIIFV3ID": "https://collections.newberry.org/IIIF3/Presentation/Canvas/2KXJ8ZWQ7A39",
        "originalfilename": "991570248805867_MM05-0044_Graff_3360_002.tif",
        "RelatedValue.Original-Filename": "",
        "CoreField.OriginalFileName": "991570248805867_MM05-0044_Graff_3360_002.tif",
        "Title": "Topographical map of the road from Missouri to Oregon, commencing at the mouth of the Kansas in the Missouri River and ending at the mouth of the..."
    }, {
        "CoreField.Identifier": "NL1UN41",
        "Document.CortexParentLink": "https://collections.newberry.org/asset-management/2KXJ8ZWQ7A39",
        "Document.CortexShareLink": "https://collections.newberry.org/asset-management/2KXJ8ZWQVBC1",
        "Document.ParentIdentifier": "NL1UNE8",
        "CoreField.IIIFResourceType": "Canvas",
        "Document.IIIFV3ID": "https://collections.newberry.org/IIIF3/Presentation/Canvas/2KXJ8ZWQVBC1",
        "originalfilename": "991570248805867_MM05-0044_Graff_3360_003.tif",
        "RelatedValue.Original-Filename": "",
        "CoreField.OriginalFileName": "991570248805867_MM05-0044_Graff_3360_003.tif",
        "Title": "Topographical map of the road from Missouri to Oregon, commencing at the mouth of the Kansas in the Missouri River and ending at the mouth of the..."
    }, {
        "CoreField.Identifier": "NL1UN42",
        "Document.CortexParentLink": "https://collections.newberry.org/asset-management/2KXJ8ZWQ7A39",
        "Document.CortexShareLink": "https://collections.newberry.org/asset-management/2KXJ8ZWQVDZ2",
        "Document.ParentIdentifier": "NL1UNE8",
        "CoreField.IIIFResourceType": "Canvas",
        "Document.IIIFV3ID": "https://collections.newberry.org/IIIF3/Presentation/Canvas/2KXJ8ZWQVDZ2",
        "originalfilename": "991570248805867_MM05-0044_Graff_3360_004.tif",
        "RelatedValue.Original-Filename": "",
        "CoreField.OriginalFileName": "991570248805867_MM05-0044_Graff_3360_004.tif",
        "Title": "Topographical map of the road from Missouri to Oregon, commencing at the mouth of the Kansas in the Missouri River and ending at the mouth of the..."
    }, {
        "CoreField.Identifier": "NL1UN40",
        "Document.CortexParentLink": "https://collections.newberry.org/asset-management/2KXJ8ZWQ7A39",
        "Document.CortexShareLink": "https://collections.newberry.org/asset-management/2KXJ8ZWQVHI7",
        "Document.ParentIdentifier": "NL1UNE8",
        "CoreField.IIIFResourceType": "Canvas",
        "Document.IIIFV3ID": "https://collections.newberry.org/IIIF3/Presentation/Canvas/2KXJ8ZWQVHI7",
        "originalfilename": "991570248805867_MM05-0044_Graff_3360_005.tif",
        "RelatedValue.Original-Filename": "",
        "CoreField.OriginalFileName": "991570248805867_MM05-0044_Graff_3360_005.tif",
        "Title": "Topographical map of the road from Missouri to Oregon, commencing at the mouth of the Kansas in the Missouri River and ending at the mouth of the..."
    }, {
        "CoreField.Identifier": "NL1UN43",
        "Document.CortexParentLink": "https://collections.newberry.org/asset-management/2KXJ8ZWQ7A39",
        "Document.CortexShareLink": "https://collections.newberry.org/asset-management/2KXJ8ZWQVLPI",
        "Document.ParentIdentifier": "NL1UNE8",
        "CoreField.IIIFResourceType": "Canvas",
        "Document.IIIFV3ID": "https://collections.newberry.org/IIIF3/Presentation/Canvas/2KXJ8ZWQVLPI",
        "originalfilename": "991570248805867_MM05-0044_Graff_3360_006.tif",
        "RelatedValue.Original-Filename": "",
        "CoreField.OriginalFileName": "991570248805867_MM05-0044_Graff_3360_006.tif",
        "Title": "Topographical map of the road from Missouri to Oregon, commencing at the mouth of the Kansas in the Missouri River and ending at the mouth of the..."
    }, {
        "CoreField.Identifier": "NL1UN4F",
        "Document.CortexParentLink": "https://collections.newberry.org/asset-management/2KXJ8ZWQ7A39",
        "Document.CortexShareLink": "https://collections.newberry.org/asset-management/2KXJ8ZWQ7Y6W",
        "Document.ParentIdentifier": "NL1UNE8",
        "CoreField.IIIFResourceType": "Canvas",
        "Document.IIIFV3ID": "https://collections.newberry.org/IIIF3/Presentation/Canvas/2KXJ8ZWQ7Y6W",
        "originalfilename": "991570248805867_MM05-0044_Graff_3360_007.tif",
        "RelatedValue.Original-Filename": "",
        "CoreField.OriginalFileName": "991570248805867_MM05-0044_Graff_3360_007.tif",
        "Title": "Topographical map of the road from Missouri to Oregon, commencing at the mouth of the Kansas in the Missouri River and ending at the mouth of the..."
    }, {
        "CoreField.Identifier": "NL1UMU5",
        "Document.CortexParentLink": "https://collections.newberry.org/asset-management/2KXJ8ZWP5JYB",
        "Document.CortexShareLink": "https://collections.newberry.org/asset-management/2KXJ8ZWP5FG7",
        "Document.ParentIdentifier": "NL1UMUA",
        "CoreField.IIIFResourceType": "Canvas",
        "Document.IIIFV3ID": "https://collections.newberry.org/IIIF3/Presentation/Canvas/2KXJ8ZWP5FG7",
        "originalfilename": "998713858805867_MM12-0115_baskes_e_158_p91_1848_04.tif",
        "RelatedValue.Original-Filename": "",
        "CoreField.OriginalFileName": "998713858805867_MM12-0115_baskes_e_158_p91_1848_04.tif",
        "Title": "Map of the Hudson River"
    }, {
        "CoreField.Identifier": "NL1UO0U",
        "Document.CortexParentLink": "https://collections.newberry.org/asset-management/2KXJ8ZWPVDTO",
        "Document.CortexShareLink": "https://collections.newberry.org/asset-management/2KXJ8ZWQPAF9",
        "Document.ParentIdentifier": "NL1UMRC",
        "CoreField.IIIFResourceType": "Canvas",
        "Document.IIIFV3ID": "https://collections.newberry.org/IIIF3/Presentation/Canvas/2KXJ8ZWQPAF9",
        "originalfilename": "MM12-0119-02_Final.tif",
        "RelatedValue.Original-Filename": "",
        "CoreField.OriginalFileName": "MM12-0119-02_Final.tif",
        "Title": "Sheet 2. A longitudinal section of the valley of the Mississippi River, from the junction of the Minnesota to the junction of the Ohio River : as..."
    }, {
        "CoreField.Identifier": "NL1UMUN",
        "Document.CortexParentLink": "https://collections.newberry.org/asset-management/2KXJ8ZWP563I",
        "Document.CortexShareLink": "https://collections.newberry.org/asset-management/2KXJ8ZWP5T6R",
        "Document.ParentIdentifier": "NL1UMUJ",
        "CoreField.IIIFResourceType": "Canvas",
        "Document.IIIFV3ID": "https://collections.newberry.org/IIIF3/Presentation/Canvas/2KXJ8ZWP5T6R",
        "originalfilename": "998713838805867_MM12-0112_case_g_875_191_02.tif",
        "RelatedValue.Original-Filename": "",
        "CoreField.OriginalFileName": "998713838805867_MM12-0112_case_g_875_191_02.tif",
        "Title": "Falls of Ohio"
    }, {
        "CoreField.Identifier": "NL1UMU6",
        "Document.CortexParentLink": "https://collections.newberry.org/asset-management/2KXJ8ZWP5JYB",
        "Document.CortexShareLink": "https://collections.newberry.org/asset-management/2KXJ8ZWP5BU2",
        "Document.ParentIdentifier": "NL1UMUA",
        "CoreField.IIIFResourceType": "Canvas",
        "Document.IIIFV3ID": "https://collections.newberry.org/IIIF3/Presentation/Canvas/2KXJ8ZWP5BU2",
        "originalfilename": "998713858805867_MM12-0115_baskes_e_158_p91_1848_02.tif",
        "RelatedValue.Original-Filename": "",
        "CoreField.OriginalFileName": "998713858805867_MM12-0115_baskes_e_158_p91_1848_02.tif",
        "Title": "Map of the Hudson River"
    }, {
        "CoreField.Identifier": "NL1UMU4",
        "Document.CortexParentLink": "https://collections.newberry.org/asset-management/2KXJ8ZWP5JYB",
        "Document.CortexShareLink": "https://collections.newberry.org/asset-management/2KXJ8ZWP5LMW",
        "Document.ParentIdentifier": "NL1UMUA",
        "CoreField.IIIFResourceType": "Canvas",
        "Document.IIIFV3ID": "https://collections.newberry.org/IIIF3/Presentation/Canvas/2KXJ8ZWP5LMW",
        "originalfilename": "998713858805867_MM12-0115_baskes_e_158_p91_1848_03.tif",
        "RelatedValue.Original-Filename": "",
        "CoreField.OriginalFileName": "998713858805867_MM12-0115_baskes_e_158_p91_1848_03.tif",
        "Title": "Map of the Hudson River"
    }, {
        "CoreField.Identifier": "NL1UO1W",
        "Document.CortexParentLink": "https://collections.newberry.org/asset-management/2KXJ8ZWPVDTO",
        "Document.CortexShareLink": "https://collections.newberry.org/asset-management/2KXJ8ZWQ2VHR",
        "Document.ParentIdentifier": "NL1UMRC",
        "CoreField.IIIFResourceType": "Canvas",
        "Document.IIIFV3ID": "https://collections.newberry.org/IIIF3/Presentation/Canvas/2KXJ8ZWQ2VHR",
        "originalfilename": "MM13-0121-02_Final.tif",
        "RelatedValue.Original-Filename": "",
        "CoreField.OriginalFileName": "MM13-0121-02_Final.tif",
        "Title": "Works on canals"
    }, {
        "CoreField.Identifier": "NL1UO4S",
        "Document.CortexParentLink": "https://collections.newberry.org/asset-management/2KXJ8ZWPVDTO",
        "Document.CortexShareLink": "https://collections.newberry.org/asset-management/2KXJ8ZWQWW22",
        "Document.ParentIdentifier": "NL1UMRC",
        "CoreField.IIIFResourceType": "Canvas",
        "Document.IIIFV3ID": "https://collections.newberry.org/IIIF3/Presentation/Canvas/2KXJ8ZWQWW22",
        "originalfilename": "MM13-0126-04_Final.tif",
        "RelatedValue.Original-Filename": "",
        "CoreField.OriginalFileName": "MM13-0126-04_Final.tif",
        "Title": "Port facilities at Buffalo, N.Y."
    }, {
        "CoreField.Identifier": "NL1UMVO",
        "Document.CortexParentLink": "https://collections.newberry.org/asset-management/2KXJ8ZWQKS_R",
        "Document.CortexShareLink": "https://collections.newberry.org/asset-management/2KXJ8ZWQKX_O",
        "Document.ParentIdentifier": "NL1UMVK",
        "CoreField.IIIFResourceType": "Canvas",
        "Document.IIIFV3ID": "https://collections.newberry.org/IIIF3/Presentation/Canvas/2KXJ8ZWQKX_O",
        "originalfilename": "998716078805867_MM13-0129_map_6f_g3812_c6_1949_u55_02.tif",
        "RelatedValue.Original-Filename": "",
        "CoreField.OriginalFileName": "998716078805867_MM13-0129_map_6f_g3812_c6_1949_u55_02.tif",
        "Title": "New Jersey Intracoastal Waterway Little Egg Harbor to Longport"
    }, {
        "CoreField.Identifier": "NL1UMV3",
        "Document.CortexParentLink": "https://collections.newberry.org/asset-management/2KXJ8ZWQKS_R",
        "Document.CortexShareLink": "https://collections.newberry.org/asset-management/2KXJ8ZWQK1_Q",
        "Document.ParentIdentifier": "NL1UMVK",
        "CoreField.IIIFResourceType": "Canvas",
        "Document.IIIFV3ID": "https://collections.newberry.org/IIIF3/Presentation/Canvas/2KXJ8ZWQK1_Q",
        "originalfilename": "998716078805867_MM13-0129_map_6f_g3812_c6_1949_u55_03.tif",
        "RelatedValue.Original-Filename": "",
        "CoreField.OriginalFileName": "998716078805867_MM13-0129_map_6f_g3812_c6_1949_u55_03.tif",
        "Title": "New Jersey Intracoastal Waterway Little Egg Harbor to Longport"
    }, {
        "CoreField.Identifier": "NL1UMV7",
        "Document.CortexParentLink": "https://collections.newberry.org/asset-management/2KXJ8ZWQKS_R",
        "Document.CortexShareLink": "https://collections.newberry.org/asset-management/2KXJ8ZWQKB_8",
        "Document.ParentIdentifier": "NL1UMVK",
        "CoreField.IIIFResourceType": "Canvas",
        "Document.IIIFV3ID": "https://collections.newberry.org/IIIF3/Presentation/Canvas/2KXJ8ZWQKB_8",
        "originalfilename": "998716078805867_MM13-0129_map_6f_g3812_c6_1949_u55_04.tif",
        "RelatedValue.Original-Filename": "",
        "CoreField.OriginalFileName": "998716078805867_MM13-0129_map_6f_g3812_c6_1949_u55_04.tif",
        "Title": "New Jersey Intracoastal Waterway Little Egg Harbor to Longport"
    }, {
        "CoreField.Identifier": "NL1UO2N",
        "Document.CortexParentLink": "https://collections.newberry.org/asset-management/2KXJ8ZWPVDTO",
        "Document.CortexShareLink": "https://collections.newberry.org/asset-management/2KXJ8ZWQNHX7",
        "Document.ParentIdentifier": "NL1UMRC",
        "CoreField.IIIFResourceType": "Canvas",
        "Document.IIIFV3ID": "https://collections.newberry.org/IIIF3/Presentation/Canvas/2KXJ8ZWQNHX7",
        "originalfilename": "MM13-0126-02_Final.tif",
        "RelatedValue.Original-Filename": "",
        "CoreField.OriginalFileName": "MM13-0126-02_Final.tif",
        "Title": "Destination of lake shipments from Buffalo, N.Y., during 1929"
    }, {
        "CoreField.Identifier": "NL1UO33",
        "Document.CortexParentLink": "https://collections.newberry.org/asset-management/2KXJ8ZWPVDTO",
        "Document.CortexShareLink": "https://collections.newberry.org/asset-management/2KXJ8ZWQNWJ2",
        "Document.ParentIdentifier": "NL1UMRC",
        "CoreField.IIIFResourceType": "Canvas",
        "Document.IIIFV3ID": "https://collections.newberry.org/IIIF3/Presentation/Canvas/2KXJ8ZWQNWJ2",
        "originalfilename": "MM13-0126-03_Final.tif",
        "RelatedValue.Original-Filename": "",
        "CoreField.OriginalFileName": "MM13-0126-03_Final.tif",
        "Title": "Airplane view of the port of Buffalo, N.Y"
    }
]