[{
        "essay_title": "Maps, Movement, and American Literature",
        "essay_text_filename": "_MAIN_maps_movement_lit.txt",
        "path": "maps-movement-lit",
        "maps": [{
                "miniessay": "British and French Dominions in North America, 1755",
                "text_filename": "1755_british_french.txt",
                "path": "1755-british-french",
                "image_filename": ""
            },
            {
                "miniessay": "Christopher Columbus's Letter, 1494",
                "text_filename": "1494_christopher_columbus.txt",
                "path": "1494-christopher-columbus",
                "image_filename": ["998731588805867_MM15-0141_Ayer_107_56_1493_1494_01.tif"]
            },
            {
                "miniessay": "",
                "text_filename": "",
                "image_filename": ["998731658805867_MM15-0141_Ayer_107_56_1493_1494_02.tif"]
            },
            {
                "miniessay": "Mississippi River, St. Louis to the Gulf, 1862",
                "text_filename": "1862_mississippi.txt",
                "path": "1862-mississippi",
                "image_filename": ["998782318805867_MM15-0147_map_8f_g4042_m5_1862_l55.tif"]
            },
            {
                "miniessay": "New England, 1616",
                "text_filename": "1616_new_england.txt",
                "path": "1616-new-england",
                "image_filename": ["998732618805867_MM15-0142_ayer_150_5_n4_s6_1616_01.tif"]
            },
            {
                "miniessay": "Road Map of the Southwestern States",
                "text_filename": "1955_road_map_southwestern.txt",
                "path": "1955-road-map-southwestern",
                "image_filename": [
                    "999422378805867_MM15-0150_rmn_clients_3745_01.tif",
                    "999422378805867_MM15-0150_rmn_clients_3745_02.tif"
                ]
            },
            {
                "miniessay": "Territories of Michigan and Ouisconsin, 1836",
                "text_filename": "1836_michigan_ouisconsin.txt",
                "path": "1836-michigan-ouisconsin",
                "image_filename": ["991578698805867_MM15-0146_graff_1290.tif"]
            },
            {
                "miniessay": "The Hollow Earth, 1906",
                "text_filename": "1906_hollow_earth.txt",
                "path": "1906-hollow-earth",
                "image_filename": ["998732568805867_MM15-0149_Fitzgerald_QE_509_R44_1906_pg_27.tif"]
            },
            {
                "miniessay": "The Island of Barbados, 1657",
                "text_filename": "1657_island_barbados.txt",
                "path": "1657-island-barbados",
                "image_filename": ["998732608805867_MM15-0143_ayer_1000_5_b22_l7_1657.tif"]
            },
            {
                "miniessay": "The United States of America, 1784",
                "text_filename": "1784_usa.txt",
                "path": "1784-usa",
                "image_filename": ["998732598805867_MM15-0145_Ayer_109_5_M7_1784_map_25.tif"]
            },
            {
                "miniessay": "Zigzag Journeys, Western States of America, 1884",
                "text_filename": "1884_zigzag.txt",
                "path": "1884-zigzag",
                "image_filename": ["998732578805867_MM15-0148_G_835_139.tif"]
            }
        ]
    },
    {
        "essay_title": "European Maps for Exploration and Discovery",
        "essay_text_filename": "_MAIN_european_maps_for_exploration.txt",
        "path": "european-maps-for-exploration",
        "maps": [{
                "miniessay": "Nautical chart of the Pacific coast of Mexico, Baja California, and the Gulf of California, 1541 (1770)',",
                "text_filename": "1541_nautical_chart_of_the_pacific_coast_of_mexico.txt",
                "path": "1541-nautical-chart-of-the-pacific-coast-of-mexico",
                "image_filename": ["MM08-0071-01_Final.tif"]
            },
            {
                "miniessay": "Florida and the Apalachee Lands, 1598",
                "text_filename": "1598_florida_and_the_apalachee_lands.txt",
                "path": "1598-florida-and-the-apalachee-lands",
                "image_filename": ["MM08-0072-01_Final.tif"]
            },
            {
                "miniessay": "New France, 1612",
                "text_filename": "1612_new_france.txt",
                "path": "1612-new-france",
                "image_filename": [
                    "998668988805867_MM08-0074_ayer_121_c6_1613_001.tif",
                    "998671228805867_MM08-0074_ayer_121_c6_1613_002.tif"
                ]
            },
            {
                "miniessay": "Virginia, 1612",
                "text_filename": "1612_virginia.txt",
                "path": "1612-virginia",
                "image_filename": ["MM08-0073-01_Final.tif"]
            },
            {
                "miniessay": "Jesuit Map of Lake Superior, 1672",
                "text_filename": "1672_jesuit_map_of_lake_superior.txt",
                "path": "1672-jesuit-map-of-lake-superior",
                "image_filename": ["MM08-0075-01_Final.tif"]
            },
            {
                "miniessay": "Globe Gore of Eastern North America, 1688",
                "text_filename": "1688_globe_gore_of_eastern_north_america.txt",
                "path": "1688-globe-gore-of-eastern-north-america",
                "image_filename": ["998670108805867_MM08-0076_map_2f_g3300_1688_c6.tif"]
            },
            {
                "miniessay": "New Voyages in Northern America, 1703",
                "text_filename": "1703_new_voyages_in_northern_america.txt",
                "path": "1703-new-voyages-in-northern-america",
                "image_filename": ""
            },
            {
                "miniessay": "Russian Voyages in the Pacific Northwest, 1761",
                "text_filename": "1761_russian_voyages_in_the_pacific_northwest.txt",
                "path": "1761-russian-voyages-in-the-pacific-northwest",
                "image_filename": ["995096398805867_MM08-0078_ayer_133_l772_1761.tif"]
            },
            {
                "miniessay": "Map of Kentucky, 1784",
                "text_filename": "1784_map_of_kentucky.txt",
                "path": "1784-map-of-kentucky",
                "image_filename": [
                    "Ayer map8C G3950 1784 .F5 (Vault) Map of Kentucke, drawn from actual",
                    "observations.tif"
                ]
            },
            {
                "miniessay": "MacKenzie's Northern Voyages, 1801",
                "text_filename": "1801_mackenzies_northern_voyages.txt",
                "path": "1801-mackenzies-northern-voyages",
                "image_filename": ["MM08-0080-03_Final.tif"]
            },
            {
                "miniessay": "",
                "text_filename": "",
                "image_filename": ["MM08-0080-01_Final.tif"]
            }
        ]
    },
    {
        "essay_title": "Around, Over, and Through the Americas",
        "essay_text_filename": "_MAIN_around_over_through.txt",
        "path": "around-over-through",
        "maps": [{
                "miniessay": "Louisiana and the Coast of Mexico, 1726",
                "text_filename": "1726_louisiana_mexico.txt",
                "path": "1726-louisiana-mexico",
                "image_filename": ["991759858805867_MM19-0189_Ayer_MS_map_30_sheet_78.tif"]
            },
            {
                "miniessay": "",
                "text_filename": "",
                "image_filename": ""
            },
            {
                "miniessay": "Atlas of Venezuela, 1840",
                "text_filename": "1840_atlas_venezuela.txt",
                "path": "1840-atlas-venezuela",
                "image_filename": ""
            },
            {
                "miniessay": "",
                "text_filename": "",
                "image_filename": ""
            },
            {
                "miniessay": "",
                "text_filename": "",
                "image_filename": ""
            },
            {
                "miniessay": "",
                "text_filename": "",
                "image_filename": ""
            },
            {
                "miniessay": "Military Reconnaissance from Fort Leavenworth to San Diego, 1848",
                "text_filename": "1848_military_leavenworth.txt",
                "path": "1848-military-leavenworth",
                "image_filename": ""
            },
            {
                "miniessay": "",
                "text_filename": "",
                "image_filename": ""
            },
            {
                "miniessay": "",
                "text_filename": "",
                "image_filename": ""
            },
            {
                "miniessay": "",
                "text_filename": "",
                "image_filename": ""
            },
            {
                "miniessay": "The Panama Railroad, 1855",
                "text_filename": "1855_panama_rr.txt",
                "path": "1855-panama-rr",
                "image_filename": ["998723648805867_MM19-0187_g_981_88_pg_67.tif"]
            },
            {
                "miniessay": "The United States of Brazil, 1908",
                "text_filename": "1908_united_brazil.txt",
                "path": "1908-united-brazil",
                "image_filename": ["994086038805867_MM19-0185_g_1099_1_details_01.tif"]
            },
            {
                "miniessay": "",
                "text_filename": "",
                "image_filename": ["994086038805867_MM19-0185_g_1099_1_details_02.tif"]
            },
            {
                "miniessay": "",
                "text_filename": "",
                "image_filename": ["994086038805867_MM19-0185_g_1099_1_details_03.tif"]
            },
            {
                "miniessay": "",
                "text_filename": "",
                "image_filename": ["994086038805867_MM19-0185_g_1099_1_details_04.tif"]
            },
            {
                "miniessay": "",
                "text_filename": "",
                "image_filename": ["994086038805867_MM19-0185_g_1099_1_details_05.tif"]
            },
            {
                "miniessay": "",
                "text_filename": "",
                "image_filename": ["994086038805867_MM19-0185_g_1099_1_details_06.tif"]
            },
            {
                "miniessay": "",
                "text_filename": "",
                "image_filename": ["994086038805867_MM19-0185_g_1099_1_details_07.tif"]
            },
            {
                "miniessay": "The Route of Professor Hiram Bingham from Caracas to Bogota, 1909",
                "text_filename": "1909_route_bogota.txt",
                "path": "1909-route-bogota",
                "image_filename": ["998724268805867_MM19-0182_ayer_1300_5_c7_b61_1909_map.tif"]
            },
            {
                "miniessay": "Airmail Route, Argentina to United States, 1929",
                "text_filename": "1929_airmail_argentina.txt",
                "path": "1929-airmail-argentina",
                "image_filename": ["998723628805867_MM19-0186_H_65083_98_pg_3.tif"]
            },
            {
                "miniessay": "",
                "text_filename": "",
                "image_filename": ["998723638805867_MM19-0186_H_65083_98_pg_22_23.tif"]
            },
            {
                "miniessay": "Ye Olde Spanish Main, 1933",
                "text_filename": "1933_ye_olde_spanish.txt",
                "path": "1933-ye-olde-spanish",
                "image_filename": ""
            },
            {
                "miniessay": "Motorist's Guide to Mexico, 1938",
                "text_filename": "1938_motorists_mexico.txt",
                "path": "1938-motorists-mexico",
                "image_filename": ["998723608805867_MM19-0184_F_1209_T65_1938_01.tif"]
            },
            {
                "miniessay": "",
                "text_filename": "",
                "image_filename": ["998724278805867_MM19-0184_F_1209_T65_1938_02.tif"]
            },
            {
                "miniessay": "",
                "text_filename": "",
                "image_filename": ["998723618805867_MM19-0184_F_1209_T65_1938_03.tif"]
            },
            {
                "miniessay": "Panorama of the American Continent, 1950",
                "text_filename": "1950_panorama_american.txt",
                "path": "1950-panorama-american",
                "image_filename": ["998731668805867_MM19-0188_map4f_g3291_a5_1950z_g4_detail.tif"]
            }
        ]
    },
    {
        "essay_title": "Mapping Communication",
        "essay_text_filename": "_MAIN_mapping_communication.txt",
        "path": "mapping-communication",
        "maps": [{
                "miniessay": "Benjamin Franklin’s Chart of the Gulf Stream, 1768-1770",
                "text_filename": "1768_chart_gulf_stream.txt",
                "path": "1768-chart-gulf-stream",
                "image_filename": ["998854138805867_MM25-0250_case_ac7_f7_no_1_map.tif"]
            },
            {
                "miniessay": "Colonial Post Roads, 1773",
                "text_filename": "1773_colonial_post_roads.txt",
                "path": "1773-colonial-post-roads",
                "image_filename": ["998854128805867_MM25-0241_case_g831_298_001.tif"]
            },
            {
                "miniessay": "",
                "text_filename": "",
                "image_filename": ["998854178805867_MM25-0241_case_g831_298_002.tif"]
            },
            {
                "miniessay": "Routes to California, 1849",
                "text_filename": "1849_routes_to_california.txt",
                "path": "1849-routes-to-california",
                "image_filename": ""
            },
            {
                "miniessay": "A Wire Across the Ocean, 1858",
                "text_filename": "1858_wire_across_ocean.txt",
                "path": "1858-wire-across-ocean",
                "image_filename": ""
            },
            {
                "miniessay": "A Wire across the Continent, 1866",
                "text_filename": "1866_wire_across_continent.txt",
                "path": "1866-wire-across-continent",
                "image_filename": ["991679048805867_MM25-0243_Graff_4589.tif"]
            },
            {
                "miniessay": "Standard Time and Solar Time, 1889",
                "text_filename": "1889_standard_time.txt",
                "path": "1889-standard-time",
                "image_filename": ["998854148805867_MM25-0245_baskes_g1019_g46_1889.tif"]
            },
            {
                "miniessay": "The New Economy, 1899",
                "text_filename": "1899_new_economy.txt",
                "path": "1899-new-economy",
                "image_filename": ""
            },
            {
                "miniessay": "",
                "text_filename": "",
                "image_filename": ""
            },
            {
                "miniessay": "Independent Telephone Networks, 1905",
                "text_filename": "1905_independent_telephone.txt",
                "path": "1905-independent-telephone",
                "image_filename": ["998854198805867_MM25-0247_h_681_803_map.tif"]
            },
            {
                "miniessay": "Radio Stations of the United States, Canada, Mexico, and Cuba, 1926",
                "text_filename": "1926_radio_stations.txt",
                "path": "1926-radio-stations",
                "image_filename": ""
            },
            {
                "miniessay": "Rivers, Roads, and Rates of Travel, 1932",
                "text_filename": "1932_rivers_roads_rates.txt",
                "path": "1932-rivers-roads-rates",
                "image_filename": ""
            }
        ]
    },
    {
        "essay_title": "Navigating the Coasts and Seas",
        "essay_text_filename": "_MAIN_navigating_the_coasts_and_seas.txt",
        "path": "navigating-the-coasts-and-seas",
        "maps": [{
                "miniessay": "Coast Pilot Chart of New England, 1732",
                "text_filename": "1732_coast_pilot_chart.txt",
                "path": "1732-coast-pilot-chart",
                "image_filename": ""
            },
            {
                "miniessay": "Variations of the Compass, Atlantic Ocean, 1732",
                "text_filename": "1732_variations_of_the_compass.txt",
                "path": "1732-variations-of-the-compass",
                "image_filename": ""
            },
            {
                "miniessay": "Trade Winds and Navigation, North Atlantic, 1807",
                "text_filename": "1807_trade_winds.txt",
                "path": "1807-trade-winds",
                "image_filename": ["998767618805867_MM18-0173_l_995_111_00.tif"]
            },
            {
                "miniessay": "",
                "text_filename": "",
                "image_filename": ["998766728805867_MM18-0173_l_995_111_02.tif"]
            },
            {
                "miniessay": "",
                "text_filename": "",
                "image_filename": ["998766738805867_MM18-0173_l_995_111_03.tif"]
            },
            {
                "miniessay": "Ships and Navigation, 1820",
                "text_filename": "1820_ships_and_navigation.txt",
                "path": "1820-ships-and-navigation",
                "image_filename": ["998774118805867_MM18-0174_a_21_737_v5_00s.tif"]
            },
            {
                "miniessay": "",
                "text_filename": "",
                "image_filename": ["998774158805867_MM18-0174_a_21_737_v4_09.tif"]
            },
            {
                "miniessay": "Stage and Steamboat Routes, Ohio, 1833",
                "text_filename": "1833_stage_and_steamboat_routes_ohio.txt",
                "path": "1833-stage-and-steamboat-routes-ohio",
                "image_filename": ""
            },
            {
                "miniessay": "U.S. Coast Survey Chart, New Haven Harbour, 1838",
                "text_filename": "1838_us_coast_survey_chart_new_haven.txt",
                "path": "1838-us-coast-survey-chart-new-haven",
                "image_filename": ""
            },
            {
                "miniessay": "Frontiers of Ocean Navigation and Study, 1859",
                "text_filename": "1859_frontiers_of_ocean.txt",
                "path": "1859-frontiers-of-ocean",
                "image_filename": ["998776318805867_MM18-0177_g_007_67_","v1859_00.tif"]
            },
            {
                "miniessay": "",
                "text_filename": "",
                "image_filename": ["998776328805867_MM18-0177_g_007_67_","v1859_01.tif"]
            },
            {
                "miniessay": "",
                "text_filename": "",
                "image_filename": ["998776338805867_MM18-0177_g_007_67_","v1859_02.tif"]
            },
            {
                "miniessay": "Austro-Hungarian Arctic Expedition, 1877",
                "text_filename": "1877_austro_hungarian.txt",
                "path": "1877-austro-hungarian",
                "image_filename": ["998776348805867_MM18-0178__g_007_67_","v1877_00.tif"]
            },
            {
                "miniessay": "",
                "text_filename": "",
                "image_filename": ["998776358805867_MM18-0179__g_007_67_","v1877_01.tif"]
            },
            {
                "miniessay": "Algae Concentrations, Sargasso Sea, 1891",
                "text_filename": "1891_algae_concentrations.txt",
                "path": "1891-algae-concentrations",
                "image_filename": ["998776358805867_MM18-0179__g_007_67_","v1877_01.tif"]
            },
            {
                "miniessay": "U.S. Coast Survey Chart, Hawaii, 1934",
                "text_filename": "1934_us_coast_survey_chart_hawaii.txt",
                "path": "1934-us-coast-survey-chart-hawaii",
                "image_filename": ""
            }
        ]
    },
    {
        "essay_title": "Lines that Fracture and Fade: Two Centuries of Travel through Georgia, 1775-1976",
        "essay_text_filename": "_MAIN_lines_that_fracture.txt",
        "path": "lines-that-fracture",
        "maps": [{
                "miniessay": "Southern Indian District of North America, 1775",
                "text_filename": "1775_southern_indian_district_of_north_america.txt",
                "path": "1775-southern-indian-district-of-north-america",
                "image_filename": ["991462688805867_MM20-0191_vault_ayer_map_ms_map_228_sheet_05.tif"]
            },
            {
                "miniessay": "Map of the State of Georgia, 1818",
                "text_filename": "1818_map_of_the_state_of_georgia.txt",
                "path": "1818-map-of-the-state-of-georgia",
                "image_filename": ""
            },
            {
                "miniessay": "The State of Georgia, in the American Atlas, 1822",
                "text_filename": "1822_state_of_georgia.txt",
                "path": "1822-state-of-georgia",
                "image_filename": ""
            },
            {
                "miniessay": "North Carolina, South Carolina, and Georgia, 1835",
                "text_filename": "1835_north_carolina_south.txt",
                "path": "1835-north-carolina-south",
                "image_filename": ""
            },
            {
                "miniessay": "U.S. Army Map of Northwestern Georgia, 1863",
                "text_filename": "1863_usarmy_map_of_northwest_georgia.txt",
                "path": "1863-usarmy-map-of-northwest-georgia",
                "image_filename": ""
            },
            {
                "miniessay": "Georgia Central Railroad and its Connections, 1869",
                "text_filename": "1869_georgia_central_railroad.txt",
                "path": "1869-georgia-central-railroad",
                "image_filename": ""
            },
            {
                "miniessay": "National Highways Proposed in Georgia, 1919",
                "text_filename": "1919_national_highways_proposed_in_georgia.txt",
                "path": "1919-national-highways-proposed-in-georgia",
                "image_filename": ""
            },
            {
                "miniessay": "Motor Routes to Augusta, Georgia and Florida, 1930",
                "text_filename": "1930_motor_routes_to_augusta.txt",
                "path": "1930-motor-routes-to-augusta",
                "image_filename": ""
            },
            {
                "miniessay": "Principal US Electric Transmission Lines, 1968",
                "text_filename": "1968_principal_us_electric.txt",
                "path": "1968-principal-us-electric",
                "image_filename": ""
            },
            {
                "miniessay": "Mapping the Travels of John and William Bartram, 1976",
                "text_filename": "1976_mapping_the_travels_of_john.txt",
                "path": "1976-mapping-the-travels-of-john",
                "image_filename": ""
            }
        ]
    },
    {
        "essay_title": "Mapping Migration and Settlement",
        "essay_text_filename": "_MAIN_mapping_migration.txt",
        "path": "mapping-migration",
        "maps": [{
                "miniessay": "Guide to the Northwestern States, in German, 1843",
                "text_filename": "1843_northwestern_states.txt",
                "path": "1843-northwestern-states",
                "image_filename": ["998758228805867_MM14-0131_graff_1682_pg_278.tif"]
            },
            {
                "miniessay": "German Immigration Guide to the US, 1846",
                "text_filename": "1846_german_immigration.txt",
                "path": "1846-german-immigration",
                "image_filename": ["998758218805867_MM14-0132_graff_409_01.tif"]
            },
            {
                "miniessay": "",
                "text_filename": "",
                "image_filename": ["998758218805867_MM14-0132_graff_409_02.tif"]
            },
            {
                "miniessay": "Map of the Route to California, 1849",
                "text_filename": "1849_route_california.txt",
                "path": "1849-route-california",
                "image_filename": ["998758458805867_MM14-0133_GR_4538_01.TIF"]
            },
            {
                "miniessay": "Eastern Kansas and Indian Lands, 1856",
                "text_filename": "1856_eastern_kansas.txt",
                "path": "1856-eastern-kansas",
                "image_filename": ""
            },
            {
                "miniessay": "Slave Populations in Southern States, 1863",
                "text_filename": "1863_slave_populations.txt",
                "path": "1863-slave-populations",
                "image_filename": ["998758528805867_MM14-0138_a5_392_v7_1863_map_p141.tif"]
            },
            {
                "miniessay": "Fire Insurance Atlas of Chicago, 1886",
                "text_filename": "1886_fire_insurance_chicago",
                "image_filename": ["MM14-0136_baskes_g4104_c6_1886_r6_vol_3_01.tif"]
            },
            {
                "miniessay": "",
                "text_filename": "",
                "image_filename": ["MM14-0136_baskes_g4104_c6_1886_r6_vol_3_01_wc.tif"]
            },
            {
                "miniessay": "",
                "text_filename": "",
                "image_filename": ["MM14-0136_baskes_g4104_c6_1886_r6_vol_3_02.tif"]
            },
            {
                "miniessay": "",
                "text_filename": "",
                "image_filename": ["MM14-0136_baskes_g4104_c6_1886_r6_vol_3_02_wc.tif"]
            },
            {
                "miniessay": "",
                "text_filename": "",
                "image_filename": ["998758518805867_MM14-0136_baskes_g4104_c6_1886_r6_vol_3_03_wc.tif"]
            },
            {
                "miniessay": "",
                "text_filename": "",
                "image_filename": ["998758508805867_MM14-0136_baskes_g4104_c6_1886_r6_vol_3_04_wc.tif"]
            },
            {
                "miniessay": "Plat book of Clayton County, Iowa, 1886",
                "text_filename": "1886_plat_book_clayton.txt",
                "path": "1886-plat-book-clayton",
                "image_filename": ""
            },
            {
                "miniessay": "",
                "text_filename": "",
                "image_filename": ""
            },
            {
                "miniessay": "Nationalities of Chicago by City Block, 1895",
                "text_filename": "1895_nationalities_chicago.txt",
                "path": "1895-nationalities-chicago",
                "image_filename": ["MM14-0135_map_6f_g4014_c6_e2_1895_g7_wc.tif"]
            },
            {
                "miniessay": "Statistical Atlas of the United States, 1898",
                "text_filename": "1898_statistical_atlas_us.txt",
                "path": "1898-statistical-atlas-us",
                "image_filename": ["998758708805867_MM14-0134govt_i_12_2_at6_01.tif"]
            },
            {
                "miniessay": "",
                "text_filename": "",
                "image_filename": ["998758608805867_MM14-0134govt_i_12_2_at6_02.tif"]
            },
            {
                "miniessay": "",
                "text_filename": "",
                "image_filename": ["998758618805867_MM14-0134govt_i_12_2_at6_03.tif"]
            },
            {
                "miniessay": "Underground Railroad Routes to Canada, 1898",
                "text_filename": "1898_underground_railroad_routes.txt",
                "path": "1898-underground-railroad-routes",
                "image_filename": ["998758238805867_MM14-0139_map1fg3701_e9_1898_s5.tif"]
            }
        ]
    },
    {
        "essay_title": "American Railroad Maps, 1873-2012",
        "essay_text_filename": "_MAIN_american_railroad_maps_1873_2012.txt",
        "path": "american-railroad-maps-1873-2012",
        "maps": [{
                "miniessay": "Amtrak Passenger Routes, 1971",
                "text_filename": "1971_amtrak_passenger.txt",
                "path": "1971-amtrak-passenger",
                "image_filename": ["999421538805867_MM03-0029_he_1805_a58_1971_001.tif"]
            },
            {
                "miniessay": "",
                "text_filename": "",
                "image_filename": ["999421538805867_MM03-0029_he_1805_a58_1971_002.tif"]
            },
            {
                "miniessay": "",
                "text_filename": "",
                "image_filename": ["999421538805867_MM03-0029_he_1805_a58_1971_003.tif"]
            },
            {
                "miniessay": "Atlas of Traffic Maps, 1925",
                "text_filename": "1925_atlas_of_traffic_maps.txt",
                "path": "1925-atlas-of-traffic-maps",
                "image_filename": ["999421498805867_MM03-0027_rmcn_atlas_a73_1925_002.tif"]
            },
            {
                "miniessay": "",
                "text_filename": "",
                "image_filename": ["999421508805867_MM03-0027_rmcn_atlas_a73_1925_001.tif"]
            },
            {
                "miniessay": "",
                "text_filename": "",
                "image_filename": ["999421508805867_MM03-0027_rmcn_atlas_a73_1925_003.tif"]
            },
            {
                "miniessay": "",
                "text_filename": "",
                "image_filename": ["999421518805867_MM03-0027_rmcn_atlas_a73_1925_004.tif"]
            },
            {
                "miniessay": "",
                "text_filename": "",
                "image_filename": ["999421518805867_MM03-0027_rmcn_atlas_a73_1925_005.tif"]
            },
            {
                "miniessay": "",
                "text_filename": "",
                "image_filename": ["999421528805867_MM03-0027_rmcn_atlas_a73_1925_006.tif"]
            },
            {
                "miniessay": "",
                "text_filename": "",
                "image_filename": ["999421528805867_MM03-0027_rmcn_atlas_a73_1925_007.tif"]
            },
            {
                "miniessay": "Canadian Pacific Railway, Metis Rebellion, 1886",
                "text_filename": "1886_canadian_pacific.txt",
                "path": "1886-canadian-pacific",
                "image_filename": ["998497298805867_MM03-0022_map_4f_g3401_s57_1886_c3_001.tif"]
            },
            {
                "miniessay": "",
                "text_filename": "",
                "image_filename": ["998497298805867_MM03-0022_map_4f_g3401_s57_1886_c3_002.tif"]
            },
            {
                "miniessay": "Georgia Railroad Commission Map, 1916",
                "text_filename": "1916_georgia_railroad.txt",
                "path": "1916-georgia-railroad",
                "image_filename": ["998497288805867_MM03-0025_map_roll_g3921_p3_1916_g4.tif"]
            },
            {
                "miniessay": "Lake Superior South Shore Railway, 1890",
                "text_filename": "1890_lake_superior.txt",
                "path": "1890-lake-superior",
                "image_filename": ["998498438805867_MM03-0023_g_909_73_map.tif"]
            },
            {
                "miniessay": "Milwaukee Road Time Table, 1920",
                "text_filename": "1920_milwaukee_road.txt",
                "path": "1920-milwaukee-road",
                "image_filename": ["998496108805867_MM03-0026_he_1805_c55_1920_001.tif"]
            },
            {
                "miniessay": "",
                "text_filename": "",
                "image_filename": ["999421458805867_MM03-0026_he_1805_c55_1920_002.tif"]
            },
            {
                "miniessay": "",
                "text_filename": "",
                "image_filename": ["999421468805867_MM03-0026_he_1805_c55_1920_003.tif"]
            },
            {
                "miniessay": "",
                "text_filename": "",
                "image_filename": ["999421468805867_MM03-0026_he_1805_c55_1920_004.tif"]
            },
            {
                "miniessay": "",
                "text_filename": "",
                "image_filename": ["999421468805867_MM03-0026_he_1805_c55_1920_005.tif"]
            },
            {
                "miniessay": "",
                "text_filename": "",
                "image_filename": ["999421468805867_MM03-0026_he_1805_c55_1920_006.tif"]
            },
            {
                "miniessay": "Railroad Operations Map, Industrial District, Kansas City, 1945",
                "text_filename": "1945_railroad_operations_map_industrial.txt",
                "path": "1945-railroad-operations-map-industrial",
                "image_filename": ["998497308805867_MM03-0028_map_6f_g4164_k2p3_1945_k3.tif"]
            },
            {
                "miniessay": "Railroad Valuation Map, Itasca, IL, 1919",
                "text_filename": "1919_railroad_valuation_map_itasca.txt",
                "path": "1919-railroad-valuation-map-itasca",
                "image_filename": ["999476408805867_MM03-0030_map_2f_g4104_i8p3_1913_u55_002.tif"]
            },
            {
                "miniessay": "",
                "text_filename": "",
                "image_filename": ["999476408805867_MM03-0030_map_2f_g4104_i8p3_1913_u55_001.tif"]
            },
            {
                "miniessay": "Rand McNally Business Atlas, Florida Map, 1909",
                "text_filename": "1909_rand_mcnally_business_atlas_florida.txt",
                "path": "1909-rand-mcnally-business-atlas-florida",
                "image_filename": ["999421428805867_MM03-0024_RMcN_Atlas_C7_1909_pg_138-139.tif"]
            },
            {
                "miniessay": "White Mountains, NH, Railroad Map, 1870",
                "text_filename": "1870_white_mountains.txt",
                "path": "1870-white-mountains",
                "image_filename": ["998496138805867_MM03-0021_map_2f_g3742_w52p3_1879_p6_002.tif"]
            },
            {
                "miniessay": "",
                "text_filename": "",
                "image_filename": ["998496138805867_MM03-0021_map_2f_g3742_w52p3_1879_p6_001.tif"]
            }
        ]
    },

    {
        "essay_title": "American Railroad Maps, 1828-1876",
        "essay_text_filename": "_MAIN_american_railroad_maps_1828_1876.txt",
        "path": "american-railroad-maps-1828-1876",
        "maps": [{
                "miniessay": "Survey of the Boston and Albany Railroad, 1828",
                "text_filename": "1828_survey_boston.txt",
                "path": "1828-survey-boston",
                "image_filename": ["998368328805867_MM01-0001_case_h_66844_396_001.tif"]
            },
            {
                "miniessay": "",
                "text_filename": "",
                "image_filename": ["998368328805867_MM01-0001_case_h_66844_396_002.tif"]
            },
            {
                "miniessay": "",
                "text_filename": "",
                "image_filename": ["998368338805867_MM01-0001_case_h_66844_396_003.tif"]
            },
            {
                "miniessay": "",
                "text_filename": "",
                "image_filename": ["998368338805867_MM01-0001_case_h_66844_396_004.tif"]
            },
            {
                "miniessay": "",
                "text_filename": "",
                "image_filename": ["998368338805867_MM01-0001_case_h_66844_396_005.tif"]
            },
            {
                "miniessay": "Vision for a U.S. Railroad Network, 1836",
                "text_filename": "1836_vision_us_rr.txt",
                "path": "1836-vision-us-rr",
                "image_filename": ["998366288805867_MM01-0002_h_6083_16_001.tif"]
            },
            {
                "miniessay": "Guidebook to the Boston and Worcester and Western Railroads, 1847",
                "text_filename": "1847_boston_worcester.txt",
                "path": "1847-boston-worcester",
                "image_filename": ["999374778805867_MM01-0003_map_3c_g3761_p3_1847_g8_001.tif"]
            },
            {
                "miniessay": "",
                "text_filename": "",
                "image_filename": ["999374788805867_MM01-0003_map_3c_g3761_p3_1847_g8_002.tif"]
            },
            {
                "miniessay": "",
                "text_filename": "",
                "image_filename": ["999374798805867_MM01-0003_map_3c_g3761_p3_1847_g8_003.tif"]
            },
            {
                "miniessay": "",
                "text_filename": "",
                "image_filename": ["999374808805867_MM01-0003_map_3c_g3761_p3_1847_g8_004.tif"]
            },
            {
                "miniessay": "Survey for a Pacific Railroad near the 35th Parallel, 1853-54",
                "text_filename": "1853_pacific_rr.txt",
                "path": "1853-pacific-rr",
                "image_filename": ["MM01-0006-01_1_2.tif"]
            },
            {
                "miniessay": "",
                "text_filename": "",
                "image_filename": ["MM01-0006-03_1_2.tif"]
            },
            {
                "miniessay": "",
                "text_filename": "",
                "image_filename": ["MM01-0006-05.tif"]
            },
            {
                "miniessay": "Illinois Central Railroad, Land Grant Maps, 1854",
                "text_filename": "1854_illinois_land_grant.txt",
                "path": "1854-illinois-land-grant",
                "image_filename": ["998365438805867_MM01-0004_graff_2081_001.tif"]
            },
            {
                "miniessay": "",
                "text_filename": "",
                "image_filename": ["998365428805867_MM01-0004_graff_2081_002.tif"]
            },
            {
                "miniessay": "",
                "text_filename": "",
                "image_filename": ["998365418805867_MM01-0004_graff_2081_003.tif"]
            },
            {
                "miniessay": "",
                "text_filename": "",
                "image_filename": ["998365398805867_MM01-0004_graff_2081_004.tif"]
            },
            {
                "miniessay": "",
                "text_filename": "",
                "image_filename": ["998365408805867_MM01-0004_graff_2081_005.tif"]
            },
            {
                "miniessay": "Proposed Northern Rail Route to the Pacific, 1854",
                "text_filename": "1854_northern_rr.txt",
                "path": "1854-northern-rr",
                "image_filename": ["998365458805867_MM01-0005_graff_2216_001.tif"]
            },
            {
                "miniessay": "Railroads in the United States, 1854",
                "text_filename": "1854_rr_us.txt",
                "path": "1854-rr-us",
                "image_filename": ["998365368805867_MM01-0007_IC_map6F_G3701_P3_1854_P6_001.tif"]
            },
            {
                "miniessay": "Track Book, NOJ&GN RR, ca. 1872",
                "text_filename": "1872_track_book.txt",
                "path": "1872-track-book",
                "image_filename": ["998368428805867_MM01-0008_IC_6_n4_2_003.tif"]
            },
            {
                "miniessay": "",
                "text_filename": "",
                "image_filename": ["998368438805867_MM01-0008_IC_6_n4_2_002.tif"]
            },
            {
                "miniessay": "",
                "text_filename": "",
                "image_filename": ["998368448805867_MM01-0008_IC_6_n4_2_001.tif"]
            },
            {
                "miniessay": "AT&SF Lands for Sale in Kansas, 1873",
                "text_filename": "1873_atsf_kansas.txt",
                "path": "1873-atsf-kansas",
                "image_filename": ["991847378805867_MM01-0010_map_4f_g4201_p3_1873_a7_001.tif"]
            },
            {
                "miniessay": "",
                "text_filename": "",
                "image_filename": ["991847378805867_MM01-0010_map_4f_g4201_p3_1873_a7_002.tif"]
            },
            {
                "miniessay": "Pennsylvania Railroad Promotional Map, 1876",
                "text_filename": "1876_penn_rr.txt",
                "path": "1876-penn-rr",
                "image_filename": ["998367918805867_MM01-0009_map_4f_g3701_p3_1876_r3_001.tif"]
            },
            {
                "miniessay": "",
                "text_filename": "",
                "image_filename": ["998367918805867_MM01-0009_map_4f_g3701_p3_1876_r3_002.tif"]
            }
        ]
    },
    {
        "essay_title": "Maps of Trails and Roads of the Great West",
        "essay_text_filename": "_MAIN_maps_of_trails_and_roads.txt",
        "path": "maps-of-trails-and-roads",
        "maps": [{
                "miniessay": "Map of the Province of New Mexico, 1779",
                "text_filename": "1779_map_of_the_province_of_new_mexico.txt",
                "path": "1779-map-of-the-province-of-new-mexico",
                "image_filename": ["MM07-0061-01_Final.tif"]
            },
            {
                "miniessay": "Road from Capital of New Spain to Santa Fe, 1811",
                "text_filename": "1811_road_from_capital_of_new_spain.txt",
                "path": "1811-road-from-capital-of-new-spain",
                "image_filename": ["998653698805867_MM07-0062_graff_2009_pl_7.tif"]
            },
            {
                "miniessay": "Map of Texas with Parts of Adjoining States, 1830",
                "text_filename": "1830_map_of_texas_with_parts.txt",
                "path": "1830-map-of-texas-with-parts",
                "image_filename": ["MM07-0063-01_Final.tif"]
            },
            {
                "miniessay": "A New Map of Texas, Oregon, and California, 1846",
                "text_filename": "1846_new_map_of_texas.txt",
                "path": "1846-new-map-of-texas",
                "image_filename": ["991562448805867_MM07-0064_MM07-0064_map_3c_g4050_1846_m5_002.tif"]
            },
            {
                "miniessay": "",
                "text_filename": "",
                "image_filename": ["991562448805867_MM07-0064_map_3c_g4050_1846_m5_003.tif"]
            },
            {
                "miniessay": "The Overland Mail Route to California, 1857",
                "text_filename": "1857_overland_mail_route_to_california.txt",
                "path": "1857-overland-mail-route-to-california",
                "image_filename": ["MM07-0066-01_Final.tif"]
            },
            {
                "miniessay": "The Route from Kansas City to the Gold Mines, 1859",
                "text_filename": "1859_route_from_kansas_city.txt",
                "path": "1859-route-from-kansas-city",
                "image_filename": ["991541658805867_MM07-0065_graff_1693_001.tif"]
            },
            {
                "miniessay": "",
                "text_filename": "",
                "image_filename": ["998653648805867_MM07-0065_graff_1693_002.tif"]
            },
            {
                "miniessay": "Military Road from Fort Walla Walla to Fort Benton, 1863",
                "text_filename": "1863_military_road_from_fort_walla.txt",
                "path": "1863-military-road-from-fort-walla",
                "image_filename": ["998653688805867_MM07-0067_map_8f_graff_2932_map_1.tif"]
            },
            {
                "miniessay": "The Territory of Montana, 1870",
                "text_filename": "1870_territory_of_montana.txt",
                "path": "1870-territory-of-montana",
                "image_filename": ["991572058805867_MM07-0069_graff_1040.tif"]
            },
            {
                "miniessay": "The Best and Shortest Cattle Trail from Texas, 1875",
                "text_filename": "1875_best_and_shortest_cattle.txt",
                "path": "1875-best-and-shortest-cattle",
                "image_filename": ["991542168805867_MM07-0068-01__GR_2275_001.TIF"]
            },
            {
                "miniessay": "",
                "text_filename": "",
                "image_filename": ["991542168805867_MM07-0068-01__GR_2275_002.tif"]
            },
            {
                "miniessay": "The Gold and Coal Fields of Alaska, 1898",
                "text_filename": "1898_gold_and_coal_fields.txt",
                "path": "1898-gold-and-coal-fields",
                "image_filename": ["997505618805867_MM07-0070_map_4c_g4371_h1_1898_u5.tif"]
            }
        ]
    },
    {
        "essay_title": "Waterways Cartography, Part I: The Mapping of North America's Internal Navigation Systems",
        "essay_text_filename": "_MAIN_waterways_cartography_part_1.txt",
        "path": "waterways-cartography-part-1",
        "maps": [{
                "miniessay": "Proposed Canal, New York to Philadelphia, 1808",
                "text_filename": "1808_proposed_canal_new_york.txt",
                "path": "1808-proposed-canal-new-york",
                "image_filename": ["998713828805867_MM12-0111_case_4a_988_01.tif"]
            },
            {
                "miniessay": "",
                "text_filename": "",
                "image_filename": ["998713388805867_MM12-0111_case_4a_988_02.tif"]
            },
            {
                "miniessay": "Navigation Guide for Inland Rivers, 1817",
                "text_filename": "1817_navigation_guide_for_inland_rivers.txt",
                "path": "1817-navigation-guide-for-inland-rivers",
                "image_filename": ["998713838805867_MM12-0112_case_g_875_191_01.tif"]
            },
            {
                "miniessay": "",
                "text_filename": "",
                "image_filename": ["998713838805867_MM12-0112_case_g_875_191_02.tif"]
            },
            {
                "miniessay": "Plan and Profile, Erie Canal, 1820",
                "text_filename": "1820_plan_and_profile_erie_canal.txt",
                "path": "1820-plan-and-profile-erie-canal",
                "image_filename": ["998714808805867_MM12-0114_h_69_686_vol_2_map_01.tif"]
            },
            {
                "miniessay": "",
                "text_filename": "",
                "image_filename": ["998714798805867_MM12-0114_h_69_686_vol_2_map_02.tif"]
            },
            {
                "miniessay": "Canals and Railroads, North America, 1829",
                "text_filename": "1829_canals_and_railroads.txt",
                "path": "1829-canals-and-railroads",
                "image_filename": ["MM12-0113-01_Final.tif"]
            },
            {
                "miniessay": "Travel Guide, Hudson River, 1848",
                "text_filename": "1848_travel_guide_hudson.txt",
                "path": "1848-travel-guide-hudson",
                "image_filename": ["998713858805867_MM12-0115_baskes_e_158_p91_1848_01.tif"]
            },
            {
                "miniessay": "",
                "text_filename": "",
                "image_filename": ["998713858805867_MM12-0115_baskes_e_158_p91_1848_02.tif"]
            },
            {
                "miniessay": "",
                "text_filename": "",
                "image_filename": ["998713858805867_MM12-0115_baskes_e_158_p91_1848_03.tif"]
            },
            {
                "miniessay": "",
                "text_filename": "",
                "image_filename": ["998713858805867_MM12-0115_baskes_e_158_p91_1848_04.tif"]
            },
            {
                "miniessay": "Proposed Dams and Jetties, Hudson River, ca. 1852",
                "text_filename": "1852_proposed_dams_and_jetties.txt",
                "path": "1852-proposed-dams-and-jetties",
                "image_filename": ["MM12-0116-01_Final.tif"]
            },
            {
                "miniessay": "Canada: Lakes and Canals, 1862",
                "text_filename": "1862_canada_lakes_and_canals.txt",
                "path": "1862-canada-lakes-and-canals",
                "image_filename": ["MM12-0117-01_Final.tif"]
            },
            {
                "miniessay": "Canal Profiles, New York State, 1862",
                "text_filename": "1862_canal_profiles_new_york",
                "image_filename": ["MM12-0118-01_Final.tif"]
            },
            {
                "miniessay": "Proposed Canal, Inland from the James River, 1869",
                "text_filename": "1869_proposed_canal_inland.txt",
                "path": "1869-proposed-canal-inland",
                "image_filename": ["MM12-0120-01_Final.tif"]
            },
            {
                "miniessay": "Longitudinal Sections, Mississippi Valley, 1878",
                "text_filename": "1878_longitudinal_sections.txt",
                "path": "1878-longitudinal-sections",
                "image_filename": ["MM12-0119-01_Final.tif"]
            },
            {
                "miniessay": "",
                "text_filename": "",
                "image_filename": ["MM12-0119-02_Final.tif"]
            }
        ]
    },

    {
        "essay_title": "Moving Pictures: Maps and Imagination in Eighteenth-Century Anglo-America",
        "essay_text_filename": "_MAIN_moving_pictures.txt",
        "path": "moving-pictures",
        "maps": [{
                "miniessay": "Territory of Virginia, 1672",
                "text_filename": "1672_virginia.txt",
                "path": "1672-virginia",
                "image_filename": ["998706788805867_MM09-0081_ayer_150.5_v7_l4_1672.tif"]
            },
            {
                "miniessay": "Territorial Claims, North America, 1720",
                "text_filename": "1720_territorial_claims.txt",
                "path": "1720-territorial-claims",
                "image_filename": ["991578408805867_MM09-0082_graff_2855.tif"]
            },
            {
                "miniessay": "Charecke Nation and the Path to Charles Town, 1730",
                "text_filename": "1730_charecke_nation.txt",
                "path": "1730-charecke-nation",
                "image_filename": ["994894278805867_MM09-0083_Ayer_map4F_G3860_1730_H8_1917_001.tif"]
            },
            {
                "miniessay": "",
                "text_filename": "",
                "image_filename": ["994894278805867_MM09-0083_Ayer_map4F_G3860_1730_H8_1917_002.tif"]
            },
            {
                "miniessay": "",
                "text_filename": "",
                "image_filename": ["994894278805867_MM09-0083_Ayer_map4F_G3860_1730_H8_1917_003.tif"]
            },
            {
                "miniessay": "",
                "text_filename": "",
                "image_filename": ["994894278805867_MM09-0083_Ayer_map4F_G3860_1730_H8_1917_004.tif"]
            },
            {
                "miniessay": "",
                "text_filename": "",
                "image_filename": ["994894278805867_MM09-0083_Ayer_map4F_G3860_1730_H8_1917_005.tif"]
            },
            {
                "miniessay": "British Colonies in America, 1755",
                "text_filename": "1755_british_colonies.txt",
                "path": "1755-british-colonies",
                "image_filename": ["MM09-00084-01_final.tif"]
            },
            {
                "miniessay": "The Most Inhabited Part of Virginia, 1755",
                "text_filename": "1755_virginia.txt",
                "path": "1755-virginia",
                "image_filename": ["MM09-0085-01_Final.tif"]
            },
            {
                "miniessay": "",
                "text_filename": "",
                "image_filename": ["MM09-0085-02-Final.tif"]
            },
            {
                "miniessay": "South Carolina and Part of Georgia, 1757",
                "text_filename": "1757_south_carolina.txt",
                "path": "1757-south-carolina",
                "image_filename": ["MM09-0087-01_Final.tif"]
            },
            {
                "miniessay": "The Carolinas and their Indian Frontiers, 1775",
                "text_filename": "1775_carolinas.txt",
                "path": "1775-carolinas",
                "image_filename": ["MM09-0086-01_Final.tif"]
            },
            {
                "miniessay": "The Seat of War in New England, 1775",
                "text_filename": "1775_war_new_england.txt",
                "path": "1775-war-new-england",
                "image_filename": ["MM09-0089-01_Final.tif"]
            },
            {
                "miniessay": "Harbour of Charles Town, 1777",
                "text_filename": "1777_charles_town.txt",
                "path": "1777-charles-town",
                "image_filename": ["MM09-0090-01_Final.tif"]
            },
            {
                "miniessay": "South Carolina and Part of Georgia, 1780",
                "text_filename": "1780_south_carolina.txt",
                "path": "1780-south-carolina",
                "image_filename": ["MM09-0088-01_Full_Final.tif"]
            }
        ]
    },
    {
        "essay_title": "Planning Transportation",
        "essay_text_filename": "_MAIN_planning_transportation.txt",
        "path": "planning-transportation",
        "maps": [{
                "miniessay": "Plan for a Great Pier in the North River, 1836",
                "text_filename": "1836_north_river.txt",
                "path": "1836-north-river",
                "image_filename": ["998645668805867_MM06-0051_H_67_622_map","2.tif"]
            },
            {
                "miniessay": "",
                "text_filename": "",
                "image_filename": ["998645668805867_MM06-0051_H_67_622_map","2_001.tif"]
            },
            {
                "miniessay": "Railway map of Philadelphia, 1876",
                "text_filename": "1876_railway_philadelphia.txt",
                "path": "1876-railway-philadelphia",
                "image_filename": ["998643888805867_MM06-0052_map_6f_g3824_p5p3_1876_w4.tif"]
            },
            {
                "miniessay": "Road map of the country around New York, 1895",
                "text_filename": "1895_road_map_ny.txt",
                "path": "1895-road-map-ny",
                "image_filename": ["998643918805867_MM06-0053_map_6f_g3804_n4a1_1895_r3_001.tif"]
            },
            {
                "miniessay": "",
                "text_filename": "",
                "image_filename": ["998643918805867_MM06-0053_map_6f_g3804_n4a1_1895_r3_002.tif"]
            },
            {
                "miniessay": "",
                "text_filename": "",
                "image_filename": ["998643918805867_MM06-0053_map_6f_g3804_n4a1_1895_r3_003.tif"]
            },
            {
                "miniessay": "Property of Railroads in the Business Center of Chicago, 1898",
                "text_filename": "1898_property_chicago.txt",
                "path": "1898-property-chicago",
                "image_filename": ["998645678805867_MM06-0054_map_4f_g4014_c6_2l5_1898_b7.tif"]
            },
            {
                "miniessay": "Electric Railway Lines, Los Angeles, 1911",
                "text_filename": "1911_electric_la.txt",
                "path": "1911-electric-la",
                "image_filename": ["998645638805867_MM06-0055_5a_7267_vol_2.tif"]
            },
            {
                "miniessay": "Preliminary New England Regional Plan, 1937",
                "text_filename": "1937_new_england_regional.txt",
                "path": "1937-new-england-regional",
                "image_filename": ["998643938805867_MM06-0056_temp_map_4f_g3721_g45_1937_n4.tif"]
            },
            {
                "miniessay": "Preliminary City Plan of Chicago, 1946",
                "text_filename": "1946_preliminary_chicago.txt",
                "path": "1946-preliminary-chicago",
                "image_filename": ["994533958805867_MM06-0057_map_g10896_165_001.tif"]
            },
            {
                "miniessay": "",
                "text_filename": "",
                "image_filename": ["994533958805867_MM06-0057_map_g10896_165_002.tif"]
            },
            {
                "miniessay": "",
                "text_filename": "",
                "image_filename": ["994533958805867_MM06-0057_map_g10896_165_003.tif"]
            },
            {
                "miniessay": "",
                "text_filename": "",
                "image_filename": ["994533958805867_MM06-0057_map_g10896_165_004.tif"]
            },
            {
                "miniessay": "",
                "text_filename": "",
                "image_filename": ["994533958805867_MM06-0057_map_g10896_165_005.tif"]
            },
            {
                "miniessay": "Valparaiso Master Plan 1951",
                "text_filename": "1951_valparaiso.txt",
                "path": "1951-valparaiso",
                "image_filename": ["998643908805867_MM06-0058_map_2f_g4094_v2g5_1951_m4.tif"]
            },
            {
                "miniessay": "",
                "text_filename": "",
                "image_filename": ["998643908805867_MM06-0058_map_2f_g4094_v2g5_1951_m4_cb.tif"]
            },
            {
                "miniessay": "New Orleans Metropolitan Area Basic Evacuation Plan, 1961",
                "text_filename": "1961_new_orleans.txt",
                "path": "1961-new-orleans",
                "image_filename": ["998643898805867_MM06-0059_map_4f_g4014_n5r6_1961_h6_001.tif"]
            },
            {
                "miniessay": "",
                "text_filename": "",
                "image_filename": ["998643898805867_MM06-0059_map_4f_g4014_n5r6_1961_h6_002.tif"]
            },
            {
                "miniessay": "Plan for New York City, 1969",
                "text_filename": "1969_plan_nyc.txt",
                "path": "1969-plan-nyc",
                "image_filename": ["99839558805867_MM06-0060_ht_168_n5_a5_1969_001.tif"]
            },
            {
                "miniessay": "",
                "text_filename": "",
                "image_filename": ["998645658805867_MM06-0060_ht_168_n5_a5_1969_002.tif"]
            }
        ]
    },
    {
        "essay_title": "Waterways Cartography, Part II: Landmarks and Exemplars in North America",
        "essay_text_filename": "_MAIN_waterways_cartography_part_2.txt",
        "path": "waterways-cartography-part-2",
        "maps": [{
                "miniessay": "Inland Canals, 1882",
                "text_filename": "1882_inland_canals.txt",
                "path": "1882-inland-canals",
                "image_filename": ["MM13-0121-01_Final.tif"]
            },
            {
                "miniessay": "",
                "text_filename": "",
                "image_filename": ["MM13-0121-02_Final.tif"]
            },
            {
                "miniessay": "Water Transportation Routes, United States, 1894",
                "text_filename": "1894_water_transportation_routes_us.txt",
                "path": "1894-water-transportation-routes-us",
                "image_filename": ["MM13-0124-01_Final.tif"]
            },
            {
                "miniessay": "Water Routes to the Yukon, 1898",
                "text_filename": "1898_water_routes_yukon.txt",
                "path": "1898-water-routes-yukon",
                "image_filename": ["MM13-0122-01_Final.tif"]
            },
            {
                "miniessay": "Canals in Ohio, 1904",
                "text_filename": "1904_canals_ohio.txt",
                "path": "1904-canals-ohio",
                "image_filename": ["998715618805867_MM13-0123_F_892_653_vol_13.tif"]
            },
            {
                "miniessay": "Freight Rates on Inland Rivers, 1908",
                "text_filename": "1908_freight_rates_inland.txt",
                "path": "1908-freight-rates-inland",
                "image_filename": ["998715628805867_MM13-0125_Govt.","5250_vol_17_map_01.tif"]
            },
            {
                "miniessay": "",
                "text_filename": "",
                "image_filename": ["998715638805867_MM13-0125_Govt.","5250_vol_17_map_09.tif"]
            },
            {
                "miniessay": "Buffalo and the Great Lakes, 1931",
                "text_filename": "1931_buffalo_great_lakes.txt",
                "path": "1931-buffalo-great-lakes",
                "image_filename": ["MM13-0126-01_Final.tif"]
            },
            {
                "miniessay": "",
                "text_filename": "",
                "image_filename": ["MM13-0126-02_Final.tif"]
            },
            {
                "miniessay": "",
                "text_filename": "",
                "image_filename": ["MM13-0126-03_Final.tif"]
            },
            {
                "miniessay": "",
                "text_filename": "",
                "image_filename": ["MM13-0126-04_Final.tif"]
            },
            {
                "miniessay": "U.S. Lake Survey, Cleveland Harbor Sheet, 1936",
                "text_filename": "1936_us_lake_survey.txt",
                "path": "1936-us-lake-survey",
                "image_filename": ["MM13-0127-01_Final.tif"]
            },
            {
                "miniessay": "Intracoastal Waterway, New Jersey, 1949-1950",
                "text_filename": "1949_intracoastal_waterway_nj.txt",
                "path": "1949-intracoastal-waterway-nj",
                "image_filename": ["998716078805867_MM13-0129_map_6f_g3812_c6_1949_u55_01.tif"]
            },
            {
                "miniessay": "",
                "text_filename": "",
                "image_filename": ["998716078805867_MM13-0129_map_6f_g3812_c6_1949_u55_02.tif"]
            },
            {
                "miniessay": "",
                "text_filename": "",
                "image_filename": ["998716078805867_MM13-0129_map_6f_g3812_c6_1949_u55_03.tif"]
            },
            {
                "miniessay": "",
                "text_filename": "",
                "image_filename": ["998716078805867_MM13-0129_map_6f_g3812_c6_1949_u55_04.tif"]
            },
            {
                "miniessay": "Commodities and Carriers on Inland Waterways, 1964",
                "text_filename": "1964_commodities.txt",
                "path": "1964-commodities",
                "image_filename": ["998716068805867_MM13-0130_S_4882_865_pg_212.tif"]
            },
            {
                "miniessay": "Nautical Charts of the Illinois River, 1970",
                "text_filename": "1970_nautical_charts_illinois.txt",
                "path": "1970-nautical-charts-illinois",
                "image_filename": ["998716058805867_MM13-0128_map6c_g4102_i51_1970_u5_01.tif"]
            },
            {
                "miniessay": "",
                "text_filename": "",
                "image_filename": ["998716048805867_MM13-0128_map6c_g4102_i51_1970_u5_02.tif"]
            }
        ]
    },

    {
        "essay_title": "State and Federal Mapping of Infrastructure and Movement",
        "essay_text_filename": "_MAIN_state_and_federal.txt",
        "path": "state-and-federal",
        "maps": [{
                "miniessay": "Lewis and Clark’s Track, 1803-1805",
                "text_filename": "1803_lewis_clark.txt",
                "path": "1803-lewis-clark",
                "image_filename": ""
            },
            {
                "miniessay": "The Rapids of the Ohio, 1808",
                "text_filename": "1808_rapids_ohio.txt",
                "path": "1808-rapids-ohio",
                "image_filename": ["MM05-0040-01.tif"]
            },
            {
                "miniessay": "Proposed Canal, Lake Erie to Hudson River, 1821",
                "text_filename": "1821_canal_lake_erie.txt",
                "path": "1821-canal-lake-erie",
                "image_filename": ["998561558805867_MM05-0042_map_8f_g3802_e44_1821_n4.tif"]
            },
            {
                "miniessay": "U.S. Expeditionary Map of the Oregon Territory, 1841-1845",
                "text_filename": "1841_us_expeditionary_oregon.txt",
                "path": "1841-us-expeditionary-oregon",
                "image_filename": ["MM05-0043_Ayer_119.1_w6_1838.tif"]
            },
            {
                "miniessay": "Fremont’s Exploration of the Oregon Trail, 1846",
                "text_filename": "1846_fremont_oregon.txt",
                "path": "1846-fremont-oregon",
                "image_filename": ["991570248805867_MM05-0044_Graff_3360_001.tif"]
            },
            {
                "miniessay": "",
                "text_filename": "",
                "image_filename": ["991570248805867_MM05-0044_Graff_3360_002.tif"]
            },
            {
                "miniessay": "",
                "text_filename": "",
                "image_filename": ["991570248805867_MM05-0044_Graff_3360_003.tif"]
            },
            {
                "miniessay": "",
                "text_filename": "",
                "image_filename": ["991570248805867_MM05-0044_Graff_3360_004.tif"]
            },
            {
                "miniessay": "",
                "text_filename": "",
                "image_filename": ["991570248805867_MM05-0044_Graff_3360_005.tif"]
            },
            {
                "miniessay": "",
                "text_filename": "",
                "image_filename": ["991570248805867_MM05-0044_Graff_3360_006.tif"]
            },
            {
                "miniessay": "",
                "text_filename": "",
                "image_filename": ["991570248805867_MM05-0044_Graff_3360_007.tif"]
            },
            {
                "miniessay": "",
                "text_filename": "",
                "image_filename": ["991570248805867_MM05-0044_Graff_3360_008.tif"]
            },
            {
                "miniessay": "Corps of Engineers Map of Chicago Harbor, 1858",
                "text_filename": "1858_chicago_harbor.txt",
                "path": "1858-chicago-harbor",
                "image_filename": ["997396178805867_MM05-0045_map_6f_g4014_c6_2c5_1858_u5_001.tif"]
            },
            {
                "miniessay": "The Union Pacific Railroad under Construction, 1866",
                "text_filename": "1866_union_pacific_rr.txt",
                "path": "1866-union-pacific-rr",
                "image_filename": ["991410948805867_MM05-0046_case_ms_g4050_1866_d6_001.tif"]
            },
            {
                "miniessay": "",
                "text_filename": "",
                "image_filename": ["991410948805867_MM05-0046_case_ms_g4050_1866_d6_002.tif"]
            },
            {
                "miniessay": "",
                "text_filename": "",
                "image_filename": ["991410948805867_MM05-0046_case_ms_g4050_1866_d6_003.tif"]
            },
            {
                "miniessay": "Proposed Panama Canal, 1905",
                "text_filename": "1905_panama_canal.txt",
                "path": "1905-panama-canal",
                "image_filename": ["998559858805867_MM05-0047_map_8f_g4872_p3_1905_c3_pl_8.tif"]
            },
            {
                "miniessay": "Airmen’s Silk Chart, Vladivostok and Keijō, 1944",
                "text_filename": "1944_silk_chart.txt",
                "path": "1944-silk-chart",
                "image_filename": ["998561578805867_MM05-0048_map_4c_g7800_svar_u5_no_2_001.tif"]
            },
            {
                "miniessay": "",
                "text_filename": "",
                "image_filename": ["998561588805867_MM05-0048_map_4c_g7800_svar_u5_no_2_002.tif"]
            },
            {
                "miniessay": "Ancient Courses, Mississippi River Meander Belt",
                "text_filename": "1945_ancient_courses.txt",
                "path": "1945-ancient-courses",
                "image_filename": ["MM05-0049-01_01.tif"]
            },
            {
                "miniessay": "",
                "text_filename": "",
                "image_filename": ["MM05-0049-01_02.tif"]
            },
            {
                "miniessay": "",
                "text_filename": "",
                "image_filename": ["MM05-0049-01_03.tif"]
            },
            {
                "miniessay": "",
                "text_filename": "",
                "image_filename": ["MM05-0049-01_04.tif"]
            }
        ]
    }
]