[
    [
        "",
        [
            [
                "American “Maps of movement” embrace all manner of cartography that enabled or illuminates the historical movements of human beings, goods, and other mappable phenomena across, around, and from the Americas. They are powerful tools for the studying the history of geographical mobility and routemaking as well as economic, social, cultural, intellectual, and political life. From sea charts used by maritime explorers to road maps used by motorists to visit national parks, maps of movement document the detail and pattern of routes; the pace and character of various modes of travel; the imprint of transportation and routes of travel on settlement and migratory patterns; the role of commercial marketing and civic boosterism in geographical movement; and the role mapping and geographical study have played in understanding the earth's surface. American maps of movement have both enabled mobility and shaped conceptions of American landscapes and their possibilities.",
                "/home-intro",
                "The production of this site was made possible by a major grant from the Preservation and Access Division of the National Endowment for the Humanities, an independent agency of the United States Government."
            ]
        ]
    ],
    [
        [
            "Maps of Trails and Roads of the Great West",
            "/maps-of-trails-and-roads"
        ],
        [
            [
                "The Route from Kansas City to the Gold Mines, 1859",
                "/maps-of-trails-and-roads-of-the-great-west/1859-route-from-kansas-city",
                "Maps of Trails and Roads of the Great West"
            ],
            [
                "Map of the Province of New Mexico, 1779",
                "/maps-of-trails-and-roads-of-the-great-west/1779-map-of-the-province-of-new-mexico",
                "Maps of Trails and Roads of the Great West"
            ],
            [
                "The Territory of Montana, 1870",
                "/maps-of-trails-and-roads-of-the-great-west/1870-territory-of-montana",
                "Maps of Trails and Roads of the Great West"
            ],
            [
                "Road from Capital of New Spain to Santa Fe, 1811",
                "/maps-of-trails-and-roads-of-the-great-west/1811-road-from-capital-of-new-spain",
                "Maps of Trails and Roads of the Great West"
            ],
            [
                "Military Road from Fort Walla Walla to Fort Benton, 1863",
                "/maps-of-trails-and-roads-of-the-great-west/1863-military-road-from-fort-walla",
                "Maps of Trails and Roads of the Great West"
            ],
            [
                "A New Map of Texas, Oregon, and California, 1846",
                "/maps-of-trails-and-roads-of-the-great-west/1846-new-map-of-texas",
                "Maps of Trails and Roads of the Great West"
            ],
            [
                "The Gold and Coal Fields of Alaska, 1898",
                "/maps-of-trails-and-roads-of-the-great-west/1898-gold-and-coal-fields",
                "Maps of Trails and Roads of the Great West"
            ],
            [
                "The Overland Mail Route to California, 1857",
                "/maps-of-trails-and-roads-of-the-great-west/1857-overland-mail-route-to-california",
                "Maps of Trails and Roads of the Great West"
            ],
            [
                "The Best and Shortest Cattle Trail from Texas, 1875",
                "/maps-of-trails-and-roads-of-the-great-west/1875-best-and-shortest-cattle",
                "Maps of Trails and Roads of the Great West"
            ],
            [
                "Map of Texas with Parts of Adjoining States, 1830",
                "/maps-of-trails-and-roads-of-the-great-west/1830-map-of-texas-with-parts",
                "Maps of Trails and Roads of the Great West"
            ]
        ]
    ],
    [
        [
            "State and Federal Mapping of Infrastructure and Movement",
            "/state-and-federal"
        ],
        [
            [
                "Lewis and Clark’s Track, 1803-1805",
                "/state-and-federal/1803-lewis-clark",
                "State and Federal Mapping of Infrastructure and Movement"
            ],
            [
                "Ancient Courses, Mississippi River Meander Belt",
                "/state-and-federal/1945-ancient-courses",
                "State and Federal Mapping of Infrastructure and Movement"
            ],
            [
                "Airmen’s Silk Chart, Vladivostok and Keijō, 1944",
                "/state-and-federal/1944-silk-chart",
                "State and Federal Mapping of Infrastructure and Movement"
            ],
            [
                "Proposed Canal, Lake Erie to Hudson River, 1821",
                "/state-and-federal/1821-canal-lake-erie",
                "State and Federal Mapping of Infrastructure and Movement"
            ],
            [
                "The Rapids of the Ohio, 1808",
                "/state-and-federal/1808-rapids-ohio",
                "State and Federal Mapping of Infrastructure and Movement"
            ],
            [
                "The Union Pacific Railroad under Construction, 1866",
                "/state-and-federal/1866-union-pacific-rr",
                "State and Federal Mapping of Infrastructure and Movement"
            ],
            [
                "U.S. Expeditionary Map of the Oregon Territory, 1841-1845",
                "/state-and-federal/1841-us-expeditionary-oregon",
                "State and Federal Mapping of Infrastructure and Movement"
            ],
            [
                "Corps of Engineers Map of Chicago Harbor, 1858",
                "/state-and-federal/1858-chicago-harbor",
                "State and Federal Mapping of Infrastructure and Movement"
            ],
            [
                "Proposed Panama Canal, 1905",
                "/state-and-federal/1905-panama-canal",
                "State and Federal Mapping of Infrastructure and Movement"
            ],
            [
                "Fremont’s Exploration of the Oregon Trail, 1846",
                "/state-and-federal/1846-fremont-oregon",
                "State and Federal Mapping of Infrastructure and Movement"
            ]
        ]
    ],
    [
        [
            "American Railroad Maps, 1828-1876",
            "/american-railroad-maps-1828-1876"
        ],
        [
            [
                "Proposed Northern Rail Route to the Pacific, 1854",
                "/american-railroad-maps-1828-1876/1854-northern-rr",
                "American Railroad Maps, 1828-1876"
            ],
            [
                "Railroads in the United States, 1854",
                "/american-railroad-maps-1828-1876/1854-rr-us",
                "American Railroad Maps, 1828-1876"
            ],
            [
                "Guidebook to the Boston and Worcester and Western Railroads, 1847",
                "/american-railroad-maps-1828-1876/1847-boston-worcester",
                "American Railroad Maps, 1828-1876"
            ],
            [
                "Survey for a Pacific Railroad near the 35th Parallel, 1853-54",
                "/american-railroad-maps-1828-1876/1853-pacific-rr",
                "American Railroad Maps, 1828-1876"
            ],
            [
                "AT&SF Lands for Sale in Kansas, 1873",
                "/american-railroad-maps-1828-1876/1873-atsf-kansas",
                "American Railroad Maps, 1828-1876"
            ],
            [
                "Survey of the Boston and Albany Railroad, 1828",
                "/american-railroad-maps-1828-1876/1828-survey-boston",
                "American Railroad Maps, 1828-1876"
            ],
            [
                "Pennsylvania Railroad Promotional Map, 1876",
                "/american-railroad-maps-1828-1876/1867-penn-rr",
                "American Railroad Maps, 1828-1876"
            ],
            [
                "Illinois Central Railroad, Land Grant Maps, 1854",
                "/american-railroad-maps-1828-1876/1854-illinois-land-grant",
                "American Railroad Maps, 1828-1876"
            ],
            [
                "Vision for a U.S. Railroad Network, 1836",
                "/american-railroad-maps-1828-1876/1836-vision-us-rr",
                "American Railroad Maps, 1828-1876"
            ],
            [
                "Track Book, NOJ&GN RR, ca. 1872",
                "/american-railroad-maps-1828-1876/1872-track-book",
                "American Railroad Maps, 1828-1876"
            ]
        ]
    ],
    [
        [
            "Mapping Communication",
            "/mapping-communication"
        ],
        [
            [
                "A Wire across the Continent, 1866",
                "/mapping-communication/1866-wire-across-continent",
                "Mapping Communication"
            ],
            [
                "Colonial Post Roads, 1773",
                "/mapping-communication/1773-colonial-post-roads",
                "Mapping Communication"
            ],
            [
                "Benjamin Franklin’s Chart of the Gulf Stream, 1768-1770",
                "/mapping-communication/1768-chart-gulf-stream",
                "Mapping Communication"
            ],
            [
                "Radio Stations of the United States, Canada, Mexico, and Cuba, 1926",
                "/mapping-communication/1926-radio-stations",
                "Mapping Communication"
            ],
            [
                "Rivers, Roads, and Rates of Travel, 1932",
                "/mapping-communication/1932-rivers-roads-rates",
                "Mapping Communication"
            ],
            [
                "The New Economy, 1899",
                "/mapping-communication/1899-new-economy",
                "Mapping Communication"
            ],
            [
                "Independent Telephone Networks, 1905",
                "/mapping-communication/1905-independent-telephone",
                "Mapping Communication"
            ],
            [
                "Standard Time and Solar Time, 1889",
                "/mapping-communication/1889-standard-time",
                "Mapping Communication"
            ],
            [
                "A Wire Across the Ocean, 1858",
                "/mapping-communication/1858-wire-across-ocean",
                "Mapping Communication"
            ],
            [
                "Routes to California, 1849",
                "/mapping-communication/1849-routes-to-california",
                "Mapping Communication"
            ]
        ]
    ],
    [
        [
            "Lines that Fracture and Fade: Two Centuries of Travel through Georgia, 1775-1976",
            "/lines-that-fracture"
        ],
        [
            [
                "Georgia Central Railroad and its Connections, 1869",
                "/lines-that-fracture/1869-georgia-central-railroad",
                "Lines that Fracture and Fade: Two Centuries of Travel through Georgia, 1775-1976"
            ],
            [
                "The State of Georgia, in the American Atlas, 1822",
                "/lines-that-fracture/1822-state-of-georgia",
                "Lines that Fracture and Fade: Two Centuries of Travel through Georgia, 1775-1976"
            ],
            [
                "Principal US Electric Transmission Lines, 1968",
                "/lines-that-fracture/1968-principal-us-electric",
                "Lines that Fracture and Fade: Two Centuries of Travel through Georgia, 1775-1976"
            ],
            [
                "North Carolina, South Carolina, and Georgia, 1835",
                "/lines-that-fracture/1835-north-carolina-south",
                "Lines that Fracture and Fade: Two Centuries of Travel through Georgia, 1775-1976"
            ],
            [
                "Southern Indian District of North America, 1775",
                "/lines-that-fracture/1775-southern-indian-district-of-north-america",
                "Lines that Fracture and Fade: Two Centuries of Travel through Georgia, 1775-1976"
            ],
            [
                "Mapping the Travels of John and William Bartram, 1976",
                "/lines-that-fracture/1976-mapping-the-travels-of-john",
                "Lines that Fracture and Fade: Two Centuries of Travel through Georgia, 1775-1976"
            ],
            [
                "Motor Routes to Augusta, Georgia and Florida, 1930",
                "/lines-that-fracture/1930-motor-routes-to-augusta",
                "Lines that Fracture and Fade: Two Centuries of Travel through Georgia, 1775-1976"
            ],
            [
                "National Highways Proposed in Georgia, 1919",
                "/lines-that-fracture/1919-national-highways-proposed-in-georgia",
                "Lines that Fracture and Fade: Two Centuries of Travel through Georgia, 1775-1976"
            ],
            [
                "Map of the State of Georgia, 1818",
                "/lines-that-fracture/1818-map-of-the-state-of-georgia",
                "Lines that Fracture and Fade: Two Centuries of Travel through Georgia, 1775-1976"
            ],
            [
                "U.S. Army Map of Northwestern Georgia, 1863",
                "/lines-that-fracture/1863-usarmy-map-of-northwest-georgia",
                "Lines that Fracture and Fade: Two Centuries of Travel through Georgia, 1775-1976"
            ]
        ]
    ],
    [
        [
            "Planning Transportation",
            "/planning-transportation"
        ],
        [
            [
                "Plan for New York City, 1969",
                "/planning-transportation/1969-plan-nyc",
                "Planning Transportation"
            ],
            [
                "Plan for a Great Pier in the North River, 1836",
                "/planning-transportation/1836-north-river",
                "Planning Transportation"
            ],
            [
                "New Orleans Metropolitan Area Basic Evacuation Plan, 1961",
                "/planning-transportation/1961-new-orleans",
                "Planning Transportation"
            ],
            [
                "Road map of the country around New York, 1895",
                "/planning-transportation/1895-road-map-ny",
                "Planning Transportation"
            ],
            [
                "Preliminary City Plan of Chicago, 1946",
                "/planning-transportation/1946-preliminary-chicago",
                "Planning Transportation"
            ],
            [
                "Property of Railroads in the Business Center of Chicago, 1898",
                "/planning-transportation/1898-property-chicago",
                "Planning Transportation"
            ],
            [
                "Railway map of Philadelphia, 1876",
                "/planning-transportation/1876-railway-philadelphia",
                "Planning Transportation"
            ],
            [
                "Preliminary New England Regional Plan, 1937",
                "/planning-transportation/1937-new-england-regional",
                "Planning Transportation"
            ],
            [
                "Electric Railway Lines, Los Angeles, 1911",
                "/planning-transportation/1911-electric-la",
                "Planning Transportation"
            ],
            [
                "Valparaiso Master Plan 1951",
                "/planning-transportation/1951-valparaiso",
                "Planning Transportation"
            ]
        ]
    ],
    [
        [
            "Waterways Cartography, Part II: Landmarks and Exemplars in North America",
            "/waterways-cartography-part-2"
        ],
        [
            [
                "Intracoastal Waterway, New Jersey, 1949-1950",
                "/waterways-cartography-part-2/1949-intracoastal-waterway-nj",
                "Waterways Cartography, Part II: Landmarks and Exemplars in North America"
            ],
            [
                "Freight Rates on Inland Rivers, 1908",
                "/waterways-cartography-part-2/1908-freight-rates-inland",
                "Waterways Cartography, Part II: Landmarks and Exemplars in North America"
            ],
            [
                "Water Transportation Routes, United States, 1894",
                "/waterways-cartography-part-2/1894-water-transportation-routes-us",
                "Waterways Cartography, Part II: Landmarks and Exemplars in North America"
            ],
            [
                "Buffalo and the Great Lakes, 1931",
                "/waterways-cartography-part-2/1931-buffalo-great-lakes",
                "Waterways Cartography, Part II: Landmarks and Exemplars in North America"
            ],
            [
                "Commodities and Carriers on Inland Waterways, 1964",
                "/waterways-cartography-part-2/1964-commodities",
                "Waterways Cartography, Part II: Landmarks and Exemplars in North America"
            ],
            [
                "Canals in Ohio, 1904",
                "/waterways-cartography-part-2/1904-canals-ohio",
                "Waterways Cartography, Part II: Landmarks and Exemplars in North America"
            ],
            [
                "Water Routes to the Yukon, 1898",
                "/waterways-cartography-part-2/1898-water-routes-yukon",
                "Waterways Cartography, Part II: Landmarks and Exemplars in North America"
            ],
            [
                "U.S. Lake Survey, Cleveland Harbor Sheet, 1936",
                "/waterways-cartography-part-2/1936-us-lake-survey",
                "Waterways Cartography, Part II: Landmarks and Exemplars in North America"
            ],
            [
                "Nautical Charts of the Illinois River, 1970",
                "/waterways-cartography-part-2/1970-nautical-charts-illinois",
                "Waterways Cartography, Part II: Landmarks and Exemplars in North America"
            ],
            [
                "Inland Canals, 1882",
                "/waterways-cartography-part-2/1882-inland-canals",
                "Waterways Cartography, Part II: Landmarks and Exemplars in North America"
            ]
        ]
    ],
    [
        [
            "Maps, Movement, and American Literature",
            "/maps-movement-lit"
        ],
        [
            [
                "Territories of Michigan and Ouisconsin, 1836",
                "/maps-movement-lit/1836-michigan-ouisconsin",
                "Maps, Movement, and American Literature"
            ],
            [
                "The United States of America, 1784",
                "/maps-movement-lit/1784-usa",
                "Maps, Movement, and American Literature"
            ],
            [
                "Christopher Columbus's Letter, 1494",
                "/maps-movement-lit/1494-christopher-columbus",
                "Maps, Movement, and American Literature"
            ],
            [
                "Road Map of the Southwestern States",
                "/maps-movement-lit/1955-road-map-southwestern",
                "Maps, Movement, and American Literature"
            ],
            [
                "Zigzag Journeys, Western States of America, 1884",
                "/maps-movement-lit/1884-zigzag",
                "Maps, Movement, and American Literature"
            ],
            [
                "New England, 1616",
                "/maps-movement-lit/1616-new-england",
                "Maps, Movement, and American Literature"
            ],
            [
                "British and French Dominions in North America, 1755",
                "/maps-movement-lit/1755-british-french",
                "Maps, Movement, and American Literature"
            ],
            [
                "The Hollow Earth, 1906",
                "/maps-movement-lit/1906-hollow-earth",
                "Maps, Movement, and American Literature"
            ],
            [
                "The Island of Barbados, 1657",
                "/maps-movement-lit/1657-island-barbados",
                "Maps, Movement, and American Literature"
            ],
            [
                "Mississippi River, St. Louis to the Gulf, 1862",
                "/maps-movement-lit/1862-mississippi",
                "Maps, Movement, and American Literature"
            ]
        ]
    ],
    [
        [
            "European Maps for Exploration and Discovery",
            "/european-maps-for-exploration"
        ],
        [
            [
                "Jesuit Map of Lake Superior, 1672",
                "/european-maps-for-exploration/1672-jesuit-map-of-lake-superior",
                "European Maps for Exploration and Discovery"
            ],
            [
                "Map of Kentucky, 1784",
                "/european-maps-for-exploration/1784-map-of-kentucky",
                "European Maps for Exploration and Discovery"
            ],
            [
                "Florida and the Apalachee Lands, 1598",
                "/european-maps-for-exploration/1598-florida-and-the-apalachee-lands",
                "European Maps for Exploration and Discovery"
            ],
            [
                "New Voyages in Northern America, 1703",
                "/european-maps-for-exploration/1703-new-voyages-in-northern-america",
                "European Maps for Exploration and Discovery"
            ],
            [
                "Globe Gore of Eastern North America, 1688",
                "/european-maps-for-exploration/1688-globe-gore-of-eastern-north-america",
                "European Maps for Exploration and Discovery"
            ],
            [
                "MacKenzie's Northern Voyages, 1801",
                "/european-maps-for-exploration/1801-mackenzies-northern-voyages",
                "European Maps for Exploration and Discovery"
            ],
            [
                "New France, 1612",
                "/european-maps-for-exploration/1612-new-france",
                "European Maps for Exploration and Discovery"
            ],
            [
                "Russian Voyages in the Pacific Northwest, 1761",
                "/european-maps-for-exploration/1761-russian-voyages-in-the-pacific-northwest",
                "European Maps for Exploration and Discovery"
            ],
            [
                "Nautical chart of the Pacific coast of Mexico, Baja California, and the Gulf of California, 1541 (1770)",
                "/european-maps-for-exploration/1541-nautical-chart-of-the-pacific-coast-of-mexico",
                "European Maps for Exploration and Discovery"
            ],
            [
                "Virginia, 1612",
                "/european-maps-for-exploration/1612-virginia",
                "European Maps for Exploration and Discovery"
            ]
        ]
    ],
    [
        [
            "Around, Over, and Through the Americas",
            "/around-over-through"
        ],
        [
            [
                "Louisiana and the Coast of Mexico, 1726",
                "/around-over-through/1726-louisiana-mexico",
                "Around, Over, and Through the Americas"
            ],
            [
                "Panorama of the American Continent, 1950",
                "/around-over-through/1950-panorama-american",
                "Around, Over, and Through the Americas"
            ],
            [
                "Airmail Route, Argentina to United States, 1929",
                "/around-over-through/1929-airmail-argentina",
                "Around, Over, and Through the Americas"
            ],
            [
                "The United States of Brazil, 1908",
                "/around-over-through/1908-united-brazil",
                "Around, Over, and Through the Americas"
            ],
            [
                "Military Reconnaissance from Fort Leavenworth to San Diego, 1848",
                "/around-over-through/1848-military-leavenworth",
                "Around, Over, and Through the Americas"
            ],
            [
                "The Panama Railroad, 1855",
                "/around-over-through/1855-panama-rr",
                "Around, Over, and Through the Americas"
            ],
            [
                "The Route of Professor Hiram Bingham from Caracas to Bogota, 1909",
                "/around-over-through/1909-route-bogota",
                "Around, Over, and Through the Americas"
            ],
            [
                "Atlas of Venezuela, 1840",
                "/around-over-through/1840-atlas-venezuela",
                "Around, Over, and Through the Americas"
            ],
            [
                "Motorist's Guide to Mexico, 1938",
                "/around-over-through/1938-motorists-mexico",
                "Around, Over, and Through the Americas"
            ],
            [
                "Ye Olde Spanish Main, 1933",
                "/around-over-through/1933-ye-olde-spanish",
                "Around, Over, and Through the Americas"
            ]
        ]
    ],
    [
        [
            "Moving Pictures: Maps and Imagination in Eighteenth-Century Anglo-America",
            "/moving-pictures"
        ],
        [
            [
                "Territorial Claims, North America, 1720",
                "/moving-pictures/1720-territorial-claims",
                "Moving Pictures: Maps and Imagination in Eighteenth-Century Anglo-America"
            ],
            [
                "Territory of Virginia, 1672",
                "/moving-pictures/1672-virginia",
                "Moving Pictures: Maps and Imagination in Eighteenth-Century Anglo-America"
            ],
            [
                "South Carolina and Part of Georgia, 1757",
                "/moving-pictures/1757-south-carolina",
                "Moving Pictures: Maps and Imagination in Eighteenth-Century Anglo-America"
            ],
            [
                "The Carolinas and their Indian Frontiers, 1775",
                "/moving-pictures/1775-carolinas",
                "Moving Pictures: Maps and Imagination in Eighteenth-Century Anglo-America"
            ],
            [
                "Charecke Nation and the Path to Charles Town, 1730",
                "/moving-pictures/1730-charecke-nation",
                "Moving Pictures: Maps and Imagination in Eighteenth-Century Anglo-America"
            ],
            [
                "British Colonies in America, 1755",
                "/moving-pictures/1755-british-colonies",
                "Moving Pictures: Maps and Imagination in Eighteenth-Century Anglo-America"
            ],
            [
                "The Seat of War in New England, 1775",
                "/moving-pictures/1775-war-new-england",
                "Moving Pictures: Maps and Imagination in Eighteenth-Century Anglo-America"
            ],
            [
                "Harbour of Charles Town, 1777",
                "/moving-pictures/1777-charles-town",
                "Moving Pictures: Maps and Imagination in Eighteenth-Century Anglo-America"
            ],
            [
                "South Carolina and Part of Georgia, 1780",
                "/moving-pictures/1780-south-carolina",
                "Moving Pictures: Maps and Imagination in Eighteenth-Century Anglo-America"
            ],
            [
                "The Most Inhabited Part of Virginia, 1755",
                "/moving-pictures/1755-virginia",
                "Moving Pictures: Maps and Imagination in Eighteenth-Century Anglo-America"
            ]
        ]
    ],
    [
        [
            "Navigating the Coasts and Seas",
            "/navigating-the-coasts"
        ],
        [
            [
                "Stage and Steamboat Routes, Ohio, 1833",
                "/navigating-the-coasts/1833-stage-and-steamboat-routes-ohio",
                "Navigating the Coasts and Seas"
            ],
            [
                "Austro-Hungarian Arctic Expedition, 1877",
                "/navigating-the-coasts/1877-austro-hungarian",
                "Navigating the Coasts and Seas"
            ],
            [
                "Frontiers of Ocean Navigation and Study, 1859",
                "/navigating-the-coasts/1859-frontiers-of-ocean",
                "Navigating the Coasts and Seas"
            ],
            [
                "U.S. Coast Survey Chart, Hawaii, 1934",
                "/navigating-the-coasts/1934-us-coast-survey-chart-hawaii",
                "Navigating the Coasts and Seas"
            ],
            [
                "Coast Pilot Chart of New England, 1732",
                "/navigating-the-coasts/1732-coast-pilot-chart",
                "Navigating the Coasts and Seas"
            ],
            [
                "U.S. Coast Survey Chart, New Haven Harbour, 1838",
                "/navigating-the-coasts/1838-us-coast-survey-chart-new-haven",
                "Navigating the Coasts and Seas"
            ],
            [
                "Algae Concentrations, Sargasso Sea, 1891",
                "/navigating-the-coasts/1891-algae-concentrations",
                "Navigating the Coasts and Seas"
            ],
            [
                "Ships and Navigation, 1820",
                "/navigating-the-coasts/1820-ships-and-navigation",
                "Navigating the Coasts and Seas"
            ],
            [
                "Variations of the Compass, Atlantic Ocean, 1732",
                "/navigating-the-coasts/1732-variations-of-the-compass",
                "Navigating the Coasts and Seas"
            ],
            [
                "Trade Winds and Navigation, North Atlantic, 1807",
                "/navigating-the-coasts/1807-trade-winds",
                "Navigating the Coasts and Seas"
            ]
        ]
    ],
    [
        [
            "Mapping Migration and Settlement",
            "/mapping-migration"
        ],
        [
            [
                "Guide to the Northwestern States, in German, 1843",
                "/mapping-migration/1843-northwestern-states",
                "Mapping Migration and Settlement"
            ],
            [
                "Plat book of Clayton County, Iowa, 1886",
                "/mapping-migration/1886-plat-book-clayton",
                "Mapping Migration and Settlement"
            ],
            [
                "Slave Populations in Southern States, 1863",
                "/mapping-migration/1863-slave-populations",
                "Mapping Migration and Settlement"
            ],
            [
                "Underground Railroad Routes to Canada, 1898",
                "/mapping-migration/1898-underground-railroad-routes",
                "Mapping Migration and Settlement"
            ],
            [
                "German Immigration Guide to the US, 1846",
                "/mapping-migration/1846-german-immigration",
                "Mapping Migration and Settlement"
            ],
            [
                "Map of the Route to California, 1849",
                "/mapping-migration/1849-route-california",
                "Mapping Migration and Settlement"
            ],
            [
                "Statistical Atlas of the United States, 1898",
                "/mapping-migration/1898-statistical-atlas-us",
                "Mapping Migration and Settlement"
            ],
            [
                "Fire Insurance Atlas of Chicago, 1886",
                "/mapping-migration/1886-fire-insurance-chicago",
                "Mapping Migration and Settlement"
            ],
            [
                "Nationalities of Chicago by City Block, 1895",
                "/mapping-migration/1895-nationalities-chicago",
                "Mapping Migration and Settlement"
            ],
            [
                "Eastern Kansas and Indian Lands, 1856",
                "/mapping-migration/1856-eastern-kansas",
                "Mapping Migration and Settlement"
            ]
        ]
    ],
    [
        [
            "American Railroad Maps, 1873-2012",
            "/american-railroad-maps-1873-2012"
        ],
        [
            [
                "Rand McNally Business Atlas, Florida Map, 1909",
                "/american-railroad-maps-1873-2012/1909-rand-mcnally-business-atlas-florida",
                "American Railroad Maps, 1873-2012"
            ],
            [
                "Railroad Operations Map, Industrial District, Kansas City, 1945",
                "/american-railroad-maps-1873-2012/1945-railroad-operations-map-industrial",
                "American Railroad Maps, 1873-2012"
            ],
            [
                "Georgia Railroad Commission Map, 1916",
                "/american-railroad-maps-1873-2012/1916-georgia-railroad",
                "American Railroad Maps, 1873-2012"
            ],
            [
                "Canadian Pacific Railway, Metis Rebellion, 1886",
                "/american-railroad-maps-1873-2012/1886-canadian-pacific",
                "American Railroad Maps, 1873-2012"
            ],
            [
                "Railroad Valuation Map, Itasca, IL, 1919",
                "/american-railroad-maps-1873-2012/1919-railroad-valuation-map-itasca",
                "American Railroad Maps, 1873-2012"
            ],
            [
                "Milwaukee Road Time Table, 1920",
                "/american-railroad-maps-1873-2012/1920-milwaukee-road",
                "American Railroad Maps, 1873-2012"
            ],
            [
                "Atlas of Traffic Maps, 1925",
                "/american-railroad-maps-1873-2012/1925-atlas-of-traffic-maps",
                "American Railroad Maps, 1873-2012"
            ],
            [
                "Lake Superior South Shore Railway, 1890",
                "/american-railroad-maps-1873-2012/1890-lake-superior",
                "American Railroad Maps, 1873-2012"
            ],
            [
                "White Mountains, NH, Railroad Map, 1870",
                "/american-railroad-maps-1873-2012/1870-white-mountains",
                "American Railroad Maps, 1873-2012"
            ],
            [
                "Amtrak Passenger Routes, 1971",
                "/american-railroad-maps-1873-2012/1971-amtrak-passenger",
                "American Railroad Maps, 1873-2012"
            ]
        ]
    ],
    [
        [
            "Waterways Cartography, Part I: The Mapping of North America's Internal Navigation Systems",
            "/waterways-cartography-part-1"
        ],
        [
            [
                "Navigation Guide for Inland Rivers, 1817",
                "/waterways-cartography-part-1/1817-navigation-guide-for-inland-rivers",
                "Waterways Cartography, Part I: The Mapping of North America's Internal Navigation Systems"
            ],
            [
                "Proposed Dams and Jetties, Hudson River, ca. 1852",
                "/waterways-cartography-part-1/1852-proposed-dams-and-jetties",
                "Waterways Cartography, Part I: The Mapping of North America's Internal Navigation Systems"
            ],
            [
                "Travel Guide, Hudson River, 1848",
                "/waterways-cartography-part-1/1848-travel-guide-hudson",
                "Waterways Cartography, Part I: The Mapping of North America's Internal Navigation Systems"
            ],
            [
                "Proposed Canal, New York to Philadelphia, 1808",
                "/waterways-cartography-part-1/1808-proposed-canal-new-york",
                "Waterways Cartography, Part I: The Mapping of North America's Internal Navigation Systems"
            ],
            [
                "Longitudinal Sections, Mississippi Valley, 1878",
                "/waterways-cartography-part-1/1878-longitudinal-sections",
                "Waterways Cartography, Part I: The Mapping of North America's Internal Navigation Systems"
            ],
            [
                "Canada: Lakes and Canals, 1862",
                "/waterways-cartography-part-1/1862-canada-lakes-and-canals",
                "Waterways Cartography, Part I: The Mapping of North America's Internal Navigation Systems"
            ],
            [
                "Canals and Railroads, North America, 1829",
                "/waterways-cartography-part-1/1829-canals-and-railroads",
                "Waterways Cartography, Part I: The Mapping of North America's Internal Navigation Systems"
            ],
            [
                "Plan and Profile, Erie Canal, 1820",
                "/waterways-cartography-part-1/1820-plan-and-profile-erie-canal",
                "Waterways Cartography, Part I: The Mapping of North America's Internal Navigation Systems"
            ],
            [
                "Canal Profiles, New York State, 1862",
                "/waterways-cartography-part-1/1862-canal-profiles-new-york",
                "Waterways Cartography, Part I: The Mapping of North America's Internal Navigation Systems"
            ],
            [
                "Proposed Canal, Inland from the James River, 1869",
                "/waterways-cartography-part-1/1869-proposed-canal-inland",
                "Waterways Cartography, Part I: The Mapping of North America's Internal Navigation Systems"
            ]
        ]
    ]
]